0.fsdb.vcd
$date
	Wed Aug 29 17:06:44 2001

$end
$version
	VERILOG-XL 3.10.p001
$end
$timescale
	1ns
$end
$scope module system $end
$scope module i_cpu $end
$scope module i_ALUB $end
$scope module i_alu $end
$var wire 1 ! a [7] $end
$var wire 1 " a [6] $end
$var wire 1 # a [5] $end
$var wire 1 $ a [4] $end
$var wire 1 % a [3] $end
$var wire 1 & a [2] $end
$var wire 1 ' a [1] $end
$var wire 1 ( a [0] $end
$var wire 1 ) b [7] $end
$var wire 1 * b [6] $end
$var wire 1 + b [5] $end
$var wire 1 , b [4] $end
$var wire 1 - b [3] $end
$var wire 1 . b [2] $end
$var wire 1 / b [1] $end
$var wire 1 0 b [0] $end
$var wire 1 1 four [3] $end
$var wire 1 2 four [2] $end
$var wire 1 3 four [1] $end
$var wire 1 4 four [0] $end
$var wire 1 5 cin $end
$var wire 1 6 carry $end
$var wire 1 7 big $end
$upscope $end
$upscope $end
$upscope $end
$upscope $end
$enddefinitions $end
$dumpvars
x!
x7
x"
x$
x(
x0
x1
x)
x2
x3
x%
x*
x4
x5
x+
x6
x#
x&
x,
x-
x'
x.
x/
$end
#31
05
#35
0/
0.
00
0*
0)
0+
0-
0,
#38
0"
0!
0$
0(
0%
0'
0#
0&
#54
03
#56
01
02
#64
04
#69
06
#72
07
#359
15
#374
14
#472
1(
#484
11
04
#488
12
#493
01
#494
02
#559
05
#565
0(
#574
14
#576
11
#583
01
#591
04
#659
15
#665
1(
#677
11
#681
12
#686
01
#687
02
#772
0(
1'
#959
05
#966
0'
#967
1$
1(
1&
1"
#980
17
#981
13
11
#1058
10
1.
1,
1*
#1059
15
#1066
0&
1'
0"
0$
#1067
0*
0,
00
0.
#1069
14
12
#1071
07
#1074
17
#1076
01
#1077
02
#1083
07
#1172
1&
0'
0(
#1182
11
#1183
12
#1184
03
#1185
01
#1186
04
#1259
05
#1263
1"
1$
1(
#1270
0$
0(
1#
02
0"
0&
#1275
11
13
#1276
17
#1279
03
#1280
14
#1283
13
#1288
01
#1296
04
#1365
1&
1"
1(
1$
#1366
0#
#1372
03
#1379
11
13
#1459
15
#1464
10
1*
1.
1,
#1466
0.
0,
0$
0"
0(
0*
00
#1478
03
01
#1480
07
12
#1559
05
#1563
1$
1"
1(
#1570
02
#1575
13
11
#1576
17
#1659
15
#1663
0"
0(
0&
0$
#1664
10
1*
1.
1,
#1665
1(
1&
#1666
0,
0.
00
0*
#1680
07
#1772
1'
0(
#1781
03
#1787
14
#1859
05
#1863
1$
1(
1"
#1865
0'
#1868
13
#1870
12
#1874
04
02
#1876
17
#1959
15
#1964
1,
10
1.
1*
#1965
1'
#1966
0*
0.
0(
0,
00
0"
0$
#1974
03
#1975
01
#1978
11
#1980
07
14
#2072
1(
#2083
04
#2084
01
#2259
05
#2263
1$
1"
#2265
0&
0"
0'
0(
0$
#2266
1#
#2275
14
#2276
11
#2278
13
#2279
17
#2283
01
#2291
04
#2359
15
#2363
1*
1.
10
1,
#2366
0#
1%
#2367
0*
0.
00
0,
#2370
03
#2374
12
#2378
02
#2380
07
#2472
1(
#2483
12
#2563
1&
1"
1$
#2565
0%
#2570
02
#2574
11
13
#2576
17
#2659
1'
0(
#2663
0$
0"
0'
0&
#2664
1#
1*
1,
1/
1.
#2665
1(
1%
#2666
0.
0/
0#
0*
0,
#2668
03
#2670
12
#2674
01
#2680
07
#2772
1'
0(
#2779
13
#2859
05
#2861
0%
0'
1#
#2863
1&
1$
1'
1"
#2864
0#
1+
#2865
0'
0&
0$
0"
#2866
1#
02
#2868
03
#2870
1(
0#
#2872
13
#2874
17
#2879
03
07
#2882
17
#2883
14
#2886
11
12
#2891
13
#2894
04
#2961
0+
#2965
1$
1'
1"
1&
#2966
0(
#2971
02
01
03
#2974
07
#2978
11
13
17
#3059
15
#3064
1,
1*
1/
1.
#3065
1%
#3066
0.
0*
0"
0,
0&
0$
0/
#3068
03
#3070
14
12
#3072
13
#3074
01
#3076
04
#3080
07
#3159
05
#3163
1$
1"
1&
#3165
0%
#3169
03
#3170
02
#3175
11
13
#3176
17
#3259
15
#3263
0&
0"
0$
0'
#3264
1,
1.
1*
1/
#3265
1%
1(
1'
#3266
0/
0*
0.
0,
#3268
03
#3270
12
14
#3272
13
#3274
01
#3280
07
#3372
0'
0(
1&
#3378
03
#3559
05
#3563
1$
1'
1"
#3565
0'
0"
0%
0&
0$
#3566
1#
#3570
02
#3572
04
#3578
13
#3579
17
#3659
15
#3663
1,
1.
1*
1/
#3667
16
#3669
03
#3670
1(
1$
0#
1"
1&
#3675
11
#3677
14
#3680
06
#3681
04
#3682
13
01
#3689
07
#3758
0,
0/
0*
0.
10
#3766
1%
0"
0$
#3767
00
#3768
11
#3770
17
#3771
12
#3773
14
#3775
03
#3780
07
#3872
0(
1'
#3879
04
#4059
05
#4063
1(
#4065
0%
0'
0&
#4066
1#
#4070
02
#4074
01
#4075
14
#4079
17
#4084
13
#4087
04
#4170
1$
1"
1&
0#
0(
1'
#4176
03
#4183
11
13
#4259
15
#4263
1,
1.
1/
1*
#4266
0"
0$
1(
1%
#4267
0*
0/
0,
0.
#4268
03
#4270
14
#4271
12
#4272
13
#4275
01
03
#4277
04
02
#4285
07
#4372
0(
0%
1$
0&
0'
#4379
12
13
#4383
11
#4384
14
#4385
02
03
#4390
01
#4392
04
#4397
14
#4559
05
#4563
1'
1"
1&
#4565
0'
0"
0&
0$
#4566
1#
#4572
04
#4578
13
#4579
17
#4581
14
#4587
04
#4663
1.
1,
1/
1*
#4669
03
#4670
1"
0#
1$
1&
1(
#4675
11
#4679
13
#4682
01
03
#4758
0.
0,
0*
1-
1+
10
1)
#4759
15
#4766
0"
0&
#4767
0)
0/
0-
0+
00
#4774
11
#4777
14
#4779
01
#4782
13
#4784
07
#4788
03
#4790
04
#4872
0(
1'
#4959
05
#4963
1!
1(
1%
1#
#4965
0'
0!
0%
0$
#4966
1"
1&
1$
#4967
0#
#4970
0$
1#
1'
0"
0&
0(
#4976
17
13
#4977
11
#4979
12
03
14
#4981
01
#4983
02
04
#5065
1%
1(
1!
#5070
12
#5072
13
#5073
14
#5159
15
#5164
1+
1/
1-
1)
10
#5165
1$
#5166
00
0)
0!
0#
0(
0-
0%
0/
0+
#5173
03
#5174
04
02
#5185
07
#5259
05
#5263
1!
1#
1%
1(
#5265
0$
#5268
12
#5270
13
#5271
14
#5276
17
#5359
15
#5363
0(
0%
0!
#5364
1+
10
1)
1/
1-
#5365
1$
1(
0#
#5366
0/
0+
00
0-
0)
#5374
02
#5383
07
#5472
1&
0'
0(
#5482
11
#5483
12
#5484
03
#5485
01
#5486
04
#5559
05
#5563
1#
1%
1'
1(
1!
#5565
0&
0$
#5570
14
#5571
13
#5659
0(
0%
0#
15
0!
0'
#5664
1!
1'
1(
1%
1#
#5665
1$
1&
#5666
0#
0%
0(
0'
0!
#5667
02
04
#5670
03
#5680
12
#5772
1(
#5784
13
11
#5786
02
#5790
17
#5959
05
#5966
0&
0$
0(
#5967
1'
#5970
12
#5974
07
#5977
03
01
#5979
02
#6058
1/
#6059
15
#6066
1$
1&
#6067
0/
#6068
13
#6076
11
03
#6078
14
#6086
17
#6172
1(
#6183
04
#6184
01
#6259
05
#6265
0&
0(
0$
#6270
1#
1(
#6279
07
#6280
13
#6283
17
#6366
0#
0(
#6373
03
#6379
07
#6459
15
#6464
1/
#6465
1(
1$
1&
#6466
0/
#6485
17
#6559
05
#6565
0&
0$
0(
#6579
07
#6659
15
#6664
1/
#6665
0'
1%
1$
#6666
0/
#6670
12
#6674
02
#6682
17
#6772
1(
#6783
12
#6959
05
#6963
1'
#6965
0$
0%
0(
#6966
1%
#6970
13
#6979
07
#7059
15
#7063
1/
1-
#7066
1$
#7067
0/
0-
#7082
17
#7172
1(
#7180
14
#7259
05
#7265
0$
0(
#7270
0%
1#
0'
1$
#7273
04
02
#7277
11
03
#7279
07
#7281
13
#7283
01
17
#7286
14
#7459
15
#7463
1/
1-
#7467
0/
0-
#7472
04
#7474
03
#7478
13
#7480
14
#7482
03
#7572
1(
#7584
11
04
#7588
12
#7593
01
#7594
02
#7759
05
#7763
1'
1%
#7765
0$
0#
0%
0(
#7766
1#
1(
#7771
13
#7859
15
#7863
1/
1-
#7867
16
#7868
14
#7870
0(
0#
#7871
12
#7878
04
#7891
06
#7895
07
#7958
0/
#7966
1$
1#
#7967
0-
#7972
02
#7974
03
#7979
17
#8072
1(
#8082
13
#8084
14
#8159
05
#8163
1%
#8165
0#
0$
0'
0(
0%
#8166
1'
#8170
1#
1$
0'
#8172
03
#8174
04
#8176
11
#8178
07
#8181
13
#8183
01
17
#8186
14
#8359
15
#8363
1-
#8367
0-
#8370
03
#8373
04
#8380
14
#8472
1(
#8484
11
04
#8488
12
#8493
01
#8494
02
#8659
05
#8663
1%
#8665
0$
0#
0(
0%
#8666
1'
1#
1(
#8674
13
#8759
15
#8763
1-
#8767
16
#8768
14
#8770
0(
0#
#8771
12
#8778
04
#8791
06
#8795
07
#8858
0-
1.
1/
#8863
02
#8864
03
#8866
1$
1#
#8867
0/
0.
#8870
11
13
#8872
14
#8876
03
#8879
17
01
#8881
04
#8972
1(
#8982
13
#8984
14
#9059
05
#9063
1&
#9065
0#
0(
0&
0$
#9070
1#
1$
0'
#9072
03
#9074
04
#9076
11
#9078
07
#9081
13
#9083
01
17
#9086
14
#9259
15
#9263
1.
1/
#9267
0.
0/
#9269
03
#9272
04
#9278
12
13
#9280
14
#9282
02
03
#9372
1(
#9384
11
04
#9388
12
#9393
01
#9394
02
#9559
05
#9563
1&
1'
#9565
0$
0(
0&
0#
#9566
1(
1#
#9571
13
#9659
15
#9663
1/
1.
#9667
16
#9668
14
#9670
0(
0#
#9671
03
#9673
04
#9674
12
#9682
13
11
#9684
14
02
#9692
06
#9696
07
#9758
0/
#9766
1#
1$
#9767
03
0.
#9779
01
17
#9781
04
#9872
1(
#9882
13
#9884
14
#9959
05
#9963
1&
#9965
0(
0#
0'
0&
0$
#9966
1'
#9970
1#
1$
0'
#9972
03
#9974
04
#9976
11
#9978
07
#9981
13
#9983
01
17
#9986
14
#10159
15
#10163
1.
#10167
0.
#10170
03
#10173
04
#10178
12
#10180
14
#10182
02
#10272
1(
#10284
11
04
#10288
12
#10293
01
#10294
02
#10459
05
#10463
1&
#10465
0#
0$
0(
0&
#10466
1'
1#
1(
#10474
13
#10559
15
#10563
1.
#10567
16
#10568
14
#10570
0#
0(
#10571
03
#10573
04
#10574
12
#10582
11
#10584
14
02
#10592
06
#10596
07
#10658
0.
1/
#10666
1$
1#
#10667
13
0/
#10670
01
#10672
04
#10676
03
#10679
17
#10772
1(
#10782
13
#10784
14
#10859
05
#10865
0$
0#
0(
#10870
0'
1$
1#
#10872
03
#10874
04
#10876
11
#10878
07
#10881
13
#10883
01
17
#10886
14
#11059
15
#11063
1/
#11067
0/
#11069
03
#11072
04
#11078
13
#11080
14
#11082
03
#11172
1(
#11184
11
04
#11188
12
#11193
01
#11194
02
#11359
05
#11363
1'
#11365
0#
0(
0$
#11366
1#
1(
#11371
13
#11459
15
#11463
1/
#11467
16
#11468
14
#11470
0(
0#
#11479
04
#11507
06
#11512
07
#11558
1)
1*
0/
1+
#11566
1#
1$
#11567
03
0)
0*
0+
#11571
17
#11672
1(
#11682
13
#11684
14
#11759
05
#11763
1!
1"
#11765
0$
0(
0!
0"
0'
#11766
1'
#11767
0#
#11770
1$
0'
1#
#11774
04
#11776
11
#11783
01
#11786
14
#11959
15
#11963
1+
1)
1*
#11967
0+
0)
0*
#11971
03
#11973
04
#11980
14
#12072
1(
#12084
04
11
#12088
12
#12093
01
#12094
02
#12259
05
#12263
1"
1!
#12265
0(
0"
0!
0$
#12266
1'
1(
#12271
13
#12359
15
#12363
1*
1+
1)
#12367
16
#12368
14
#12370
0#
0(
#12377
06
#12379
04
#12380
03
#12458
0+
1.
1-
1/
1,
#12463
12
#12466
1$
1#
#12467
0,
0.
0/
0-
0)
0*
#12468
11
#12472
02
#12476
01
#12572
1(
#12582
13
#12584
14
#12659
05
#12663
1%
1&
1!
1"
#12665
0!
0"
0(
0#
0$
0%
0&
#12670
0'
1#
1$
#12672
03
#12674
04
#12676
11
#12678
07
#12681
13
#12683
01
17
#12686
14
#12859
15
#12863
1*
1.
1,
1)
1/
1-
#12867
0/
0-
0*
0.
0,
0)
#12869
03
#12872
04
#12878
12
13
#12880
14
#12882
02
03
#12972
1(
#12984
04
11
#12988
12
#12993
01
#12994
02
#13159
05
#13163
1!
1'
1%
1&
1"
#13165
0!
0%
0&
0"
0(
0#
0$
#13166
1(
1#
#13171
13
#13259
15
#13263
1*
1/
1-
1)
1,
1.
#13267
16
#13268
14
#13270
0#
0(
#13271
03
#13273
04
#13277
06
#13279
12
#13281
11
#13358
0/
#13366
1$
1#
#13367
0,
0.
0)
0-
0*
#13372
02
#13376
01
#13472
1(
#13482
13
#13484
14
#13559
05
#13563
1%
1"
1&
1!
#13565
0&
0!
0(
0$
0'
0#
0"
0%
#13566
1'
#13570
1$
1#
0'
#13572
03
#13574
04
#13576
11
#13578
07
#13581
13
#13583
01
17
#13586
14
#13759
15
#13763
1*
1-
1)
1.
1,
#13767
0.
0,
0*
0-
0)
#13770
03
#13774
04
#13778
12
#13780
14
#13782
02
#13872
1(
#13884
11
04
#13888
12
#13893
01
#13894
02
#14059
05
#14063
1%
1&
1"
1!
#14065
0"
0!
0$
0(
0%
0&
0#
#14066
1'
1(
1#
#14074
13
#14159
15
#14163
1*
1.
1,
1-
1)
#14167
16
#14168
14
#14170
0#
0(
#14171
03
#14173
04
#14177
06
#14179
12
#14181
11
#14258
0.
1/
#14264
13
#14266
1#
1$
#14267
0)
0/
0,
0-
0*
#14268
01
#14272
02
#14274
03
#14372
1(
#14382
13
#14384
14
#14459
05
#14463
1"
1!
1%
#14465
0!
0%
0(
0$
0#
0"
#14470
0'
1$
1#
#14472
03
#14474
04
#14476
11
#14478
07
#14481
13
#14483
01
17
#14486
14
#14659
15
#14663
1-
1*
1,
1)
1/
#14667
0)
0/
0-
0*
0,
#14672
04
#14674
03
#14678
13
#14680
14
#14682
03
#14772
1(
#14784
04
11
#14788
12
#14793
01
#14794
02
#14959
05
#14963
1%
1!
1'
1"
#14965
0(
0"
0#
0$
0%
0!
#14966
1(
1#
#14971
13
#15059
15
#15063
1-
1/
1)
1*
1,
#15067
16
#15068
14
#15070
0#
0(
#15071
12
#15077
06
#15078
04
#15158
0/
#15166
1#
1$
#15167
0,
0)
0*
0-
#15172
02
#15174
03
#15272
1(
#15282
13
#15284
14
#15359
05
#15363
1!
1%
1"
#15365
0%
0"
0'
0#
0(
0!
0$
#15366
1'
#15370
1#
1$
0'
#15372
03
#15374
04
#15376
11
#15378
07
#15381
13
#15383
01
17
#15386
14
#15559
15
#15563
1*
1-
1)
1,
#15567
0*
0-
0)
0,
#15570
03
#15573
04
#15580
14
#15672
1(
#15684
04
11
#15688
12
#15693
01
#15694
02
#15859
05
#15863
1"
1!
1%
#15865
0!
0%
0#
0$
0(
0"
#15866
1'
1#
1(
#15874
13
#15959
15
#15963
1)
1-
1,
1*
#15967
16
#15968
14
#15970
0#
0(
#15971
12
#15977
06
#15978
04
#16058
1.
0-
1/
#16063
02
#16064
03
#16066
1#
1$
#16067
0,
0*
0.
0/
0)
#16070
11
13
#16072
14
#16076
03
#16079
01
#16081
04
#16172
1(
#16182
13
#16184
14
#16259
05
#16263
1!
1&
1"
#16265
0&
0"
0$
0(
0!
0#
#16270
0'
1$
1#
#16272
03
#16274
04
#16276
11
#16278
07
#16281
13
#16283
01
17
#16286
14
#16459
15
#16463
1,
1)
1.
1*
1/
#16467
0*
0/
0,
0)
0.
#16469
03
#16472
04
#16478
12
13
#16480
14
#16482
02
03
#16572
1(
#16584
04
11
#16588
12
#16593
01
#16594
02
#16759
05
#16763
1!
1'
1&
1"
#16765
0#
0"
0$
0(
0!
0&
#16766
1#
1(
#16771
13
#16859
15
#16863
1,
1/
1*
1)
1.
#16867
16
#16868
14
#16870
0(
0#
#16871
03
#16873
04
#16874
12
#16877
06
#16882
13
11
#16884
14
02
#16958
0/
#16966
1$
1#
#16967
0.
03
0)
0*
0,
#16979
01
#16981
04
#17072
1(
#17082
13
#17084
14
#17159
05
#17163
1&
1"
1!
#17165
0"
0!
0#
0'
0(
0&
0$
#17166
1'
#17170
1#
1$
0'
#17172
03
#17174
04
#17176
11
#17178
07
#17181
13
#17183
01
17
#17186
14
#17359
15
#17363
1*
1.
1)
1,
#17367
0*
0.
0)
0,
#17370
03
#17373
04
#17378
12
#17380
14
#17382
02
#17472
1(
#17484
11
04
#17488
12
#17493
01
#17494
02
#17659
05
#17663
1"
1&
1!
#17665
0&
0!
0#
0$
0(
0"
#17666
1#
1(
1'
#17674
13
#17759
15
#17763
1)
1.
1*
1,
#17767
16
#17768
14
#17770
0#
0(
#17771
03
#17773
04
#17774
12
#17777
06
#17782
11
#17784
14
02
#17858
1/
0.
#17866
1#
1$
#17867
0/
0*
13
0,
0)
#17870
01
#17872
04
#17876
03
#17972
1(
#17982
13
#17984
14
#18059
05
#18063
1"
1!
#18065
0(
0"
0!
0#
0$
#18070
1#
1$
0'
#18072
03
#18074
04
#18076
11
#18078
07
#18081
13
#18083
01
17
#18086
14
#18259
15
#18263
1,
1)
1*
1/
#18267
0,
0)
0*
0/
#18269
03
#18272
04
#18278
13
#18280
14
#18282
03
#18372
1(
#18384
11
04
#18388
12
#18393
01
#18394
02
#18559
05
#18563
1'
1!
1"
#18565
0$
0(
0!
0"
0#
#18566
1(
1#
#18571
13
#18659
15
#18663
1,
1*
1)
1/
#18667
16
#18668
14
#18670
0#
0(
#18677
06
#18679
04
#18758
0/
#18766
1#
1$
#18767
0)
03
0,
0*
#18872
1(
#18882
13
#18884
14
#18959
05
#18963
1"
1!
#18965
0#
0(
0"
0!
0$
0'
#18966
1'
#18970
1#
1$
0'
#18972
03
#18974
04
#18976
11
#18978
07
#18981
13
#18983
01
17
#18986
14
#19159
15
#19163
1,
1*
1)
#19167
0,
0*
0)
#19171
03
#19173
04
#19180
14
#19272
1(
#19284
11
04
#19288
12
#19293
01
#19294
02
#19459
05
#19463
1!
1"
#19465
0!
0"
0#
0$
0(
#19466
1'
1#
1(
#19471
13
#19559
15
#19563
1)
1*
1,
#19567
16
#19568
14
#19570
0#
0(
#19577
06
#19579
04
#19580
03
#19658
1-
0,
1/
1.
#19663
12
#19666
1$
1#
#19667
0*
0.
0-
0/
0)
#19668
11
#19672
02
#19676
01
#19772
1(
#19782
13
#19784
14
#19859
05
#19863
1!
1&
1"
1%
#19865
0"
0%
0&
0$
0#
0!
0(
#19870
0'
1$
1#
#19872
03
#19874
04
#19876
11
#19878
07
#19881
13
#19883
01
17
#19886
14
#20059
15
#20063
1*
1)
1-
1/
1.
#20067
0/
0.
0*
0)
0-
#20069
03
#20072
04
#20078
12
13
#20080
14
#20082
02
03
#20172
1(
#20184
04
11
#20188
12
#20193
01
#20194
02
#20359
05
#20363
1&
1%
1"
1'
1!
#20365
0#
0!
0$
0&
0%
0"
0(
#20366
1#
1(
#20371
13
#20459
15
#20463
1*
1/
1.
1-
1)
#20467
16
#20468
14
#20470
0(
0#
#20471
03
#20473
04
#20477
06
#20479
12
#20481
11
#20558
0/
#20566
1$
1#
#20567
0)
0-
0.
0*
#20572
02
#20576
01
#20672
1(
#20682
13
#20684
14
#20759
05
#20763
1!
1"
1&
1%
#20765
0&
0%
0(
0$
0'
0#
0!
0"
#20766
1'
#20770
1$
1#
0'
#20772
03
#20774
04
#20776
11
#20778
07
#20781
13
#20783
01
17
#20786
14
#20959
15
#20963
1*
1.
1-
1)
#20967
0*
0.
0-
0)
#20970
03
#20974
04
#20978
12
#20980
14
#20982
02
#21072
1(
#21084
11
04
#21088
12
#21093
01
#21094
02
#21259
05
#21263
1&
1%
1!
1"
#21265
0!
0"
0(
0#
0$
0&
0%
#21266
1(
1#
1'
#21274
13
#21359
15
#21363
1-
1*
1.
1)
#21367
16
#21368
14
#21370
0#
0(
#21371
03
#21373
04
#21377
06
#21379
12
#21381
11
#21458
0.
1/
#21464
13
#21466
1#
1$
#21467
0)
0/
0*
0-
#21468
01
#21472
02
#21474
03
#21572
1(
#21582
13
#21584
14
#21659
05
#21663
1!
1%
1"
#21665
0%
0"
0(
0$
0#
0!
#21670
0'
1$
1#
#21672
03
#21674
04
#21676
11
#21678
07
#21681
13
#21683
01
17
#21686
14
#21859
15
#21863
1*
1-
1/
1)
#21867
0*
0-
0/
0)
#21872
04
#21874
03
#21878
13
#21880
14
#21882
03
#21972
1(
#21984
04
11
#21988
12
#21993
01
#21994
02
#22159
05
#22163
1"
1'
1%
1!
#22165
0%
0!
0(
0#
0$
0"
#22166
1(
1#
#22171
13
#22259
15
#22263
1/
1-
1)
1*
#22267
16
#22268
14
#22270
0#
0(
#22271
12
#22277
06
#22278
04
#22358
0/
#22366
1#
1$
#22367
0*
0)
0-
#22372
02
#22374
03
#22472
1(
#22482
13
#22484
14
#22559
05
#22563
1"
1%
1!
#22565
0%
0!
0"
0#
0(
0'
0$
#22566
1'
#22570
1#
1$
0'
#22572
03
#22574
04
#22576
11
#22578
07
#22581
13
#22583
01
17
#22586
14
#22759
15
#22763
1)
1-
1*
#22767
0)
0-
0*
#22770
03
#22773
04
#22780
14
#22872
1(
#22884
04
11
#22888
12
#22893
01
#22894
02
#23059
05
#23063
1"
1!
1%
#23065
0!
0%
0$
0(
0"
0#
#23066
1'
1(
1#
#23074
13
#23159
15
#23163
1*
1-
1)
#23167
16
#23168
14
#23170
0(
0#
#23171
12
#23177
06
#23178
04
#23258
1.
0-
1/
#23263
02
#23264
03
#23266
1#
1$
#23267
0)
0/
0.
0*
#23270
13
11
#23272
14
#23276
03
#23279
01
#23281
04
#23372
1(
#23382
13
#23384
14
#23459
05
#23463
1!
1"
1&
#23465
0"
0&
0(
0$
0!
0#
#23470
1$
1#
0'
#23472
03
#23474
04
#23476
11
#23478
07
#23481
13
#23483
01
17
#23486
14
#23659
15
#23663
1)
1/
1*
1.
#23667
0)
0/
0*
0.
#23669
03
#23672
04
#23678
12
13
#23680
14
#23682
02
03
#23772
1(
#23784
04
11
#23788
12
#23793
01
#23794
02
#23959
05
#23963
1&
1"
1!
1'
#23965
0!
0(
0#
0&
0"
0$
#23966
1(
1#
#23971
13
#24059
15
#24063
1*
1)
1/
1.
#24067
16
#24068
14
#24070
0(
0#
#24071
03
#24073
04
#24074
12
#24077
06
#24082
13
11
#24084
14
02
#24158
0/
#24166
1#
1$
#24167
0.
03
0)
0*
#24179
01
#24181
04
#24272
1(
#24282
13
#24284
14
#24359
05
#24363
1!
1"
1&
#24365
0"
0&
0'
0$
0(
0!
0#
#24366
1'
#24370
1$
1#
0'
#24372
03
#24374
04
#24376
11
#24378
07
#24381
13
#24383
01
17
#24386
14
#24559
15
#24563
1)
1.
1*
#24567
0)
0.
0*
#24570
03
#24573
04
#24578
12
#24580
14
#24582
02
#24672
1(
#24684
11
04
#24688
12
#24693
01
#24694
02
#24859
05
#24863
1!
1&
1"
#24865
0&
0"
0$
0#
0(
0!
#24866
1'
1#
1(
#24874
13
#24959
15
#24963
1*
1.
1)
#24967
16
#24968
14
#24970
0(
0#
#24971
03
#24973
04
#24974
12
#24977
06
#24982
11
#24984
14
02
#25058
0.
1/
#25066
1#
1$
#25067
0)
0/
13
0*
#25070
01
#25072
04
#25076
03
#25172
1(
#25182
13
#25184
14
#25259
05
#25263
1"
1!
#25265
0"
0!
0(
0$
0#
#25270
0'
1$
1#
#25272
03
#25274
04
#25276
11
#25278
07
#25281
13
#25283
01
17
#25286
14
#25459
15
#25463
1*
1/
1)
#25467
0*
0/
0)
#25469
03
#25472
04
#25478
13
#25480
14
#25482
03
#25572
1(
#25584
04
11
#25588
12
#25593
01
#25594
02
#25759
05
#25763
1"
1!
1'
#25765
0!
0$
0#
0(
0"
#25766
1#
1(
#25771
13
#25859
15
#25863
1)
1*
1/
#25867
16
#25868
14
#25870
0#
0(
#25877
06
#25879
04
#25958
1+
0/
#25966
1#
1$
#25967
03
0+
0*
0)
#26072
1(
#26082
13
#26084
14
#26159
05
#26163
1"
1!
#26165
0'
0(
0"
0!
0$
#26166
1'
#26167
0#
#26170
1$
0'
1#
#26174
04
#26176
11
#26183
01
#26186
14
#26359
15
#26363
1*
1)
1+
#26367
0*
0)
0+
#26371
03
#26373
04
#26380
14
#26472
1(
#26484
11
04
#26488
12
#26493
01
#26494
02
#26659
05
#26663
1!
1"
#26665
0$
0(
0!
0"
#26666
1'
1(
#26671
13
#26759
15
#26763
1*
1+
1)
#26767
16
#26768
14
#26770
0(
0#
#26777
06
#26779
04
#26780
03
#26858
0+
1-
1.
1/
1,
#26863
12
#26866
1$
1#
#26867
0,
0-
0/
0)
0.
0*
#26868
11
#26872
02
#26876
01
#26972
1(
#26982
13
#26984
14
#27059
05
#27063
1"
1!
1%
1&
#27065
0%
0&
0!
0(
0$
0#
0"
#27070
0'
1$
1#
#27072
03
#27074
04
#27076
11
#27078
07
#27081
13
#27083
01
17
#27086
14
#27259
15
#27263
1*
1)
1,
1.
1-
1/
#27267
0-
0/
0*
0)
0,
0.
#27269
03
#27272
04
#27278
13
12
#27280
14
#27282
03
02
#27372
1(
#27384
04
11
#27388
12
#27393
01
#27394
02
#27559
05
#27563
1&
1'
1!
1%
1"
#27565
0%
0"
0$
0#
0&
0!
0(
#27566
1#
1(
#27571
13
#27659
15
#27663
1*
1-
1/
1.
1,
1)
#27667
16
#27668
14
#27670
0(
0#
#27671
03
#27673
04
#27677
06
#27679
12
#27681
11
#27758
0/
#27766
1$
1#
#27767
0*
0)
0,
0.
0-
#27772
02
#27776
01
#27872
1(
#27882
13
#27884
14
#27959
05
#27963
1%
1!
1"
1&
#27965
0"
0&
0%
0'
0#
0$
0!
0(
#27966
1'
#27970
1#
1$
0'
#27972
03
#27974
04
#27976
11
#27978
07
#27981
13
#27983
01
17
#27986
14
#28159
15
#28163
1-
1.
1,
1*
1)
#28167
0*
0)
0-
0.
0,
#28170
03
#28174
04
#28178
12
#28180
14
#28182
02
#28272
1(
#28284
11
04
#28288
12
#28293
01
#28294
02
#28459
05
#28463
1"
1%
1!
1&
#28465
0!
0&
0$
0#
0(
0"
0%
#28466
1'
1#
1(
#28474
13
#28559
15
#28563
1)
1-
1*
1,
1.
#28567
16
#28568
14
#28570
0#
0(
#28571
03
#28573
04
#28577
06
#28579
12
#28581
11
#28658
1/
0.
#28664
13
#28666
1$
1#
#28667
0/
0,
0)
0*
0-
#28668
01
#28672
02
#28674
03
#28772
1(
#28782
13
#28784
14
#28859
05
#28863
1!
1%
1"
#28865
0%
0"
0(
0$
0!
0#
#28870
0'
1$
1#
#28872
03
#28874
04
#28876
11
#28878
07
#28881
13
#28883
01
17
#28886
14
#29059
15
#29063
1*
1)
1-
1,
1/
#29067
0,
0/
0*
0)
0-
#29072
04
#29074
03
#29078
13
#29080
14
#29082
03
#29172
1(
#29184
11
04
#29188
12
#29193
01
#29194
02
#29359
05
#29363
1'
1!
1"
1%
#29365
0(
0%
0$
0!
0"
0#
#29366
1(
1#
#29371
13
#29459
15
#29463
1*
1/
1,
1-
1)
#29467
16
#29468
14
#29470
0#
0(
#29471
12
#29477
06
#29478
04
#29558
0/
#29566
1$
1#
#29567
0)
0-
0,
0*
#29572
02
#29574
03
#29672
1(
#29682
13
#29684
14
#29759
05
#29763
1"
1%
1!
#29765
0%
0!
0'
0(
0$
0"
0#
#29766
1'
#29770
1$
1#
0'
#29772
03
#29774
04
#29776
11
#29778
07
#29781
13
#29783
01
17
#29786
14
#29959
15
#29963
1,
1*
1-
1)
#29967
0,
0*
0-
0)
#29970
03
#29973
04
#29980
14
#30072
1(
#30084
04
11
#30088
12
#30093
01
#30094
02
#30259
05
#30263
1!
1%
1"
#30265
0%
0"
0$
0#
0(
0!
#30266
1'
1#
1(
#30274
13
#30359
15
#30363
1-
1*
1)
1,
#30367
16
#30368
14
#30370
0#
0(
#30371
12
#30377
06
#30378
04
#30458
1.
1/
0-
#30463
02
#30464
03
#30466
1#
1$
#30467
0)
0/
0,
0.
0*
#30470
11
13
#30472
14
#30476
03
#30479
01
#30481
04
#30572
1(
#30582
13
#30584
14
#30659
05
#30663
1"
1&
1!
#30665
0&
0!
0#
0(
0"
0$
#30670
0'
1#
1$
#30672
03
#30674
04
#30676
11
#30678
07
#30681
13
#30683
01
17
#30686
14
#30859
15
#30863
1/
1)
1*
1,
1.
#30867
0,
0.
0/
0)
0*
#30869
03
#30872
04
#30878
12
13
#30880
14
#30882
02
03
#30972
1(
#30984
11
04
#30988
12
#30993
01
#30994
02
#31159
05
#31163
1'
1&
1"
1!
#31165
0"
0!
0$
0#
0(
0&
#31166
1#
1(
#31171
13
#31259
15
#31263
1,
1/
1.
1*
1)
#31267
16
#31268
14
#31270
0#
0(
#31271
03
#31273
04
#31274
12
#31277
06
#31282
13
11
#31284
14
02
#31358
0/
#31366
1$
1#
#31367
0)
03
0*
0.
0,
#31379
01
#31381
04
#31472
1(
#31482
13
#31484
14
#31559
05
#31563
1"
1&
1!
#31565
0(
0!
0'
0#
0"
0&
0$
#31566
1'
#31570
1#
1$
0'
#31572
03
#31574
04
#31576
11
#31578
07
#31581
13
#31583
01
17
#31586
14
#31759
15
#31763
1.
1,
1*
1)
#31767
0.
0,
0*
0)
#31770
03
#31773
04
#31778
12
#31780
14
#31782
02
#31872
1(
#31884
11
04
#31888
12
#31893
01
#31894
02
#32059
05
#32063
1&
1"
1!
#32065
0"
0!
0$
0#
0(
0&
#32066
1'
1#
1(
#32074
13
#32159
15
#32163
1*
1,
1.
1)
#32167
16
#32168
14
#32170
0#
0(
#32171
03
#32173
04
