100000.fsdb.vcd
$date
	Wed Aug 29 17:06:44 2001

$end
$version
	VERILOG-XL 3.10.p001
$end
$timescale
	1ns
$end
$scope module system $end
$scope module i_cpu $end
$scope module i_ALUB $end
$scope module i_alu $end
$var wire 1 ! a [7] $end
$var wire 1 " a [6] $end
$var wire 1 # a [5] $end
$var wire 1 $ a [4] $end
$var wire 1 % a [3] $end
$var wire 1 & a [2] $end
$var wire 1 ' a [1] $end
$var wire 1 ( a [0] $end
$var wire 1 ) b [7] $end
$var wire 1 * b [6] $end
$var wire 1 + b [5] $end
$var wire 1 , b [4] $end
$var wire 1 - b [3] $end
$var wire 1 . b [2] $end
$var wire 1 / b [1] $end
$var wire 1 0 b [0] $end
$var wire 1 1 four [3] $end
$var wire 1 2 four [2] $end
$var wire 1 3 four [1] $end
$var wire 1 4 four [0] $end
$var wire 1 5 cin $end
$var wire 1 6 carry $end
$var wire 1 7 big $end
$upscope $end
$upscope $end
$upscope $end
$upscope $end
$enddefinitions $end
#100000
$dumpvars
0!
17
0"
1$
0(
00
01
0)
02
13
0%
0*
14
05
0+
06
1#
0&
0,
0-
0'
0.
0/
$end
#100159
15
#100163
1.
1*
1)
1-
1,
#100167
0-
0,
0.
0*
0)
#100170
03
#100174
04
#100178
12
#100180
14
#100182
02
#100256
05
#100258
0$
0#
#100271
07
04
#100459
15
#100474
14
#100572
1(
#100584
11
04
#100588
12
#100593
01
#100594
02
#100659
05
#100665
0(
#100674
14
#100676
11
#100683
01
#100691
04
#100759
15
#100765
1(
#100777
11
#100781
12
#100786
01
#100787
02
#100872
0(
1'
#101059
05
#101066
0'
#101067
1"
1(
1$
1&
#101080
17
#101081
13
11
#101158
1,
10
1.
1*
#101159
15
#101166
0$
1'
0&
0"
#101167
0*
0.
0,
00
#101169
14
12
#101171
07
#101174
17
#101176
01
#101177
02
#101183
07
#101272
1&
0'
0(
#101282
11
#101283
12
#101284
03
#101285
01
#101286
04
#101359
05
#101363
1"
1$
1(
#101370
0$
0(
02
1#
0&
0"
#101375
11
13
#101376
17
#101379
03
#101380
14
#101383
13
#101388
01
#101396
04
#101465
1$
1(
1&
1"
#101466
0#
#101472
03
#101479
11
13
#101559
15
#101564
1,
1*
10
1.
#101566
00
0.
0$
0"
0,
0*
0(
#101578
03
01
#101580
07
12
#101659
05
#101663
1(
1$
1"
#101670
02
#101675
11
13
#101676
17
#101759
15
#101763
0"
0$
0(
0&
#101764
10
1*
1.
1,
#101765
1(
1&
#101766
0,
0.
00
0*
#101780
07
#101872
1'
0(
#101881
03
#101887
14
#101959
05
#101963
1"
1(
1$
#101965
0'
#101968
13
#101970
12
#101974
04
02
#101976
17
#102059
15
#102064
1,
1*
10
1.
#102065
1'
#102066
0.
00
0$
0(
0,
0*
0"
#102074
03
#102075
01
#102078
11
#102080
07
14
#102172
1(
#102183
04
#102184
01
#102359
05
#102363
1$
1"
#102365
0'
0"
0&
0(
0$
#102366
1#
#102375
14
#102376
11
#102378
13
#102379
17
#102383
01
#102391
04
#102459
15
#102463
10
1.
1,
1*
#102466
0#
1%
#102467
00
0.
0,
0*
#102470
03
#102474
12
#102478
02
#102480
07
#102572
1(
#102583
12
#102663
1$
1&
1"
#102665
0%
#102670
02
#102674
13
11
#102676
17
#102759
0(
1'
#102763
0"
0&
0$
0'
#102764
1#
1*
1/
1,
1.
#102765
1%
1(
#102766
0.
0,
0#
0/
0*
#102768
03
#102770
12
#102774
01
#102780
07
#102872
1'
0(
#102879
13
#102959
05
#102961
0%
0'
1#
#102963
1$
1&
1"
1'
#102964
0#
1+
#102965
0"
0&
0$
0'
#102966
1#
02
#102968
03
#102970
0#
1(
#102972
13
#102974
17
#102979
03
07
#102982
17
#102983
14
#102986
11
12
#102991
13
#102994
04
#103061
0+
#103065
1$
1"
1'
1&
#103066
0(
#103071
03
02
01
#103074
07
#103078
13
11
17
#103159
15
#103164
1/
1.
1*
1,
#103165
1%
#103166
0,
0&
0$
0/
0*
0.
0"
#103168
03
#103170
12
14
#103172
13
#103174
01
#103176
04
#103180
07
#103259
05
#103263
1"
1&
1$
#103265
0%
#103269
03
#103270
02
#103275
11
13
#103276
17
#103359
15
#103363
0$
0&
0"
0'
#103364
1,
1/
1*
1.
#103365
1%
1(
1'
#103366
0.
0*
0/
0,
#103368
03
#103370
12
14
#103372
13
#103374
01
#103380
07
#103472
0'
0(
1&
#103478
03
#103659
05
#103663
1"
1'
1$
#103665
0%
0"
0'
0$
0&
#103666
1#
#103670
02
#103672
04
#103678
13
#103679
17
#103759
15
#103763
1,
1/
1*
1.
#103767
16
#103769
03
#103770
1"
1$
1(
1&
0#
#103775
11
#103777
14
#103780
06
#103781
04
#103782
13
01
#103789
07
#103858
0.
10
0*
0/
0,
#103866
0"
1%
0$
#103867
00
#103868
11
#103870
17
#103871
12
#103873
14
#103875
03
#103880
07
#103972
0(
1'
#103979
04
#104159
05
#104163
1(
#104165
0%
0&
0'
#104166
1#
#104170
02
#104174
01
#104175
14
#104179
17
#104184
13
#104187
04
#104270
1$
1'
0(
1&
0#
1"
#104276
03
#104283
11
13
#104359
15
#104363
1/
1,
1.
1*
#104366
1%
0$
1(
0"
#104367
0*
0.
0/
0,
#104368
03
#104370
14
#104371
12
#104372
13
#104375
01
03
#104377
04
02
#104385
07
#104472
0(
1$
0'
0%
0&
#104479
13
12
#104483
11
#104484
14
#104485
03
02
#104490
01
#104492
04
#104497
14
#104659
05
#104663
1"
1&
1'
#104665
0"
0&
0'
0$
#104666
1#
#104672
04
#104678
13
#104679
17
#104681
14
#104687
04
#104763
1,
1/
1*
1.
#104769
03
#104770
0#
1$
1&
1"
1(
#104775
11
#104779
13
#104782
01
03
#104858
0,
1-
10
1+
0.
1)
0*
#104859
15
#104866
0"
0&
#104867
0)
0+
0-
00
0/
#104874
11
#104877
14
#104879
01
#104882
13
#104884
07
#104888
03
#104890
04
#104972
0(
1'
#105059
05
#105063
1!
1%
1(
1#
#105065
0'
0!
0%
0$
#105066
1"
1$
1&
#105067
0#
#105070
0&
1#
0$
1'
0(
0"
#105076
17
13
#105077
11
#105079
14
12
03
#105081
01
#105083
04
02
#105165
1(
1%
1!
#105170
12
#105172
13
#105173
14
#105259
15
#105264
10
1+
1)
1/
1-
#105265
1$
#105266
0-
0/
00
0!
0#
0%
0)
0(
0+
#105273
03
#105274
04
02
#105285
07
#105359
05
#105363
1(
1!
1#
1%
#105365
0$
#105368
12
#105370
13
#105371
14
#105376
17
#105459
15
#105463
0%
0!
0(
#105464
1+
1/
10
1-
1)
#105465
0#
1(
1$
#105466
0/
0)
0+
0-
00
#105474
02
#105483
07
#105572
0(
1&
0'
#105582
11
#105583
12
#105584
03
#105585
01
#105586
04
#105659
05
#105663
1'
1#
1!
1(
1%
#105665
0&
0$
#105670
14
#105671
13
#105759
15
0(
0'
0#
0%
0!
#105764
1%
1!
1(
1'
1#
#105765
1$
1&
#105766
0#
0'
0(
0!
0%
#105767
02
04
#105770
03
#105780
12
#105872
1(
#105884
13
11
#105886
02
#105890
17
#106059
05
#106066
0&
0$
0(
#106067
1'
#106070
12
#106074
07
#106077
03
01
#106079
02
#106158
1/
#106159
15
#106166
1&
1$
#106167
0/
#106168
13
#106176
11
03
#106178
14
#106186
17
#106272
1(
#106283
04
#106284
01
#106359
05
#106365
0$
0&
0(
#106370
1#
1(
#106379
07
#106380
13
#106383
17
#106466
0#
0(
#106473
03
#106479
07
#106559
15
#106564
1/
#106565
1&
1$
1(
#106566
0/
#106585
17
#106659
05
#106665
0$
0&
0(
#106679
07
#106759
15
#106764
1/
#106765
0'
1$
1%
#106766
0/
#106770
12
#106774
02
#106782
17
#106872
1(
#106883
12
#107059
05
#107063
1'
#107065
0$
0(
0%
#107066
1%
#107070
13
#107079
07
#107159
15
#107163
1/
1-
#107166
1$
#107167
0/
0-
#107182
17
#107272
1(
#107280
14
#107359
05
#107365
0$
0(
#107370
0'
1#
1$
0%
#107373
04
02
#107377
03
11
#107379
07
#107381
13
#107383
01
17
#107386
14
#107559
15
#107563
1-
1/
#107567
0-
0/
#107572
04
#107574
03
#107578
13
#107580
14
#107582
03
#107672
1(
#107684
11
04
#107688
12
#107693
01
#107694
02
#107859
05
#107863
1'
1%
#107865
0$
0(
0%
0#
#107866
1(
1#
#107871
13
#107959
15
#107963
1/
1-
#107967
16
#107968
14
#107970
0#
0(
#107971
12
#107978
04
#107991
06
#107995
07
#108058
0/
#108066
1#
1$
#108067
0-
#108072
02
#108074
03
#108079
17
#108172
1(
#108182
13
#108184
14
#108259
05
#108263
1%
#108265
0(
0'
0$
0%
0#
#108266
1'
#108270
1$
1#
0'
#108272
03
#108274
04
#108276
11
#108278
07
#108281
13
#108283
01
17
#108286
14
#108459
15
#108463
1-
#108467
0-
#108470
03
#108473
04
#108480
14
#108572
1(
#108584
11
04
#108588
12
#108593
01
#108594
02
#108759
05
#108763
1%
#108765
0#
0(
0$
0%
#108766
1'
1#
1(
#108774
13
#108859
15
#108863
1-
#108867
16
#108868
14
#108870
0(
0#
#108871
12
#108878
04
#108891
06
#108895
07
#108958
1.
0-
1/
#108963
02
#108964
03
#108966
1#
1$
#108967
0.
0/
#108970
11
13
#108972
14
#108976
03
#108979
01
17
#108981
04
#109072
1(
#109082
13
#109084
14
#109159
05
#109163
1&
#109165
0$
0(
0&
0#
#109170
0'
1$
1#
#109172
03
#109174
04
#109176
11
#109178
07
#109181
13
#109183
01
17
#109186
14
#109359
15
#109363
1.
1/
#109367
0.
0/
#109369
03
#109372
04
#109378
12
13
#109380
14
#109382
02
03
#109472
1(
#109484
11
04
#109488
12
#109493
01
#109494
02
#109659
05
#109663
1'
1&
#109665
0#
0$
0(
0&
#109666
1#
1(
#109671
13
#109759
15
#109763
1.
1/
#109767
16
#109768
14
#109770
0(
0#
#109771
03
#109773
04
#109774
12
#109782
13
11
#109784
14
02
#109792
06
#109796
07
#109858
0/
#109866
1$
1#
#109867
03
0.
#109879
01
17
#109881
04
#109972
1(
#109982
13
#109984
14
#110059
05
#110063
1&
#110065
0(
0'
0$
0&
0#
#110066
1'
#110070
1$
1#
0'
#110072
03
#110074
04
#110076
11
#110078
07
#110081
13
#110083
01
17
#110086
14
#110259
15
#110263
1.
#110267
0.
#110270
03
#110273
04
#110278
12
#110280
14
#110282
02
#110372
1(
#110384
11
04
#110388
12
#110393
01
#110394
02
#110559
05
#110563
1&
#110565
0#
0(
0$
0&
#110566
1'
1#
1(
#110574
13
#110659
15
#110663
1.
#110667
16
#110668
14
#110670
0(
0#
#110671
03
#110673
04
#110674
12
#110682
11
#110684
14
02
#110692
06
#110696
07
#110758
0.
1/
#110766
1#
1$
#110767
13
0/
#110770
01
#110772
04
#110776
03
#110779
17
#110872
1(
#110882
13
#110884
14
#110959
05
#110965
0#
0(
0$
#110970
0'
1#
1$
#110972
03
#110974
04
#110976
11
#110978
07
#110981
13
#110983
01
17
#110986
14
#111159
15
#111163
1/
#111167
0/
#111169
03
#111172
04
#111178
13
#111180
14
#111182
03
#111272
1(
#111284
11
04
#111288
12
#111293
01
#111294
02
#111459
05
#111463
1'
#111465
0#
0(
0$
#111466
1#
1(
#111471
13
#111559
15
#111563
1/
#111567
16
#111568
14
#111570
0#
0(
#111579
04
#111607
06
#111612
07
#111658
1)
0/
1+
1*
#111666
1$
1#
#111667
0*
0+
0)
03
#111671
17
#111772
1(
#111782
13
#111784
14
#111859
05
#111863
1"
1!
#111865
0$
0(
0"
0!
0'
#111866
1'
#111867
0#
#111870
1$
0'
1#
#111874
04
#111876
11
#111883
01
#111886
14
#112059
15
#112063
1*
1)
1+
#112067
0*
0)
0+
#112071
03
#112073
04
#112080
14
#112172
1(
#112184
04
11
#112188
12
#112193
01
#112194
02
#112359
05
#112363
1!
1"
#112365
0(
0!
0"
0$
#112366
1(
1'
#112371
13
#112459
15
#112463
1*
1+
1)
#112467
16
#112468
14
#112470
0#
0(
#112477
06
#112479
04
#112480
03
#112558
0+
1.
1-
1,
1/
#112563
12
#112566
1#
1$
#112567
0/
0,
0.
0-
0*
0)
#112568
11
#112572
02
#112576
01
#112672
1(
#112682
13
#112684
14
#112759
05
#112763
1%
1&
1!
1"
#112765
0!
0"
0(
0#
0$
0%
0&
#112770
0'
1#
1$
#112772
03
#112774
04
#112776
11
#112778
07
#112781
13
#112783
01
17
#112786
14
#112959
15
#112963
1/
1)
1*
1,
1.
1-
#112967
0.
0-
0/
0)
0*
0,
#112969
03
#112972
04
#112978
12
13
#112980
14
#112982
02
03
#113072
1(
#113084
11
04
#113088
12
#113093
01
#113094
02
#113259
05
#113263
1%
1'
1!
1&
1"
#113265
0&
0"
0(
0%
0!
0$
0#
#113266
1(
1#
#113271
13
#113359
15
#113363
1/
1.
1-
1,
1*
1)
#113367
16
#113368
14
#113370
0(
0#
#113371
03
#113373
04
#113377
06
#113379
12
#113381
11
#113458
0/
#113466
1$
1#
#113467
0*
0)
0,
0-
0.
#113472
02
#113476
01
#113572
1(
#113582
13
#113584
14
#113659
05
#113663
1"
1&
1!
1%
#113665
0!
0%
0(
0'
0$
0#
0"
0&
#113666
1'
#113670
1$
1#
0'
#113672
03
#113674
04
#113676
11
#113678
07
#113681
13
#113683
01
17
#113686
14
#113859
15
#113863
1.
1-
1,
1)
1*
#113867
0)
0*
0.
0-
0,
#113870
03
#113874
04
#113878
12
#113880
14
#113882
02
#113972
1(
#113984
11
04
#113988
12
#113993
01
#113994
02
#114159
05
#114163
1!
1%
1"
1&
#114165
0"
0&
0(
0#
0$
0!
0%
#114166
1(
1#
1'
#114174
13
#114259
15
#114263
1.
1)
1*
1-
1,
#114267
16
#114268
14
#114270
0#
0(
#114271
03
#114273
04
#114277
06
#114279
12
#114281
11
#114358
0.
1/
#114364
13
#114366
1#
1$
#114367
0,
0/
0*
0)
0-
#114368
01
#114372
02
#114374
03
#114472
1(
#114482
13
#114484
14
#114559
05
#114563
1"
1%
1!
#114565
0%
0!
0(
0#
0$
0"
#114570
0'
1#
1$
#114572
03
#114574
04
#114576
11
#114578
07
#114581
13
#114583
01
17
#114586
14
#114759
15
#114763
1)
1-
1*
1/
1,
#114767
0/
0,
0)
0-
0*
#114772
04
#114774
03
#114778
13
#114780
14
#114782
03
#114872
1(
#114884
04
11
#114888
12
#114893
01
#114894
02
#115059
05
#115063
1%
1!
1'
1"
#115065
0#
0$
0%
0"
0!
0(
#115066
1#
1(
#115071
13
#115159
15
#115163
1)
1,
1/
1*
1-
#115167
16
#115168
14
#115170
0#
0(
#115171
12
#115177
06
#115178
04
#115258
0/
#115266
1$
1#
#115267
0-
0*
0)
0,
#115272
02
#115274
03
#115372
1(
#115382
13
#115384
14
#115459
05
#115463
1!
1%
1"
#115465
0%
0"
0$
0'
0(
0!
0#
#115466
1'
#115470
1$
1#
0'
#115472
03
#115474
04
#115476
11
#115478
07
#115481
13
#115483
01
17
#115486
14
#115659
15
#115663
1)
1,
1*
1-
#115667
0)
0,
0*
0-
#115670
03
#115673
04
#115680
14
#115772
1(
#115784
11
04
#115788
12
#115793
01
#115794
02
#115959
05
#115963
1"
1%
1!
#115965
0%
0!
0$
0#
0(
0"
#115966
1'
1#
1(
#115974
13
#116059
15
#116063
1*
1,
1-
1)
#116067
16
#116068
14
#116070
0#
0(
#116071
12
#116077
06
#116078
04
#116158
1/
1.
0-
#116163
02
#116164
03
#116166
1$
1#
#116167
0*
0.
0/
0)
0,
#116170
13
11
#116172
14
#116176
03
#116179
01
#116181
04
#116272
1(
#116282
13
#116284
14
#116359
05
#116363
1"
1!
1&
#116365
0!
0&
0#
0(
0"
0$
#116370
0'
1#
1$
#116372
03
#116374
04
#116376
11
#116378
07
#116381
13
#116383
01
17
#116386
14
#116559
15
#116563
1*
1)
1,
1/
1.
#116567
0/
0.
0*
0)
0,
#116569
03
#116572
04
#116578
12
13
#116580
14
#116582
02
03
#116672
1(
#116684
11
04
#116688
12
#116693
01
#116694
02
#116859
05
#116863
1&
1"
1!
1'
#116865
0!
0$
0(
0&
0"
0#
#116866
1(
1#
#116871
13
#116959
15
#116963
1*
1.
1/
1)
1,
#116967
16
#116968
14
#116970
0(
0#
#116971
03
#116973
04
#116974
12
#116977
06
#116982
13
11
#116984
14
02
#117058
0/
#117066
1#
1$
#117067
0)
0,
03
0*
0.
#117079
01
#117081
04
#117172
1(
#117182
13
#117184
14
#117259
05
#117263
1"
1!
1&
#117265
0!
0&
0(
0#
0'
0"
0$
#117266
1'
#117270
1#
1$
0'
#117272
03
#117274
04
#117276
11
#117278
07
#117281
13
#117283
01
17
#117286
14
#117459
15
#117463
1*
1)
1.
1,
#117467
0*
0)
0.
0,
#117470
03
#117473
04
#117478
12
#117480
14
#117482
02
#117572
1(
#117584
11
04
#117588
12
#117593
01
#117594
02
#117759
05
#117763
1!
1&
1"
#117765
0&
0"
0#
0(
0!
0$
#117766
1'
1#
1(
#117774
13
#117859
15
#117863
1*
1.
1)
1,
#117867
16
#117868
14
#117870
0#
0(
#117871
03
#117873
04
#117874
12
#117877
06
#117882
11
#117884
14
02
#117958
0.
1/
#117966
1$
1#
#117967
0,
0/
0*
0)
13
#117970
01
#117972
04
#117976
03
#118072
1(
#118082
13
#118084
14
#118159
05
#118163
1!
1"
#118165
0#
0(
0!
0"
0$
#118170
0'
1#
1$
#118172
03
#118174
04
#118176
11
#118178
07
#118181
13
#118183
01
17
#118186
14
#118359
15
#118363
1)
1*
1,
1/
#118367
0)
0*
0,
0/
#118369
03
#118372
04
#118378
13
#118380
14
#118382
03
#118472
1(
#118484
04
11
#118488
12
#118493
01
#118494
02
#118659
05
#118663
1'
1"
1!
#118665
0(
0!
0$
0#
0"
#118666
1(
1#
#118671
13
#118759
15
#118763
1)
1,
1*
1/
#118767
16
#118768
14
#118770
0#
0(
#118777
06
#118779
04
#118858
0/
#118866
1#
1$
#118867
0*
03
0,
0)
#118972
1(
#118982
13
#118984
14
#119059
05
#119063
1"
1!
#119065
0#
0(
0"
0!
0$
0'
#119066
1'
#119070
1#
1$
0'
#119072
03
#119074
04
#119076
11
#119078
07
#119081
13
#119083
01
17
#119086
14
#119259
15
#119263
1)
1,
1*
#119267
0)
0,
0*
#119271
03
#119273
04
#119280
14
#119372
1(
#119384
11
04
#119388
12
#119393
01
#119394
02
#119559
05
#119563
1"
1!
#119565
0"
0!
0$
0#
0(
#119566
1'
1#
1(
#119571
13
#119659
15
#119663
1*
1,
1)
#119667
16
#119668
14
#119670
0#
0(
#119677
06
#119679
04
#119680
03
#119758
0,
1-
1/
1.
#119763
12
#119766
1$
1#
#119767
0.
0-
0/
0)
0*
#119768
11
#119772
02
#119776
01
#119872
1(
#119882
13
#119884
14
#119959
05
#119963
1"
1%
1&
1!
#119965
0&
0!
0%
0(
0$
0#
0"
#119970
0'
1$
1#
#119972
03
#119974
04
#119976
11
#119978
07
#119981
13
#119983
01
17
#119986
14
#120159
15
#120163
1*
1/
1.
1-
1)
#120167
0-
0)
0*
0/
0.
#120169
03
#120172
04
#120178
12
13
#120180
14
#120182
02
03
#120272
1(
#120284
04
11
#120288
12
#120293
01
#120294
02
#120459
05
#120463
1!
1&
1'
1%
1"
#120465
0%
0"
0&
0(
0$
0#
0!
#120466
1(
1#
#120471
13
#120559
15
#120563
1*
1-
1)
1.
1/
#120567
16
#120568
14
#120570
0#
0(
#120571
03
#120573
04
#120577
06
#120579
12
#120581
11
#120658
0/
#120666
1#
1$
#120667
0*
0.
0)
0-
#120672
02
#120676
01
#120772
1(
#120782
13
#120784
14
#120859
05
#120863
1"
1%
1&
1!
#120865
0&
0!
0%
0(
0#
0"
0$
0'
#120866
1'
#120870
1#
1$
0'
#120872
03
#120874
04
#120876
11
#120878
07
#120881
13
#120883
01
17
#120886
14
#121059
15
#121063
1)
1-
1.
1*
#121067
0)
0-
0.
0*
#121070
03
#121074
04
#121078
12
#121080
14
#121082
02
#121172
1(
#121184
11
04
#121188
12
#121193
01
#121194
02
#121359
05
#121363
1!
1&
1%
1"
#121365
0%
0"
0(
0$
0#
0!
0&
#121366
1'
1(
1#
#121374
13
#121459
15
#121463
1.
1)
1-
1*
#121467
16
#121468
14
#121470
0(
0#
#121471
03
#121473
04
#121477
06
#121479
12
#121481
11
#121558
0.
1/
#121564
13
#121566
1$
1#
#121567
0*
0/
0-
0)
#121568
01
#121572
02
#121574
03
#121672
1(
#121682
13
#121684
14
#121759
05
#121763
1%
1"
1!
#121765
0"
0!
0#
0$
0%
0(
#121770
0'
1#
1$
#121772
03
#121774
04
#121776
11
#121778
07
#121781
13
#121783
01
17
#121786
14
#121959
15
#121963
1-
1/
1*
1)
#121967
0-
0/
0*
0)
#121972
04
#121974
03
#121978
13
#121980
14
#121982
03
#122072
1(
#122084
04
11
#122088
12
#122093
01
#122094
02
#122259
05
#122263
1!
1"
1'
1%
#122265
0(
0%
0$
0#
0!
0"
#122266
1(
1#
#122271
13
#122359
15
#122363
1*
1/
1-
1)
#122367
16
#122368
14
#122370
0(
0#
#122371
12
#122377
06
#122378
04
#122458
0/
#122466
1$
1#
#122467
0)
0-
0*
#122472
02
#122474
03
#122572
1(
#122582
13
#122584
14
#122659
05
#122663
1"
1%
1!
#122665
0%
0!
0'
0(
0$
0"
0#
#122666
1'
#122670
1$
1#
0'
#122672
03
#122674
04
#122676
11
#122678
07
#122681
13
#122683
01
17
#122686
14
#122859
15
#122863
1-
1)
1*
#122867
0-
0)
0*
#122870
03
#122873
04
#122880
14
#122972
1(
#122984
04
11
#122988
12
#122993
01
#122994
02
#123159
05
#123163
1%
1!
1"
#123165
0!
0"
0#
0$
0(
0%
#123166
1'
1#
1(
#123174
13
#123259
15
#123263
1*
1)
1-
#123267
16
#123268
14
#123270
0#
0(
#123271
12
#123277
06
#123278
04
#123358
1.
1/
0-
#123363
02
#123364
03
#123366
1#
1$
#123367
0/
0.
0*
0)
#123370
13
11
#123372
14
#123376
03
#123379
01
#123381
04
#123472
1(
#123482
13
#123484
14
#123559
05
#123563
1!
1&
1"
#123565
0&
0"
0(
0$
0!
0#
#123570
0'
1$
1#
#123572
03
#123574
04
#123576
11
#123578
07
#123581
13
#123583
01
17
#123586
14
#123759
15
#123763
1*
1)
1.
1/
#123767
0*
0)
0.
0/
#123769
03
#123772
04
#123778
13
12
#123780
14
#123782
03
02
#123872
1(
#123884
04
11
#123888
12
#123893
01
#123894
02
#124059
05
#124063
1'
1!
1&
1"
#124065
0#
0!
0&
0"
0(
0$
#124066
1#
1(
#124071
13
#124159
15
#124163
1.
1*
1)
1/
#124167
16
#124168
14
#124170
0(
0#
#124171
03
#124173
04
#124174
12
#124177
06
#124182
13
11
#124184
14
02
#124258
0/
#124266
1#
1$
#124267
0.
0)
03
0*
#124279
01
#124281
04
#124372
1(
#124382
13
#124384
14
#124459
05
#124463
1!
1&
1"
#124465
0&
0"
0$
0#
0(
0!
0'
#124466
1'
#124470
1$
1#
0'
#124472
03
#124474
04
#124476
11
#124478
07
#124481
13
#124483
01
17
#124486
14
#124659
15
#124663
1.
1*
1)
#124667
0.
0*
0)
#124670
03
#124673
04
#124678
12
#124680
14
#124682
02
#124772
1(
#124784
11
04
#124788
12
#124793
01
#124794
02
#124959
05
#124963
1&
1!
1"
#124965
0!
0"
0$
0(
0&
0#
#124966
1'
1(
1#
#124974
13
#125059
15
#125063
1)
1.
1*
#125067
16
#125068
14
#125070
0(
0#
#125071
03
#125073
04
#125074
12
#125077
06
#125082
11
#125084
14
02
#125158
0.
1/
#125166
1#
1$
#125167
0*
0/
13
0)
#125170
01
#125172
04
#125176
03
#125272
1(
#125282
13
#125284
14
#125359
05
#125363
1!
1"
#125365
0!
0"
0(
0$
0#
#125370
0'
1$
1#
#125372
03
#125374
04
#125376
11
#125378
07
#125381
13
#125383
01
17
#125386
14
#125559
15
#125563
1)
1/
1*
#125567
0)
0/
0*
#125569
03
#125572
04
#125578
13
#125580
14
#125582
03
#125672
1(
#125684
11
04
#125688
12
#125693
01
#125694
02
#125859
05
#125863
1"
1!
1'
#125865
0#
0"
0!
0$
0(
#125866
1#
1(
#125871
13
#125959
15
#125963
1*
1/
1)
#125967
16
#125968
14
#125970
0(
0#
#125977
06
#125979
04
#126058
1+
0/
#126066
1$
1#
#126067
0)
0+
03
0*
#126172
1(
#126182
13
#126184
14
#126259
05
#126263
1"
1!
#126265
0$
0(
0"
0!
0'
#126266
1'
#126267
0#
#126270
1$
0'
1#
#126274
04
#126276
11
#126283
01
#126286
14
#126459
15
#126463
1*
1)
1+
#126467
0*
0)
0+
#126471
03
#126473
04
#126480
14
#126572
1(
#126584
04
11
#126588
12
#126593
01
#126594
02
#126759
05
#126763
1!
1"
#126765
0(
0!
0"
0$
#126766
1'
1(
#126771
13
#126859
15
#126863
1*
1+
1)
#126867
16
#126868
14
#126870
0(
0#
#126877
06
#126879
04
#126880
03
#126958
1.
1-
1/
0+
1,
#126963
12
#126966
1$
1#
#126967
0-
0*
0,
0.
0/
0)
#126968
11
#126972
02
#126976
01
#127072
1(
#127082
13
#127084
14
#127159
05
#127163
1%
1&
1"
1!
#127165
0"
0!
0$
0(
0#
0%
0&
#127170
0'
1$
1#
#127172
03
#127174
04
#127176
11
#127178
07
#127181
13
#127183
01
17
#127186
14
#127359
15
#127363
1*
1)
1-
1.
1/
1,
#127367
0/
0,
0*
0)
0-
0.
#127369
03
#127372
04
#127378
12
13
#127380
14
#127382
02
03
#127472
1(
#127484
11
04
#127488
12
#127493
01
#127494
02
#127659
05
#127663
1&
1'
1!
1"
1%
#127665
0"
0%
0#
0(
0&
0!
0$
#127666
1#
1(
#127671
13
#127759
15
#127763
1.
1*
1,
1/
1)
1-
#127767
16
#127768
14
#127770
0(
0#
#127771
03
#127773
04
#127777
06
#127779
12
#127781
11
#127858
0/
#127866
1$
1#
#127867
0-
0)
0.
0,
0*
#127872
02
#127876
01
#127972
1(
#127982
13
#127984
14
#128059
05
#128063
1!
1%
1"
1&
#128065
0"
0&
0(
0$
0'
0#
0!
0%
#128066
1'
#128070
1$
1#
0'
#128072
03
#128074
04
#128076
11
#128078
07
#128081
13
#128083
01
17
#128086
14
#128259
15
#128263
1*
1,
1.
1)
1-
#128267
0)
0-
0*
0,
0.
#128270
03
#128274
04
#128278
12
#128280
14
#128282
02
#128372
1(
#128384
11
04
#128388
12
#128393
01
#128394
02
#128559
05
#128563
1"
1&
1!
1%
#128565
0!
0%
0&
0#
0(
0$
0"
#128566
1#
1(
1'
#128574
13
#128659
15
#128663
1)
1*
1-
1,
1.
#128667
16
#128668
14
#128670
0#
0(
#128671
03
#128673
04
#128677
06
#128679
12
#128681
11
#128758
1/
0.
#128764
13
#128766
1#
1$
#128767
0)
0/
0-
0,
0*
#128768
01
#128772
02
#128774
03
#128872
1(
#128882
13
#128884
14
#128959
05
#128963
1%
1!
1"
#128965
0!
0"
0%
0(
0$
0#
#128970
0'
1$
1#
#128972
03
#128974
04
#128976
11
#128978
07
#128981
13
#128983
01
17
#128986
14
#129159
15
#129163
1,
1*
1-
1/
1)
#129167
0/
0)
0,
0*
0-
#129172
04
#129174
03
#129178
13
#129180
14
#129182
03
#129272
1(
#129284
04
11
#129288
12
#129293
01
#129294
02
#129459
05
#129463
1%
1!
1"
1'
#129465
0"
0!
0$
0(
0#
0%
#129466
1(
1#
#129471
13
#129559
15
#129563
1,
1)
1-
1/
1*
#129567
16
#129568
14
#129570
0#
0(
#129571
12
#129577
06
#129578
04
#129658
0/
#129666
1#
1$
#129667
0*
0,
0-
0)
#129672
02
#129674
03
#129772
1(
#129782
13
#129784
14
#129859
05
#129863
1"
1!
1%
#129865
0!
0%
0(
0'
0#
0"
0$
#129866
1'
#129870
1#
1$
0'
#129872
03
#129874
04
#129876
11
#129878
07
#129881
13
#129883
01
17
#129886
14
#130059
15
#130063
1-
1)
1,
1*
#130067
0-
0)
0,
0*
#130070
03
#130073
04
#130080
14
#130172
1(
#130184
04
11
#130188
12
#130193
01
#130194
02
#130359
05
#130363
1!
1%
1"
#130365
0%
0"
0$
0#
0(
0!
#130366
1'
1#
1(
#130374
13
#130459
15
#130463
1)
1,
1*
1-
#130467
16
#130468
14
#130470
0#
0(
#130471
12
#130477
06
#130478
04
#130558
1.
0-
1/
#130563
02
#130564
03
#130566
1$
1#
#130567
0/
0*
0.
0,
0)
#130570
13
11
#130572
14
#130576
03
#130579
01
#130581
04
#130672
1(
#130682
13
#130684
14
#130759
05
#130763
1!
1&
1"
#130765
0(
0"
0$
0!
0&
0#
#130770
1$
1#
0'
#130772
03
#130774
04
#130776
11
#130778
07
#130781
13
#130783
01
17
#130786
14
#130959
15
#130963
1,
1/
1.
1)
1*
#130967
0)
0*
0,
0/
0.
#130969
03
#130972
04
#130978
12
13
#130980
14
#130982
02
03
#131072
1(
#131084
11
04
#131088
12
#131093
01
#131094
02
#131259
05
#131263
1'
1&
1"
1!
#131265
0"
0!
0#
0(
0&
0$
#131266
1#
1(
#131271
13
#131359
15
#131363
1,
1)
1*
1.
1/
#131367
16
#131368
14
#131370
0#
0(
#131371
03
#131373
04
#131374
12
#131377
06
#131382
13
11
#131384
14
02
#131458
0/
#131466
1$
1#
#131467
0,
03
0*
0.
0)
#131479
01
#131481
04
#131572
1(
#131582
13
#131584
14
#131659
05
#131663
1!
1&
1"
#131665
0(
0"
0'
0#
0!
0&
0$
#131666
1'
#131670
1#
1$
0'
#131672
03
#131674
04
#131676
11
#131678
07
#131681
13
#131683
01
17
#131686
14
#131859
15
#131863
1.
1)
1*
1,
#131867
0.
0)
0*
0,
#131870
03
#131873
04
#131878
12
#131880
14
#131882
02
#131972
1(
#131984
11
04
#131988
12
#131993
01
#131994
02
#132159
05
#132163
1&
1!
1"
#132165
0!
0"
0$
0#
0(
0&
#132166
1#
1(
1'
#132174
13
#132259
15
#132263
1.
1*
1)
1,
