200000.fsdb.vcd
$date
	Wed Aug 29 17:06:44 2001

$end
$version
	VERILOG-XL 3.10.p001
$end
$timescale
	1ns
$end
$scope module system $end
$scope module i_cpu $end
$scope module i_ALUB $end
$scope module i_alu $end
$var wire 1 ! a [7] $end
$var wire 1 " a [6] $end
$var wire 1 # a [5] $end
$var wire 1 $ a [4] $end
$var wire 1 % a [3] $end
$var wire 1 & a [2] $end
$var wire 1 ' a [1] $end
$var wire 1 ( a [0] $end
$var wire 1 ) b [7] $end
$var wire 1 * b [6] $end
$var wire 1 + b [5] $end
$var wire 1 , b [4] $end
$var wire 1 - b [3] $end
$var wire 1 . b [2] $end
$var wire 1 / b [1] $end
$var wire 1 0 b [0] $end
$var wire 1 1 four [3] $end
$var wire 1 2 four [2] $end
$var wire 1 3 four [1] $end
$var wire 1 4 four [0] $end
$var wire 1 5 cin $end
$var wire 1 6 carry $end
$var wire 1 7 big $end
$upscope $end
$upscope $end
$upscope $end
$upscope $end
$enddefinitions $end
#200000
$dumpvars
0!
17
0"
1$
1(
00
01
0)
02
13
0%
0*
14
15
0+
06
1#
0&
0,
0-
1'
0.
0/
$end
#200059
05
#200063
1"
1!
1%
1&
#200065
0%
0&
0$
0(
0"
0!
0'
0#
#200066
1'
#200070
1$
1#
0'
#200072
03
#200074
04
#200076
11
#200078
07
#200081
13
#200083
01
17
#200086
14
#200259
15
#200263
1.
1*
1)
1-
1,
#200267
0-
0,
0.
0*
0)
#200270
03
#200274
04
#200278
12
#200280
14
#200282
02
#200372
1(
#200384
11
04
#200388
12
#200393
01
#200394
02
#200481
05
#200483
0(
0#
0$
#200494
11
#200496
07
#200501
01
#200504
14
#200509
04
#200759
15
#200774
14
#200872
1(
#200884
11
04
#200888
12
#200893
01
#200894
02
#200959
05
#200965
0(
#200974
14
#200976
11
#200983
01
#200991
04
#201059
15
#201065
1(
#201077
11
#201081
12
#201086
01
#201087
02
#201172
0(
1'
#201359
05
#201366
0'
#201367
1$
1&
1(
1"
#201380
17
#201381
13
11
#201458
1.
10
1,
1*
#201459
15
#201466
0"
0$
1'
0&
#201467
0*
0,
0.
00
#201469
14
12
#201471
07
#201474
17
#201476
01
#201477
02
#201483
07
#201572
0(
0'
1&
#201582
11
#201583
12
#201584
03
#201585
01
#201586
04
#201659
05
#201663
1"
1(
1$
#201670
0(
0$
0&
02
0"
1#
#201675
13
11
#201676
17
#201679
03
#201680
14
#201683
13
#201688
01
#201696
04
#201765
1"
1&
1$
1(
#201766
0#
#201772
03
#201779
11
13
#201859
15
#201864
1.
1*
10
1,
#201866
00
0,
0(
0$
0"
0.
0*
#201878
01
03
#201880
12
07
#201959
05
#201963
1(
1$
1"
#201970
02
#201975
13
11
#201976
17
#202059
15
#202063
0&
0$
0"
0(
#202064
1,
10
1.
1*
#202065
1&
1(
#202066
0*
0.
0,
00
#202080
07
#202172
1'
0(
#202181
03
#202187
14
#202259
05
#202263
1"
1(
1$
#202265
0'
#202268
13
#202270
12
#202274
04
02
#202276
17
#202359
15
#202364
1*
10
1,
1.
#202365
1'
#202366
0.
0,
0(
0*
00
0"
0$
#202374
03
#202375
01
#202378
11
#202380
07
14
#202472
1(
#202483
04
#202484
01
#202659
05
#202663
1"
1$
#202665
0"
0$
0'
0&
0(
#202666
1#
#202675
14
#202676
11
#202678
13
#202679
17
#202683
01
#202691
04
#202759
15
#202763
1.
1,
1*
10
#202766
1%
0#
#202767
0*
0.
0,
00
#202770
03
#202774
12
#202778
02
#202780
07
#202872
1(
#202883
12
#202963
1"
1&
1$
#202965
0%
#202970
02
#202974
13
11
#202976
17
#203059
1'
0(
#203063
0'
0$
0&
0"
#203064
1*
1/
1#
1,
1.
#203065
1%
1(
#203066
0.
0,
0*
0#
0/
#203068
03
#203070
12
#203074
01
#203080
07
#203172
1'
0(
#203179
13
#203259
05
#203261
1#
0%
0'
#203263
1&
1"
1$
1'
#203264
0#
1+
#203265
0$
0"
0&
0'
#203266
02
1#
#203268
03
#203270
0#
1(
#203272
13
#203274
17
#203279
03
07
#203282
17
#203283
14
#203286
12
11
#203291
13
#203294
04
#203361
0+
#203365
1$
1'
1&
1"
#203366
0(
#203371
03
01
02
#203374
07
#203378
13
11
17
#203459
15
#203464
1.
1/
1*
1,
#203465
1%
#203466
0,
0*
0$
0"
0.
0/
0&
#203468
03
#203470
12
14
#203472
13
#203474
01
#203476
04
#203480
07
#203559
05
#203563
1&
1$
1"
#203565
0%
#203569
03
#203570
02
#203575
11
13
#203576
17
#203659
15
#203663
0"
0$
0&
0'
#203664
1,
1/
1*
1.
#203665
1%
1(
1'
#203666
0.
0*
0/
0,
#203668
03
#203670
12
14
#203672
13
#203674
01
#203680
07
#203772
0'
1&
0(
#203778
03
#203959
05
#203963
1"
1'
1$
#203965
0'
0$
0%
0&
0"
#203966
1#
#203970
02
#203972
04
#203978
13
#203979
17
#204059
15
#204063
1/
1,
1*
1.
#204067
16
#204069
03
#204070
1(
1&
1"
0#
1$
#204075
11
#204077
14
#204080
06
#204081
04
#204082
13
01
#204089
07
#204158
10
0.
0*
0,
0/
#204166
0$
1%
0"
#204167
00
#204168
11
#204170
17
#204171
12
#204173
14
#204175
03
#204180
07
#204272
1'
0(
#204279
04
#204459
05
#204463
1(
#204465
0&
0%
0'
#204466
1#
#204470
02
#204474
01
#204475
14
#204479
17
#204484
13
#204487
04
#204570
1$
0#
0(
1"
1'
1&
#204576
03
#204583
11
13
#204659
15
#204663
1,
1/
1*
1.
#204666
1%
0$
0"
1(
#204667
0.
0*
0,
0/
#204668
03
#204670
14
#204671
12
#204672
13
#204675
01
03
#204677
04
02
#204685
07
#204772
0(
0'
0&
1$
0%
#204779
13
12
#204783
11
#204784
14
#204785
03
02
#204790
01
#204792
04
#204797
14
#204959
05
#204963
1'
1"
1&
#204965
0$
0'
0"
0&
#204966
1#
#204972
04
#204978
13
#204979
17
#204981
14
#204987
04
#205063
1.
1/
1,
1*
#205069
03
#205070
1&
0#
1$
1"
1(
#205075
11
#205079
13
#205082
01
03
#205158
1+
0*
1-
0,
0.
1)
10
#205159
15
#205166
0&
0"
#205167
0+
00
0-
0)
0/
#205174
11
#205177
14
#205179
01
#205182
13
#205184
07
#205188
03
#205190
04
#205272
0(
1'
#205359
05
#205363
1%
1(
1!
1#
#205365
0'
0%
0!
0$
#205366
1&
1"
1$
#205367
0#
#205370
0$
1#
1'
0&
0"
0(
#205376
17
13
#205377
11
#205379
14
12
03
#205381
01
#205383
04
02
#205465
1!
1(
1%
#205470
12
#205472
13
#205473
14
#205559
15
#205564
1+
1)
1/
10
1-
#205565
1$
#205566
0-
00
0%
0#
0(
0/
0+
0)
0!
#205573
03
#205574
04
02
#205585
07
#205659
05
#205663
1!
1%
1#
1(
#205665
0$
#205668
12
#205670
13
#205671
14
#205676
17
#205759
15
#205763
0(
0!
0%
#205764
1-
10
1+
1)
1/
#205765
1$
1(
0#
#205766
0)
0-
00
0+
0/
#205774
02
#205783
07
#205872
0'
0(
1&
#205882
11
#205883
12
#205884
03
#205885
01
#205886
04
#205959
05
#205963
1%
1(
1#
1'
1!
#205965
0&
0$
#205970
14
#205971
13
#206059
0'
15
0!
0#
0(
0%
#206064
1(
1%
1'
1!
1#
#206065
1&
1$
#206066
0'
0%
0(
0#
0!
#206067
02
04
#206070
03
#206080
12
#206172
1(
#206184
11
13
#206186
02
#206190
17
#206359
05
#206366
0(
0$
0&
#206367
1'
#206370
12
#206374
07
#206377
01
03
#206379
02
#206458
1/
#206459
15
#206466
1$
1&
#206467
0/
#206468
13
#206476
11
03
#206478
14
#206486
17
#206572
1(
#206583
04
#206584
01
#206659
05
#206665
0&
0(
0$
#206670
1#
1(
#206679
07
#206680
13
#206683
17
#206766
0#
0(
#206773
03
#206779
07
#206859
15
#206864
1/
#206865
1(
1$
1&
#206866
0/
#206885
17
#206959
05
#206965
0&
0$
0(
#206979
07
#207059
15
#207064
1/
#207065
0'
1$
1%
#207066
0/
#207070
12
#207074
02
#207082
17
#207172
1(
#207183
12
#207359
05
#207363
1'
#207365
0(
0%
0$
#207366
1%
#207370
13
#207379
07
#207459
15
#207463
1/
1-
#207466
1$
#207467
0/
0-
#207482
17
#207572
1(
#207580
14
#207659
05
#207665
0$
0(
#207670
1#
0'
1$
0%
#207673
04
02
#207677
11
03
#207679
07
#207681
13
#207683
01
17
#207686
14
#207859
15
#207863
1/
1-
#207867
0/
0-
#207872
04
#207874
03
#207878
13
#207880
14
#207882
03
#207972
1(
#207984
11
04
#207988
12
#207993
01
#207994
02
#208159
05
#208163
1'
1%
#208165
0#
0$
0(
0%
#208166
1#
1(
#208171
13
#208259
15
#208263
1-
1/
#208267
16
#208268
14
#208270
0#
0(
#208271
12
#208278
04
#208291
06
#208295
07
#208358
0/
#208366
1$
1#
#208367
0-
#208372
02
#208374
03
#208379
17
#208472
1(
#208482
13
#208484
14
#208559
05
#208563
1%
#208565
0#
0'
0(
0%
0$
#208566
1'
#208570
1#
1$
0'
#208572
03
#208574
04
#208576
11
#208578
07
#208581
13
#208583
01
17
#208586
14
#208759
15
#208763
1-
#208767
0-
#208770
03
#208773
04
#208780
14
#208872
1(
#208884
11
04
#208888
12
#208893
01
#208894
02
#209059
05
#209063
1%
#209065
0#
0$
0(
0%
#209066
1'
1#
1(
#209074
13
#209159
15
#209163
1-
#209167
16
#209168
14
#209170
0#
0(
#209171
12
#209178
04
#209191
06
#209195
07
#209258
1.
0-
1/
#209263
02
#209264
03
#209266
1$
1#
#209267
0.
0/
#209270
11
13
#209272
14
#209276
03
#209279
01
17
#209281
04
#209372
1(
#209382
13
#209384
14
#209459
05
#209463
1&
#209465
0#
0(
0&
0$
#209470
0'
1#
1$
#209472
03
#209474
04
#209476
11
#209478
07
#209481
13
#209483
01
17
#209486
14
#209659
15
#209663
1/
1.
#209667
0/
0.
#209669
03
#209672
04
#209678
13
12
#209680
14
#209682
03
02
#209772
1(
#209784
11
04
#209788
12
#209793
01
#209794
02
#209959
05
#209963
1&
1'
#209965
0#
0(
0&
0$
#209966
1#
1(
#209971
13
#210059
15
#210063
1.
1/
#210067
16
#210068
14
#210070
0(
0#
#210071
03
#210073
04
#210074
12
#210082
11
13
#210084
14
02
#210092
06
#210096
07
#210158
0/
#210166
1#
1$
#210167
03
0.
#210179
17
01
#210181
04
#210272
1(
#210282
13
#210284
14
#210359
05
#210363
1&
#210365
0(
0#
0&
0$
0'
#210366
1'
#210370
1#
1$
0'
#210372
03
#210374
04
#210376
11
#210378
07
#210381
13
#210383
01
17
#210386
14
#210559
15
#210563
1.
#210567
0.
#210570
03
#210573
04
#210578
12
#210580
14
#210582
02
#210672
1(
#210684
11
04
#210688
12
#210693
01
#210694
02
#210859
05
#210863
1&
#210865
0#
0(
0&
0$
#210866
1'
1#
1(
#210874
13
#210959
15
#210963
1.
#210967
16
#210968
14
#210970
0#
0(
#210971
03
#210973
04
#210974
12
#210982
11
#210984
14
02
#210992
06
#210996
07
#211058
0.
1/
#211066
1$
1#
#211067
0/
13
#211070
01
#211072
04
#211076
03
#211079
17
#211172
1(
#211182
13
#211184
14
#211259
05
#211265
0#
0(
0$
#211270
0'
1#
1$
#211272
03
#211274
04
#211276
11
#211278
07
#211281
13
#211283
01
17
#211286
14
#211459
15
#211463
1/
#211467
0/
#211469
03
#211472
04
#211478
13
#211480
14
#211482
03
#211572
1(
#211584
11
04
#211588
12
#211593
01
#211594
02
#211759
05
#211763
1'
#211765
0#
0(
0$
#211766
1#
1(
#211771
13
#211859
15
#211863
1/
#211867
16
#211868
14
#211870
0(
0#
#211879
04
#211907
06
#211912
07
#211958
1)
1*
0/
1+
#211966
1#
1$
#211967
03
0)
0*
0+
#211971
17
#212072
1(
#212082
13
#212084
14
#212159
05
#212163
1"
1!
#212165
0$
0(
0"
0!
0'
#212166
1'
#212167
0#
#212170
1$
0'
1#
#212174
04
#212176
11
#212183
01
#212186
14
#212359
15
#212363
1*
1+
1)
#212367
0*
0+
0)
#212371
03
#212373
04
#212380
14
#212472
1(
#212484
04
11
#212488
12
#212493
01
#212494
02
#212659
05
#212663
1"
1!
#212665
0(
0"
0!
0$
#212666
1'
1(
#212671
13
#212759
15
#212763
1*
1+
1)
#212767
16
#212768
14
#212770
0#
0(
#212777
06
#212779
04
#212780
03
#212858
1/
1-
1,
0+
1.
#212863
12
#212866
1$
1#
#212867
0-
0.
0/
0)
0*
0,
#212868
11
#212872
02
#212876
01
#212972
1(
#212982
13
#212984
14
#213059
05
#213063
1%
1!
1&
1"
#213065
0&
0"
0%
0(
0#
0$
0!
#213070
0'
1#
1$
#213072
03
#213074
04
#213076
11
#213078
07
#213081
13
#213083
01
17
#213086
14
#213259
15
#213263
1-
1,
1.
1*
1)
1/
#213267
0)
0/
0-
0,
0.
0*
#213269
03
#213272
04
#213278
12
13
#213280
14
#213282
02
03
#213372
1(
#213384
11
04
#213388
12
#213393
01
#213394
02
#213559
05
#213563
1!
1&
1"
1'
1%
#213565
0&
0%
0$
0!
0(
0"
0#
#213566
1(
1#
#213571
13
#213659
15
#213663
1)
1-
1/
1*
1.
1,
#213667
16
#213668
14
#213670
0(
0#
#213671
03
#213673
04
#213677
06
#213679
12
#213681
11
#213758
0/
#213766
1#
1$
#213767
0)
0,
0.
0*
0-
#213772
02
#213776
01
#213872
1(
#213882
13
#213884
14
#213959
05
#213963
1&
1%
1"
1!
#213965
0"
0!
0'
0$
0#
0(
0&
0%
#213966
1'
#213970
1#
1$
0'
#213972
03
#213974
04
#213976
11
#213978
07
#213981
13
#213983
01
17
#213986
14
#214159
15
#214163
1-
1)
1*
1.
1,
#214167
0.
0,
0-
0)
0*
#214170
03
#214174
04
#214178
12
#214180
14
#214182
02
#214272
1(
#214284
11
04
#214288
12
#214293
01
#214294
02
#214459
05
#214463
1!
1"
1%
1&
#214465
0%
0&
0!
0#
0$
0(
0"
#214466
1'
1#
1(
#214474
13
#214559
15
#214563
1.
1-
1,
1*
1)
#214567
16
#214568
14
#214570
0(
0#
#214571
03
#214573
04
#214577
06
#214579
12
#214581
11
#214658
0.
1/
#214664
13
#214666
1#
1$
#214667
0)
0/
0*
0-
0,
#214668
01
#214672
02
#214674
03
#214772
1(
#214782
13
#214784
14
#214859
05
#214863
1!
1%
1"
#214865
0%
0"
0(
0$
0#
0!
#214870
0'
1$
1#
#214872
03
#214874
04
#214876
11
#214878
07
#214881
13
#214883
01
17
#214886
14
#215059
15
#215063
1-
1*
1,
1/
1)
#215067
0/
0)
0-
0*
0,
#215072
04
#215074
03
#215078
13
#215080
14
#215082
03
#215172
1(
#215184
04
11
#215188
12
#215193
01
#215194
02
#215359
05
#215363
1'
1"
1!
1%
#215365
0!
0%
0$
0#
0(
0"
#215366
1#
1(
#215371
13
#215459
15
#215463
1-
1/
1)
1,
1*
#215467
16
#215468
14
#215470
0(
0#
#215471
12
#215477
06
#215478
04
#215558
0/
#215566
1#
1$
#215567
0*
0,
0)
0-
#215572
02
#215574
03
#215672
1(
#215682
13
#215684
14
#215759
05
#215763
1"
1!
1%
#215765
0!
0%
0"
0#
0(
0$
0'
#215766
1'
#215770
1#
1$
0'
#215772
03
#215774
04
#215776
11
#215778
07
#215781
13
#215783
01
17
#215786
14
#215959
15
#215963
1)
1-
1,
1*
#215967
0)
0-
0,
0*
#215970
03
#215973
04
#215980
14
#216072
1(
#216084
11
04
#216088
12
#216093
01
#216094
02
#216259
05
#216263
1!
1"
1%
#216265
0"
0%
0$
0#
0(
0!
#216266
1'
1#
1(
#216274
13
#216359
15
#216363
1-
1,
1)
1*
#216367
16
#216368
14
#216370
0#
0(
#216371
12
#216377
06
#216378
04
#216458
1.
0-
1/
#216463
02
#216464
03
#216466
1$
1#
#216467
0*
0.
0/
0,
0)
#216470
13
11
#216472
14
#216476
03
#216479
01
#216481
04
#216572
1(
#216582
13
#216584
14
#216659
05
#216663
1"
1!
1&
#216665
0!
0&
0(
0#
0"
0$
#216670
0'
1#
1$
#216672
03
#216674
04
#216676
11
#216678
07
#216681
13
#216683
01
17
#216686
14
#216859
15
#216863
1,
1/
1)
1.
1*
#216867
0.
0*
0,
0/
0)
#216869
03
#216872
04
#216878
12
13
#216880
14
#216882
02
03
#216972
1(
#216984
04
11
#216988
12
#216993
01
#216994
02
#217159
05
#217163
1&
1!
1'
1"
#217165
0!
0"
0#
0(
0$
0&
#217166
1#
1(
#217171
13
#217259
15
#217263
1,
1*
1)
1.
1/
#217267
16
#217268
14
#217270
0(
0#
#217271
03
#217273
04
#217274
12
#217277
06
#217282
13
11
#217284
14
02
#217358
0/
#217366
1#
1$
#217367
03
0)
0.
0*
0,
#217379
01
#217381
04
#217472
1(
#217482
13
#217484
14
#217559
05
#217563
1!
1"
1&
#217565
0(
0&
0'
0!
0"
0$
0#
#217566
1'
#217570
1$
1#
0'
#217572
03
#217574
04
#217576
11
#217578
07
#217581
13
#217583
01
17
#217586
14
#217759
15
#217763
1,
1*
1)
1.
#217767
0,
0*
0)
0.
#217770
03
#217773
04
#217778
12
#217780
14
#217782
02
#217872
1(
#217884
11
04
#217888
12
#217893
01
#217894
02
#218059
05
#218063
1&
1!
1"
#218065
0!
0"
0$
0#
0(
0&
#218066
1'
1#
1(
#218074
13
#218159
15
#218163
1,
1)
1*
1.
#218167
16
#218168
14
#218170
0#
0(
#218171
03
#218173
04
#218174
12
#218177
06
#218182
11
#218184
14
02
#218258
1/
0.
#218266
1$
1#
#218267
0,
0/
13
0*
0)
#218270
01
#218272
04
#218276
03
#218372
1(
#218382
13
#218384
14
#218459
05
#218463
1!
1"
#218465
0#
0(
0!
0"
0$
#218470
0'
1#
1$
#218472
03
#218474
04
#218476
11
#218478
07
#218481
13
#218483
01
17
#218486
14
#218659
15
#218663
1*
1)
1/
1,
#218667
0*
0)
0/
0,
#218669
03
#218672
04
#218678
13
#218680
14
#218682
03
#218772
1(
#218784
04
11
#218788
12
#218793
01
#218794
02
#218959
05
#218963
1'
1"
1!
#218965
0$
0(
0"
0!
0#
#218966
1(
1#
#218971
13
#219059
15
#219063
1*
1/
1)
1,
#219067
16
#219068
14
#219070
0#
0(
#219077
06
#219079
04
#219158
0/
#219166
1#
1$
#219167
0)
03
0,
0*
#219272
1(
#219282
13
#219284
14
#219359
05
#219363
1!
1"
#219365
0#
0(
0!
0"
0$
0'
#219366
1'
#219370
1#
1$
0'
#219372
03
#219374
04
#219376
11
#219378
07
#219381
13
#219383
01
17
#219386
14
#219559
15
#219563
1,
1*
1)
#219567
0,
0*
0)
#219571
03
#219573
04
#219580
14
#219672
1(
#219684
11
04
#219688
12
#219693
01
#219694
02
#219859
05
#219863
1!
1"
#219865
0!
0"
0#
0$
0(
#219866
1'
1#
1(
#219871
13
#219959
15
#219963
1)
1*
1,
#219967
16
#219968
14
#219970
0#
0(
#219977
06
#219979
04
#219980
03
#220058
1.
1-
0,
1/
#220063
12
#220066
1$
1#
#220067
0*
0/
0.
0)
0-
#220068
11
#220072
02
#220076
01
#220172
1(
#220182
13
#220184
14
#220259
05
#220263
1!
1&
1%
1"
#220265
0%
0"
0&
0(
0#
0$
0!
#220270
0'
1#
1$
#220272
03
#220274
04
#220276
11
#220278
07
#220281
13
#220283
01
17
#220286
14
#220459
15
#220463
1-
1*
1.
1/
1)
#220467
0/
0)
0-
0*
0.
#220469
03
#220472
04
#220478
13
12
#220480
14
#220482
03
02
#220572
1(
#220584
11
04
#220588
12
#220593
01
#220594
02
#220759
05
#220763
1%
1'
1&
1!
1"
#220765
0!
0"
0(
0$
0#
0%
0&
#220766
1(
1#
#220771
13
#220859
15
#220863
1-
1)
1/
1*
1.
#220867
16
#220868
14
#220870
0(
0#
#220871
03
#220873
04
#220877
06
#220879
12
#220881
11
#220958
0/
#220966
1#
1$
#220967
0*
0.
0-
0)
#220972
02
#220976
01
#221072
1(
#221082
13
#221084
14
#221159
05
#221163
1!
1&
1%
1"
#221165
0%
0"
0&
0(
0#
0!
0$
0'
#221166
1'
#221170
1#
1$
0'
#221172
03
#221174
04
#221176
11
#221178
07
#221181
13
#221183
01
17
#221186
14
#221359
15
#221363
1-
1)
1.
1*
#221367
0-
0)
0.
0*
#221370
03
#221374
04
#221378
12
#221380
14
#221382
02
#221472
1(
#221484
11
04
#221488
12
#221493
01
#221494
02
#221659
05
#221663
1"
1%
1&
1!
#221665
0&
0!
0(
0#
0$
0"
0%
#221666
1'
1#
1(
#221674
13
#221759
15
#221763
1.
1-
1)
1*
#221767
16
#221768
14
#221770
0(
0#
#221771
03
#221773
04
#221777
06
#221779
12
#221781
11
#221858
0.
1/
#221864
13
#221866
1$
1#
#221867
0*
0/
0)
0-
#221868
01
#221872
02
#221874
03
#221972
1(
#221982
13
#221984
14
#222059
05
#222063
1!
1%
1"
#222065
0%
0"
0(
0#
0$
0!
#222070
0'
1#
1$
#222072
03
#222074
04
#222076
11
#222078
07
#222081
13
#222083
01
17
#222086
14
#222259
15
#222263
1)
1-
1*
1/
#222267
0)
0-
0*
0/
#222272
04
#222274
03
#222278
13
#222280
14
#222282
03
#222372
1(
#222384
04
11
#222388
12
#222393
01
#222394
02
#222559
05
#222563
1"
1%
1'
1!
#222565
0%
0!
0(
0$
0#
0"
#222566
1(
1#
#222571
13
#222659
15
#222663
1*
1-
1/
1)
#222667
16
#222668
14
#222670
0#
0(
#222671
12
#222677
06
#222678
04
#222758
0/
#222766
1#
1$
#222767
0)
0-
0*
#222772
02
#222774
03
#222872
1(
#222882
13
#222884
14
#222959
05
#222963
1!
1%
1"
#222965
0%
0"
0(
0'
0#
0!
0$
#222966
1'
#222970
1#
1$
0'
#222972
03
#222974
04
#222976
11
#222978
07
#222981
13
#222983
01
17
#222986
14
#223159
15
#223163
1-
1*
1)
#223167
0-
0*
0)
#223170
03
#223173
04
#223180
14
#223272
1(
#223284
04
11
#223288
12
#223293
01
#223294
02
#223459
05
#223463
1%
1"
1!
#223465
0"
0!
0$
0#
0(
0%
#223466
1'
1#
1(
#223474
13
#223559
15
#223563
1*
1)
1-
#223567
16
#223568
14
#223570
0(
0#
#223571
12
#223577
06
#223578
04
#223658
1.
0-
1/
#223663
02
#223664
03
#223666
1#
1$
#223667
0)
0.
0/
0*
#223670
13
11
#223672
14
#223676
03
#223679
01
#223681
04
#223772
1(
#223782
13
#223784
14
#223859
05
#223863
1"
1&
1!
#223865
0&
0!
0"
0$
0(
0#
#223870
0'
1$
1#
#223872
03
#223874
04
#223876
11
#223878
07
#223881
13
#223883
01
17
#223886
14
#224059
15
#224063
1)
1*
1/
1.
#224067
0)
0*
0/
0.
#224069
03
#224072
04
#224078
12
13
#224080
14
#224082
02
03
#224172
1(
#224184
11
04
#224188
12
#224193
01
#224194
02
#224359
05
#224363
1'
1"
1!
1&
#224365
0(
0&
0$
0#
0"
0!
#224366
1(
1#
#224371
13
#224459
15
#224463
1)
1/
1*
1.
#224467
16
#224468
14
#224470
0(
0#
#224471
03
#224473
04
#224474
12
#224477
06
#224482
13
11
#224484
14
02
#224558
0/
#224566
1$
1#
#224567
0.
03
0)
0*
#224579
01
#224581
04
#224672
1(
#224682
13
#224684
14
#224759
05
#224763
1!
1"
1&
#224765
0"
0&
0#
0'
0(
0!
0$
#224766
1'
#224770
1#
1$
0'
#224772
03
#224774
04
#224776
11
#224778
07
#224781
13
#224783
01
17
#224786
14
#224959
15
#224963
1)
1.
1*
#224967
0)
0.
0*
#224970
03
#224973
04
#224978
12
#224980
14
#224982
02
#225072
1(
#225084
11
04
#225088
12
#225093
01
#225094
02
#225259
05
#225263
1"
1!
1&
#225265
0!
0&
0#
0$
0(
0"
#225266
1'
1#
1(
#225274
13
#225359
15
#225363
1*
1.
1)
#225367
16
#225368
14
#225370
0#
0(
#225371
03
#225373
04
#225374
12
#225377
06
#225382
11
#225384
14
02
#225458
1/
0.
#225466
1#
1$
#225467
13
0/
0*
0)
#225470
01
#225472
04
#225476
03
#225572
1(
#225582
13
#225584
14
#225659
05
#225663
1!
1"
#225665
0$
0(
0!
0"
0#
#225670
0'
1$
1#
#225672
03
#225674
04
#225676
11
#225678
07
#225681
13
#225683
01
17
#225686
14
#225859
15
#225863
1*
1)
1/
#225867
0*
0)
0/
#225869
03
#225872
04
#225878
13
#225880
14
#225882
03
#225972
1(
#225984
04
11
#225988
12
#225993
01
#225994
02
#226159
05
#226163
1'
1"
1!
#226165
0$
0!
0#
0(
0"
#226166
1#
1(
#226171
13
#226259
15
#226263
1*
1/
1)
#226267
16
#226268
14
#226270
0(
0#
#226277
06
#226279
04
#226358
0/
1+
#226366
1#
1$
#226367
0*
03
0+
0)
#226472
1(
#226482
13
#226484
14
#226559
05
#226563
1"
1!
#226565
0(
0"
0!
0$
0'
#226566
1'
#226567
0#
#226570
1$
0'
1#
#226574
04
#226576
11
#226583
01
#226586
14
#226759
15
#226763
1)
1*
1+
#226767
0)
0*
0+
#226771
03
#226773
04
#226780
14
#226872
1(
#226884
04
11
#226888
12
#226893
01
#226894
02
#227059
05
#227063
1!
1"
#227065
0$
0(
0!
0"
#227066
1'
1(
#227071
13
#227159
15
#227163
1)
1+
1*
#227167
16
#227168
14
#227170
0(
0#
#227177
06
#227179
04
#227180
03
#227258
1/
1-
0+
1,
1.
#227263
12
#227266
1$
1#
#227267
0.
0/
0,
0-
0)
0*
#227268
11
#227272
02
#227276
01
#227372
1(
#227382
13
#227384
14
#227459
05
#227463
1!
1&
1%
1"
#227465
0%
0"
0&
0(
0!
0#
0$
#227470
1#
1$
0'
#227472
03
#227474
04
#227476
11
#227478
07
#227481
13
#227483
01
17
#227486
14
#227659
15
#227663
1*
1,
1.
1/
1)
1-
#227667
0)
0-
0*
0,
0.
0/
#227669
03
#227672
04
#227678
12
13
#227680
14
#227682
02
03
#227772
1(
#227784
04
11
#227788
12
#227793
01
#227794
02
#227959
05
#227963
1"
1!
1%
1'
1&
#227965
0%
0&
0$
0(
0!
0"
0#
#227966
1(
1#
#227971
13
#228059
15
#228063
1)
1*
1-
1/
1.
1,
#228067
16
#228068
14
#228070
0#
0(
#228071
03
#228073
04
#228077
06
#228079
12
#228081
11
#228158
0/
#228166
1$
1#
#228167
0)
0.
0,
0-
0*
#228172
02
#228176
01
#228272
1(
#228282
13
#228284
14
#228359
05
#228363
1%
1"
1&
1!
#228365
0&
0!
0$
0'
0#
0%
0"
0(
#228366
1'
#228370
1$
1#
0'
#228372
03
#228374
04
#228376
11
#228378
07
#228381
13
#228383
01
17
#228386
14
#228559
15
#228563
1-
1*
1,
1.
1)
#228567
0.
0)
0-
0*
0,
#228570
03
#228574
04
#228578
12
#228580
14
#228582
02
#228672
1(
#228684
11
04
#228688
12
#228693
01
#228694
02
#228859
05
#228863
1&
1"
1%
1!
#228865
0%
0!
0$
0#
0(
0&
0"
#228866
1'
1#
1(
#228874
13
#228959
15
#228963
1.
1-
1)
1,
1*
#228967
16
#228968
14
#228970
0#
0(
#228971
03
#228973
04
#228977
06
#228979
12
#228981
11
#229058
1/
0.
#229064
13
#229066
1#
1$
#229067
0*
0/
0)
0,
0-
#229068
01
#229072
02
#229074
03
#229172
1(
#229182
13
#229184
14
#229259
05
#229263
1%
1"
1!
#229265
0"
0!
0%
0(
0$
0#
#229270
0'
1$
1#
#229272
03
#229274
04
#229276
11
#229278
07
#229281
13
#229283
01
17
#229286
14
#229459
15
#229463
1,
1-
1)
1/
1*
#229467
0/
0*
0,
0-
0)
#229472
04
#229474
03
#229478
13
#229480
14
#229482
03
#229572
1(
#229584
04
11
#229588
12
#229593
01
#229594
02
#229759
05
#229763
1%
1!
1'
1"
#229765
0!
0"
0$
0(
0#
0%
#229766
1(
1#
#229771
13
#229859
15
#229863
1,
1*
1)
1/
1-
#229867
16
#229868
14
#229870
0#
0(
#229871
12
#229877
06
#229878
04
#229958
0/
#229966
1#
1$
#229967
0-
0,
0)
0*
#229972
02
#229974
03
#230072
1(
#230082
13
#230084
14
#230159
05
#230163
1!
1"
1%
#230165
0"
0%
0(
0'
0#
0!
0$
#230166
1'
#230170
1#
1$
0'
#230172
03
#230174
04
#230176
11
#230178
07
#230181
13
#230183
01
17
#230186
14
#230359
15
#230363
1)
1*
1,
1-
#230367
0)
0*
0,
0-
#230370
03
#230373
04
#230380
14
#230472
1(
#230484
04
11
#230488
12
#230493
01
#230494
02
#230659
05
#230663
1"
1%
1!
#230665
0%
0!
0$
0#
0(
0"
#230666
1'
1#
1(
#230674
13
#230759
15
#230763
1*
1,
1-
1)
#230767
16
#230768
14
#230770
0#
0(
#230771
12
#230777
06
#230778
04
#230858
1.
0-
1/
#230863
02
#230864
03
#230866
1$
1#
#230867
0/
0)
0.
0,
0*
#230870
13
11
#230872
14
#230876
03
#230879
01
#230881
04
#230972
1(
#230982
13
#230984
14
#231059
05
#231063
1"
1&
1!
#231065
0(
0!
0$
0"
0&
0#
#231070
1$
1#
0'
#231072
03
#231074
04
#231076
11
#231078
07
#231081
13
#231083
01
17
#231086
14
#231259
15
#231263
1,
1/
1*
1.
1)
#231267
0.
0)
0,
0/
0*
#231269
03
#231272
04
#231278
12
13
#231280
14
#231282
02
03
#231372
1(
#231384
11
04
#231388
12
#231393
01
#231394
02
#231559
05
#231563
1'
1&
1!
1"
#231565
0!
0"
0#
0(
0&
0$
#231566
1#
1(
#231571
13
#231659
15
#231663
1,
1.
1)
1*
1/
#231667
16
#231668
14
#231670
0#
0(
#231671
03
#231673
04
#231674
12
#231677
06
#231682
13
11
#231684
14
02
#231758
0/
#231766
1$
1#
#231767
0,
03
0*
0)
0.
#231779
01
#231781
04
#231872
1(
#231882
13
#231884
14
#231959
05
#231963
1"
1&
1!
#231965
0(
0!
0'
0#
0"
0&
0$
#231966
1'
#231970
1#
1$
0'
#231972
03
#231974
04
#231976
11
#231978
07
#231981
13
#231983
01
17
#231986
14
#232159
15
