300000.fsdb.vcd
$date
	Wed Aug 29 17:06:44 2001

$end
$version
	VERILOG-XL 3.10.p001
$end
$timescale
	1ns
$end
$scope module system $end
$scope module i_cpu $end
$scope module i_ALUB $end
$scope module i_alu $end
$var wire 1 ! a [7] $end
$var wire 1 " a [6] $end
$var wire 1 # a [5] $end
$var wire 1 $ a [4] $end
$var wire 1 % a [3] $end
$var wire 1 & a [2] $end
$var wire 1 ' a [1] $end
$var wire 1 ( a [0] $end
$var wire 1 ) b [7] $end
$var wire 1 * b [6] $end
$var wire 1 + b [5] $end
$var wire 1 , b [4] $end
$var wire 1 - b [3] $end
$var wire 1 . b [2] $end
$var wire 1 / b [1] $end
$var wire 1 0 b [0] $end
$var wire 1 1 four [3] $end
$var wire 1 2 four [2] $end
$var wire 1 3 four [1] $end
$var wire 1 4 four [0] $end
$var wire 1 5 cin $end
$var wire 1 6 carry $end
$var wire 1 7 big $end
$upscope $end
$upscope $end
$upscope $end
$upscope $end
$enddefinitions $end
#300000
$dumpvars
0!
17
0"
0$
1(
00
01
0)
02
13
0%
0*
04
05
0+
06
1#
0&
0,
0-
1'
0.
0/
$end
#300059
15
#300063
1/
1.
1*
1)
1-
1,
#300067
16
#300068
14
#300070
0(
0#
#300071
03
#300073
04
#300077
06
#300079
12
#300081
11
#300158
0/
#300166
1$
1#
#300167
0,
0.
0-
0)
0*
#300172
02
#300176
01
#300272
1(
#300282
13
#300284
14
#300359
05
#300363
1"
1!
1%
1&
#300365
0%
0&
0"
0#
0(
0$
0!
0'
#300366
1'
#300370
1#
1$
0'
#300372
03
#300374
04
#300376
11
#300378
07
#300381
13
#300383
01
17
#300386
14
#300559
15
#300563
1)
1*
1-
1,
1.
#300567
0,
0.
0)
0*
0-
#300570
03
#300574
04
#300578
12
#300580
14
#300582
02
#300672
1(
#300684
11
04
#300688
12
#300693
01
#300694
02
#300706
05
#300708
0$
0(
0#
#300719
11
#300721
07
#300726
01
#300729
14
#300734
04
#300959
15
#300974
14
#301072
1(
#301084
11
04
#301088
12
#301093
01
#301094
02
#301159
05
#301165
0(
#301174
14
#301176
11
#301183
01
#301191
04
#301259
15
#301265
1(
#301277
11
#301281
12
#301286
01
#301287
02
#301372
1'
0(
#301559
05
#301566
0'
#301567
1"
1(
1$
1&
#301580
17
#301581
11
13
#301658
10
1,
1.
1*
#301659
15
#301666
0&
1'
0$
0"
#301667
0*
0.
00
0,
#301669
14
12
#301671
07
#301674
17
#301676
01
#301677
02
#301683
07
#301772
1&
0(
0'
#301782
11
#301783
12
#301784
03
#301785
01
#301786
04
#301859
05
#301863
1$
1(
1"
#301870
02
0$
0(
0"
0&
1#
#301875
11
13
#301876
17
#301879
03
#301880
14
#301883
13
#301888
01
#301896
04
#301965
1&
1$
1(
1"
#301966
0#
#301972
03
#301979
11
13
#302059
15
#302064
1*
10
1,
1.
#302066
0,
0.
0"
0$
0*
00
0(
#302078
01
03
#302080
07
12
#302159
05
#302163
1(
1"
1$
#302170
02
#302175
13
11
#302176
17
#302259
15
#302263
0"
0$
0(
0&
#302264
1,
10
1.
1*
#302265
1&
1(
#302266
0*
0.
0,
00
#302280
07
#302372
1'
0(
#302381
03
#302387
14
#302459
05
#302463
1(
1"
1$
#302465
0'
#302468
13
#302470
12
#302474
04
02
#302476
17
#302559
15
#302564
1,
1*
10
1.
#302565
1'
#302566
0.
00
0$
0,
0*
0"
0(
#302574
03
#302575
01
#302578
11
#302580
07
14
#302672
1(
#302683
04
#302684
01
#302859
05
#302863
1"
1$
#302865
0&
0(
0"
0$
0'
#302866
1#
#302875
14
#302876
11
#302878
13
#302879
17
#302883
01
#302891
04
#302959
15
#302963
10
1.
1,
1*
#302966
1%
0#
#302967
0*
0,
00
0.
#302970
03
#302974
12
#302978
02
#302980
07
#303072
1(
#303083
12
#303163
1$
1&
1"
#303165
0%
#303170
02
#303174
13
11
#303176
17
#303259
0(
1'
#303263
0"
0&
0'
0$
#303264
1/
1*
1#
1.
1,
#303265
1%
1(
#303266
0,
0.
0/
0#
0*
#303268
03
#303270
12
#303274
01
#303280
07
#303372
1'
0(
#303379
13
#303459
05
#303461
1#
0%
0'
#303463
1"
1$
1'
1&
#303464
0#
1+
#303465
0'
0"
0$
0&
#303466
02
1#
#303468
03
#303470
0#
1(
#303472
13
#303474
17
#303479
03
07
#303482
17
#303483
14
#303486
12
11
#303491
13
#303494
04
#303561
0+
#303565
1&
1'
1$
1"
#303566
0(
#303571
03
01
02
#303574
07
#303578
13
11
17
#303659
15
#303664
1,
1/
1*
1.
#303665
1%
#303666
0.
0&
0"
0,
0*
0/
0$
#303668
03
#303670
14
12
#303672
13
#303674
01
#303676
04
#303680
07
#303759
05
#303763
1$
1&
1"
#303765
0%
#303769
03
#303770
02
#303775
11
13
#303776
17
#303859
15
#303863
0"
0&
0$
0'
#303864
1.
1,
1/
1*
#303865
1%
1(
1'
#303866
0*
0/
0,
0.
#303868
03
#303870
12
14
#303872
13
#303874
01
#303880
07
#303972
0'
0(
1&
#303978
03
#304159
05
#304163
1$
1'
1"
#304165
0'
0"
0%
0&
0$
#304166
1#
#304170
02
#304172
04
#304178
13
#304179
17
#304259
15
#304263
1.
1,
1/
1*
#304267
16
#304269
03
#304270
1(
1&
1$
0#
1"
#304275
11
#304277
14
#304280
06
#304281
04
#304282
13
01
#304289
07
#304358
10
0*
0/
0,
0.
#304366
1%
0$
0"
#304367
00
#304368
11
#304370
17
#304371
12
#304373
14
#304375
03
#304380
07
#304472
1'
0(
#304479
04
#304659
05
#304663
1(
#304665
0&
0%
0'
#304666
1#
#304670
02
#304674
01
#304675
14
#304679
17
#304684
13
#304687
04
#304770
1$
1"
0#
0(
1&
1'
#304776
03
#304783
11
13
#304859
15
#304863
1.
1,
1/
1*
#304866
0"
0$
1%
1(
#304867
0*
0/
0.
0,
#304868
03
#304870
14
#304871
12
#304872
13
#304875
01
03
#304877
04
02
#304885
07
#304972
0(
0&
0'
0%
1$
#304979
12
13
#304983
11
#304984
14
#304985
02
03
#304990
01
#304992
04
#304997
14
#305159
05
#305163
1&
1'
1"
#305165
0$
0&
0'
0"
#305166
1#
#305172
04
#305178
13
#305179
17
#305181
14
#305187
04
#305263
1,
1*
1.
1/
#305269
03
#305270
1$
1"
1(
1&
0#
#305275
11
#305279
13
#305282
01
03
#305358
1+
10
0,
1)
0.
0*
1-
#305359
15
#305366
0"
0&
#305367
0/
0-
00
0+
0)
#305374
11
#305377
14
#305379
01
#305382
13
#305384
07
#305388
03
#305390
04
#305472
0(
1'
#305559
05
#305563
1#
1%
1(
1!
#305565
0$
0'
0%
0!
#305566
1&
1"
1$
#305567
0#
#305570
0$
1#
1'
0(
0&
0"
#305576
17
13
#305577
11
#305579
12
03
14
#305581
01
#305583
02
04
#305665
1!
1%
1(
#305670
12
#305672
13
#305673
14
#305759
15
#305764
1-
1+
1/
1)
10
#305765
1$
#305766
00
0-
0%
0(
0#
0!
0)
0/
0+
#305773
03
#305774
04
02
#305785
07
#305859
05
#305863
1(
1%
1!
1#
#305865
0$
#305868
12
#305870
13
#305871
14
#305876
17
#305959
15
#305963
0!
0%
0(
#305964
1+
1-
10
1)
1/
#305965
0#
1$
1(
#305966
0)
0/
0+
00
0-
#305974
02
#305983
07
#306072
0'
0(
1&
#306082
11
#306083
12
#306084
03
#306085
01
#306086
04
#306159
05
#306163
1#
1(
1%
1'
1!
#306165
0$
0&
#306170
14
#306171
13
#306259
0'
0(
0!
0#
15
0%
#306264
1!
1(
1'
1%
1#
#306265
1$
1&
#306266
0#
0%
0!
0(
0'
#306267
04
02
#306270
03
#306280
12
#306372
1(
#306384
13
11
#306386
02
#306390
17
#306559
05
#306566
0$
0&
0(
#306567
1'
#306570
12
#306574
07
#306577
01
03
#306579
02
#306658
1/
#306659
15
#306666
1$
1&
#306667
0/
#306668
13
#306676
11
03
#306678
14
#306686
17
#306772
1(
#306783
04
#306784
01
#306859
05
#306865
0&
0$
0(
#306870
1#
1(
#306879
07
#306880
13
#306883
17
#306966
0#
0(
#306973
03
#306979
07
#307059
15
#307064
1/
#307065
1$
1(
1&
#307066
0/
#307085
17
#307159
05
#307165
0&
0(
0$
#307179
07
#307259
15
#307264
1/
#307265
1%
0'
1$
#307266
0/
#307270
12
#307274
02
#307282
17
#307372
1(
#307383
12
#307559
05
#307563
1'
#307565
0%
0(
0$
#307566
1%
#307570
13
#307579
07
#307659
15
#307663
1/
1-
#307666
1$
#307667
0/
0-
#307682
17
#307772
1(
#307780
14
#307859
05
#307865
0$
0(
#307870
0%
0'
1#
1$
#307873
04
02
#307877
03
11
#307879
07
#307881
13
#307883
01
17
#307886
14
#308059
15
#308063
1/
1-
#308067
0/
0-
#308072
04
#308074
03
#308078
13
#308080
14
#308082
03
#308172
1(
#308184
11
04
#308188
12
#308193
01
#308194
02
#308359
05
#308363
1'
1%
#308365
0$
0#
0(
0%
#308366
1#
1(
#308371
13
#308459
15
#308463
1-
1/
#308467
16
#308468
14
#308470
0(
0#
#308471
12
#308478
04
#308491
06
#308495
07
#308558
0/
#308566
1$
1#
#308567
0-
#308572
02
#308574
03
#308579
17
#308672
1(
#308682
13
#308684
14
#308759
05
#308763
1%
#308765
0'
0%
0$
0(
0#
#308766
1'
#308770
1$
1#
0'
#308772
03
#308774
04
#308776
11
#308778
07
#308781
13
#308783
01
17
#308786
14
#308959
15
#308963
1-
#308967
0-
#308970
03
#308973
04
#308980
14
#309072
1(
#309084
11
04
#309088
12
#309093
01
#309094
02
#309259
05
#309263
1%
#309265
0#
0$
0(
0%
#309266
1'
1#
1(
#309274
13
#309359
15
#309363
1-
#309367
16
#309368
14
#309370
0(
0#
#309371
12
#309378
04
#309391
06
#309395
07
#309458
0-
1/
1.
#309463
02
#309464
03
#309466
1$
1#
#309467
0.
0/
#309470
11
13
#309472
14
#309476
03
#309479
17
01
#309481
04
#309572
1(
#309582
13
#309584
14
#309659
05
#309663
1&
#309665
0#
0$
0(
0&
#309670
1#
1$
0'
#309672
03
#309674
04
#309676
11
#309678
07
#309681
13
#309683
01
17
#309686
14
#309859
15
#309863
1/
1.
#309867
0/
0.
#309869
03
#309872
04
#309878
12
13
#309880
14
#309882
02
03
#309972
1(
#309984
11
04
#309988
12
#309993
01
#309994
02
#310159
05
#310163
1&
1'
#310165
0$
0(
0&
0#
#310166
1(
1#
#310171
13
#310259
15
#310263
1.
1/
#310267
16
#310268
14
#310270
0#
0(
#310271
03
#310273
04
#310274
12
#310282
11
13
#310284
14
02
#310292
06
#310296
07
#310358
0/
#310366
1#
1$
#310367
0.
03
#310379
17
01
#310381
04
#310472
1(
#310482
13
#310484
14
#310559
05
#310563
1&
#310565
0#
0&
0$
0'
0(
#310566
1'
#310570
1#
1$
0'
#310572
03
#310574
04
#310576
11
#310578
07
#310581
13
#310583
01
17
#310586
14
#310759
15
#310763
1.
#310767
0.
#310770
03
#310773
04
#310778
12
#310780
14
#310782
02
#310872
1(
#310884
11
04
#310888
12
#310893
01
#310894
02
#311059
05
#311063
1&
#311065
0$
0#
0(
0&
#311066
1'
1#
1(
#311074
13
#311159
15
#311163
1.
#311167
16
#311168
14
#311170
0(
0#
#311171
03
#311173
04
#311174
12
#311182
11
#311184
14
02
#311192
06
#311196
07
#311258
0.
1/
#311266
1$
1#
#311267
13
0/
#311270
01
#311272
04
#311276
03
#311279
17
#311372
1(
#311382
13
#311384
14
#311459
05
#311465
0$
0#
0(
#311470
0'
1$
1#
#311472
03
#311474
04
#311476
11
#311478
07
#311481
13
#311483
01
17
#311486
14
#311659
15
#311663
1/
#311667
0/
#311669
03
#311672
04
#311678
13
#311680
14
#311682
03
#311772
1(
#311784
11
04
#311788
12
#311793
01
#311794
02
#311959
05
#311963
1'
#311965
0#
0(
0$
#311966
1#
1(
#311971
13
#312059
15
#312063
1/
#312067
16
#312068
14
#312070
0(
0#
#312079
04
#312107
06
#312112
07
#312158
1)
0/
1+
1*
#312166
1$
1#
#312167
0*
0+
0)
03
#312171
17
#312272
1(
#312282
13
#312284
14
#312359
05
#312363
1!
1"
#312365
0$
0(
0!
0"
0'
#312366
1'
#312367
0#
#312370
1$
0'
1#
#312374
04
#312376
11
#312383
01
#312386
14
#312559
15
#312563
1*
1)
1+
#312567
0*
0)
0+
#312571
03
#312573
04
#312580
14
#312672
1(
#312684
04
11
#312688
12
#312693
01
#312694
02
#312859
05
#312863
1"
1!
#312865
0(
0"
0!
0$
#312866
1'
1(
#312871
13
#312959
15
#312963
1+
1*
1)
#312967
16
#312968
14
#312970
0#
0(
#312977
06
#312979
04
#312980
03
#313058
1.
1,
0+
1-
1/
#313063
12
#313066
1$
1#
#313067
0-
0*
0/
0.
0,
0)
#313068
11
#313072
02
#313076
01
#313172
1(
#313182
13
#313184
14
#313259
05
#313263
1&
1%
1!
1"
#313265
0!
0"
0(
0$
0#
0&
0%
#313270
1$
1#
0'
#313272
03
#313274
04
#313276
11
#313278
07
#313281
13
#313283
01
17
#313286
14
#313459
15
#313463
1)
1*
1-
1.
1,
1/
#313467
0,
0/
0)
0*
0-
0.
#313469
03
#313472
04
#313478
12
13
#313480
14
#313482
02
03
#313572
1(
#313584
11
04
#313588
12
#313593
01
#313594
02
#313759
05
#313763
1&
1!
1'
1%
1"
#313765
0%
0"
0!
0&
0(
0#
0$
#313766
1(
1#
#313771
13
#313859
15
#313863
1)
1/
1.
1,
1-
1*
#313867
16
#313868
14
#313870
0#
0(
#313871
03
#313873
04
#313877
06
#313879
12
#313881
11
#313958
0/
#313966
1$
1#
#313967
0)
0*
0-
0,
0.
#313972
02
#313976
01
#314072
1(
#314082
13
#314084
14
#314159
05
#314163
1!
1"
1%
1&
#314165
0%
0&
0#
0$
0(
0!
0"
0'
#314166
1'
#314170
1#
1$
0'
#314172
03
#314174
04
#314176
11
#314178
07
#314181
13
#314183
01
17
#314186
14
#314359
15
#314363
1)
1,
1.
1-
1*
#314367
0-
0*
0)
0,
0.
#314370
03
#314374
04
#314378
12
#314380
14
#314382
02
#314472
1(
#314484
11
04
#314488
12
#314493
01
#314494
02
#314659
05
#314663
1%
1"
1&
1!
#314665
0&
0!
0#
0$
0(
0"
0%
#314666
1#
1(
1'
#314674
13
#314759
15
#314763
1-
1)
1*
1.
1,
#314767
16
#314768
14
#314770
0(
0#
#314771
03
#314773
04
#314777
06
#314779
12
#314781
11
#314858
0.
1/
#314864
13
#314866
1#
1$
#314867
0,
0/
0-
0*
0)
#314868
01
#314872
02
#314874
03
#314972
1(
#314982
13
#314984
14
#315059
05
#315063
1%
1"
1!
#315065
0"
0!
0(
0$
0#
0%
#315070
0'
1$
1#
#315072
03
#315074
04
#315076
11
#315078
07
#315081
13
#315083
01
17
#315086
14
#315259
15
#315263
1*
1)
1,
1-
1/
#315267
0-
0/
0*
0)
0,
#315272
04
#315274
03
#315278
13
#315280
14
#315282
03
#315372
1(
#315384
11
04
#315388
12
#315393
01
#315394
02
#315559
05
#315563
1"
1'
1!
1%
#315565
0!
0%
0(
0#
0$
0"
#315566
1(
1#
#315571
13
#315659
15
#315663
1*
1/
1-
1,
1)
#315667
16
#315668
14
#315670
0#
0(
#315671
12
#315677
06
#315678
04
#315758
0/
#315766
1$
1#
#315767
0)
0,
0-
0*
#315772
02
#315774
03
#315872
1(
#315882
13
#315884
14
#315959
05
#315963
1!
1"
1%
#315965
0"
0%
0!
0$
0#
0(
0'
#315966
1'
#315970
1$
1#
0'
#315972
03
#315974
04
#315976
11
#315978
07
#315981
13
#315983
01
17
#315986
14
#316159
15
#316163
1-
1,
1*
1)
#316167
0-
0,
0*
0)
#316170
03
#316173
04
#316180
14
#316272
1(
#316284
04
11
#316288
12
#316293
01
#316294
02
#316459
05
#316463
1"
1!
1%
#316465
0!
0%
0#
0$
0(
0"
#316466
1#
1(
1'
#316474
13
#316559
15
#316563
1,
1*
1)
1-
#316567
16
#316568
14
#316570
0#
0(
#316571
12
#316577
06
#316578
04
#316658
1.
1/
0-
#316663
02
#316664
03
#316666
1#
1$
#316667
0/
0)
0.
0*
0,
#316670
13
11
#316672
14
#316676
03
#316679
01
#316681
04
#316772
1(
#316782
13
#316784
14
#316859
05
#316863
1!
1&
1"
#316865
0&
0"
0#
0(
0!
0$
#316870
1#
1$
0'
#316872
03
#316874
04
#316876
11
#316878
07
#316881
13
#316883
01
17
#316886
14
#317059
15
#317063
1/
1*
1,
1.
1)
#317067
0.
0)
0/
0*
0,
#317069
03
#317072
04
#317078
12
13
#317080
14
#317082
02
03
#317172
1(
#317184
11
04
#317188
12
#317193
01
#317194
02
#317359
05
#317363
1!
1"
1'
1&
#317365
0$
0(
0!
0&
0"
0#
#317366
1(
1#
#317371
13
#317459
15
#317463
1/
1.
1)
1,
1*
#317467
16
#317468
14
#317470
0(
0#
#317471
03
#317473
04
#317474
12
#317477
06
#317482
13
11
#317484
14
02
#317558
0/
#317566
1$
1#
#317567
0,
0*
03
0)
0.
#317579
01
#317581
04
#317672
1(
#317682
13
#317684
14
#317759
05
#317763
1"
1!
1&
#317765
0!
0&
0$
0'
0(
0"
0#
#317766
1'
#317770
1$
1#
0'
#317772
03
#317774
04
#317776
11
#317778
07
#317781
13
#317783
01
17
#317786
14
#317959
15
#317963
1)
1,
1.
1*
#317967
0)
0,
0.
0*
#317970
03
#317973
04
#317978
12
#317980
14
#317982
02
#318072
1(
#318084
11
04
#318088
12
#318093
01
#318094
02
#318259
05
#318263
1"
1&
1!
#318265
0&
0!
0$
0#
0(
0"
#318266
1'
1#
1(
#318274
13
#318359
15
#318363
1)
1,
1.
1*
#318367
16
#318368
14
#318370
0(
0#
#318371
03
#318373
04
#318374
12
#318377
06
#318382
11
#318384
14
02
#318458
1/
0.
#318466
1$
1#
#318467
0/
13
0,
0*
0)
#318470
01
#318472
04
#318476
03
#318572
1(
#318582
13
#318584
14
#318659
05
#318663
1!
1"
#318665
0(
0!
0"
0#
0$
#318670
0'
1#
1$
#318672
03
#318674
04
#318676
11
#318678
07
#318681
13
#318683
01
17
#318686
14
#318859
15
#318863
1*
1)
1,
1/
#318867
0*
0)
0,
0/
#318869
03
#318872
04
#318878
13
#318880
14
#318882
03
#318972
1(
#318984
11
04
#318988
12
#318993
01
#318994
02
#319159
05
#319163
1'
1"
1!
#319165
0$
0#
0"
0!
0(
#319166
1#
1(
#319171
13
#319259
15
#319263
1*
1,
1)
1/
#319267
16
#319268
14
#319270
0(
0#
#319277
06
#319279
04
#319358
0/
#319366
1$
1#
#319367
0)
03
0*
0,
#319472
1(
#319482
13
#319484
14
#319559
05
#319563
1!
1"
#319565
0$
0(
0!
0"
0#
0'
#319566
1'
#319570
1$
1#
0'
#319572
03
#319574
04
#319576
11
#319578
07
#319581
13
#319583
01
17
#319586
14
#319759
15
#319763
1*
1,
1)
#319767
0*
0,
0)
#319771
03
#319773
04
#319780
14
#319872
1(
#319884
11
04
#319888
12
#319893
01
#319894
02
#320059
05
#320063
1"
1!
#320065
0#
0(
0"
0!
0$
#320066
1'
1#
1(
#320071
13
#320159
15
#320163
1,
1*
1)
#320167
16
#320168
14
#320170
0(
0#
#320177
06
#320179
04
#320180
03
#320258
1/
1-
1.
0,
#320263
12
#320266
1#
1$
#320267
0*
0/
0-
0.
0)
#320268
11
#320272
02
#320276
01
#320372
1(
#320382
13
#320384
14
#320459
05
#320463
1&
1!
1%
1"
#320465
0%
0"
0(
0#
0$
0&
0!
#320470
0'
1#
1$
#320472
03
#320474
04
#320476
11
#320478
07
#320481
13
#320483
01
17
#320486
14
#320659
15
#320663
1*
1)
1-
1.
1/
#320667
0.
0/
0*
0)
0-
#320669
03
#320672
04
#320678
12
13
#320680
14
#320682
02
03
#320772
1(
#320784
04
11
#320788
12
#320793
01
#320794
02
#320959
05
#320963
1"
1'
1!
1%
1&
#320965
0%
0&
0$
0#
0"
0!
0(
#320966
1#
1(
#320971
13
#321059
15
#321063
1*
1.
1/
1-
1)
#321067
16
#321068
14
#321070
0#
0(
#321071
03
#321073
04
#321077
06
#321079
12
#321081
11
#321158
0/
#321166
1$
1#
#321167
0)
0-
0*
0.
#321172
02
#321176
01
#321272
1(
#321282
13
#321284
14
#321359
05
#321363
1%
1&
1!
1"
#321365
0!
0"
0'
0$
0#
0%
0&
0(
#321366
1'
#321370
1$
1#
0'
#321372
03
#321374
04
#321376
11
#321378
07
#321381
13
#321383
01
17
#321386
14
#321559
15
#321563
1.
1*
1-
1)
#321567
0.
0*
0-
0)
#321570
03
#321574
04
#321578
12
#321580
14
#321582
02
#321672
1(
#321684
11
04
#321688
12
#321693
01
#321694
02
#321859
05
#321863
1!
1&
1"
1%
#321865
0"
0%
0$
0#
0(
0&
0!
#321866
1'
1#
1(
#321874
13
#321959
15
#321963
1-
1.
1*
1)
#321967
16
#321968
14
#321970
0(
0#
#321971
03
#321973
04
#321977
06
#321979
12
#321981
11
#322058
1/
0.
#322064
13
#322066
1#
1$
#322067
0)
0/
0*
0-
#322068
01
#322072
02
#322074
03
#322172
1(
#322182
13
#322184
14
#322259
05
#322263
1!
1"
1%
#322265
0"
0%
0!
0(
0$
0#
#322270
0'
1$
1#
#322272
03
#322274
04
#322276
11
#322278
07
#322281
13
#322283
01
17
#322286
14
#322459
15
#322463
1*
1-
1/
1)
#322467
0*
0-
0/
0)
#322472
04
#322474
03
#322478
13
#322480
14
#322482
03
#322572
1(
#322584
04
11
#322588
12
#322593
01
#322594
02
#322759
05
#322763
1!
1%
1"
1'
#322765
0"
0%
0(
0$
0#
0!
#322766
1(
1#
#322771
13
#322859
15
#322863
1/
1-
1)
1*
#322867
16
#322868
14
#322870
0#
0(
#322871
12
#322877
06
#322878
04
#322958
0/
#322966
1#
1$
#322967
0*
0)
0-
#322972
02
#322974
03
#323072
1(
#323082
13
#323084
14
#323159
05
#323163
1"
1%
1!
#323165
0%
0!
0(
0'
0#
0"
0$
#323166
1'
#323170
1#
1$
0'
#323172
03
#323174
04
#323176
11
#323178
07
#323181
13
#323183
01
17
#323186
14
#323359
15
#323363
1)
1-
1*
#323367
0)
0-
0*
#323370
03
#323373
04
#323380
14
#323472
1(
#323484
04
11
#323488
12
#323493
01
#323494
02
#323659
05
#323663
1%
1!
1"
#323665
0!
0"
0$
0#
0(
0%
#323666
1'
1#
1(
#323674
13
#323759
15
#323763
1*
1-
1)
#323767
16
#323768
14
#323770
0#
0(
#323771
12
#323777
06
#323778
04
#323858
1.
0-
1/
#323863
02
#323864
03
#323866
1#
1$
#323867
0/
0.
0)
0*
#323870
13
11
#323872
14
#323876
03
#323879
01
#323881
04
#323972
1(
#323982
13
#323984
14
#324059
05
#324063
1!
1&
1"
#324065
0&
0"
0(
0$
0!
0#
#324070
0'
1$
1#
#324072
03
#324074
04
#324076
11
#324078
07
#324081
13
#324083
01
17
#324086
14
#324259
15
#324263
1)
1.
1*
1/
#324267
0)
0.
0*
0/
#324269
03
#324272
04
#324278
13
12
#324280
14
#324282
03
02
#324372
1(
#324384
04
11
#324388
12
#324393
01
#324394
02
#324559
05
#324563
1'
1&
1!
1"
#324565
0!
0"
0$
0#
0&
0(
#324566
1#
1(
#324571
13
#324659
15
#324663
1.
1)
1*
1/
#324667
16
#324668
14
#324670
0(
0#
#324671
03
#324673
04
#324674
12
#324677
06
#324682
13
11
#324684
14
02
#324758
0/
#324766
1#
1$
#324767
0.
03
0)
0*
#324779
01
#324781
04
#324872
1(
#324882
13
#324884
14
#324959
05
#324963
1&
1!
1"
#324965
0!
0"
0&
0'
0$
0(
0#
#324966
1'
#324970
1$
1#
0'
#324972
03
#324974
04
#324976
11
#324978
07
#324981
13
#324983
01
17
#324986
14
#325159
15
#325163
1*
1.
1)
#325167
0*
0.
0)
#325170
03
#325173
04
#325178
12
#325180
14
#325182
02
#325272
1(
#325284
04
11
#325288
12
#325293
01
#325294
02
#325459
05
#325463
1!
1&
1"
#325465
0&
0"
0$
0#
0(
0!
#325466
1'
1#
1(
#325474
13
#325559
15
#325563
1)
1.
1*
#325567
16
#325568
14
#325570
0#
0(
#325571
03
#325573
04
#325574
12
#325577
06
#325582
11
#325584
14
02
#325658
0.
1/
#325666
1$
1#
#325667
0/
0*
13
0)
#325670
01
#325672
04
#325676
03
#325772
1(
#325782
13
#325784
14
#325859
05
#325863
1"
1!
#325865
0(
0$
0"
0!
0#
#325870
0'
1$
1#
#325872
03
#325874
04
#325876
11
#325878
07
#325881
13
#325883
01
17
#325886
14
#326059
15
#326063
1*
1)
1/
#326067
0*
0)
0/
#326069
03
#326072
04
#326078
13
#326080
14
#326082
03
#326172
1(
#326184
04
11
#326188
12
#326193
01
#326194
02
#326359
05
#326363
1'
1"
1!
#326365
0#
0!
0$
0(
0"
#326366
1#
1(
#326371
13
#326459
15
#326463
1/
1)
1*
#326467
16
#326468
14
#326470
0#
0(
#326477
06
#326479
04
#326558
0/
1+
#326566
1$
1#
#326567
0+
0*
0)
03
#326672
1(
#326682
13
#326684
14
#326759
05
#326763
1"
1!
#326765
0$
0"
0!
0(
0'
#326766
1'
#326767
0#
#326770
1$
0'
1#
#326774
04
#326776
11
#326783
01
#326786
14
#326959
15
#326963
1)
1*
1+
#326967
0)
0*
0+
#326971
03
#326973
04
#326980
14
#327072
1(
#327084
04
11
#327088
12
#327093
01
#327094
02
#327259
05
#327263
1!
1"
#327265
0$
0(
0!
0"
#327266
1'
1(
#327271
13
#327359
15
#327363
1+
1)
1*
#327367
16
#327368
14
#327370
0(
0#
#327377
06
#327379
04
#327380
03
#327458
1/
1,
1-
1.
0+
#327463
12
#327466
1$
1#
#327467
0,
0)
0/
0.
0*
0-
#327468
11
#327472
02
#327476
01
#327572
1(
#327582
13
#327584
14
#327659
05
#327663
1&
1"
1%
1!
#327665
0%
0!
0(
0$
0#
0&
0"
#327670
0'
1$
1#
#327672
03
#327674
04
#327676
11
#327678
07
#327681
13
#327683
01
17
#327686
14
#327859
15
#327863
1-
1,
1)
1*
1.
1/
#327867
0.
0/
0-
0,
0)
0*
#327869
03
#327872
04
#327878
12
13
#327880
14
#327882
02
03
#327972
1(
#327984
04
11
#327988
12
#327993
01
#327994
02
#328159
05
#328163
1"
1'
1%
1&
1!
#328165
0&
0!
0#
0"
0%
0(
0$
#328166
1#
1(
#328171
13
#328259
15
#328263
1-
1/
1.
1*
1)
1,
#328267
16
#328268
14
#328270
0(
0#
#328271
03
#328273
04
#328277
06
#328279
12
#328281
11
#328358
0/
#328366
1$
1#
#328367
0,
0)
0*
0.
0-
#328372
02
#328376
01
#328472
1(
#328482
13
#328484
14
#328559
05
#328563
1!
1&
1"
1%
#328565
0"
0%
0(
0$
0'
0#
0!
0&
#328566
1'
#328570
1$
1#
0'
#328572
03
#328574
04
#328576
11
#328578
07
#328581
13
#328583
01
17
#328586
14
#328759
15
#328763
1-
1.
1*
1)
1,
#328767
0)
0,
0-
0.
0*
#328770
03
#328774
04
#328778
12
#328780
14
#328782
02
#328872
1(
#328884
11
04
#328888
12
#328893
01
#328894
02
#329059
05
#329063
1"
1%
1!
1&
#329065
0!
0&
0(
0#
0$
0"
0%
#329066
1(
1#
1'
#329074
13
#329159
15
#329163
1)
1-
1,
1.
1*
#329167
16
#329168
14
#329170
0#
0(
#329171
03
#329173
04
#329177
06
#329179
12
#329181
11
#329258
0.
1/
#329264
13
#329266
1#
1$
#329267
0*
0/
0,
0-
0)
#329268
01
#329272
02
#329274
03
#329372
1(
#329382
13
#329384
14
#329459
05
#329463
1!
1%
1"
#329465
0%
0"
0(
0#
0$
0!
#329470
0'
1#
1$
#329472
03
#329474
04
#329476
11
#329478
07
#329481
13
#329483
01
17
#329486
14
#329659
15
#329663
1-
1)
1,
1/
1*
#329667
0/
0*
0-
0)
0,
#329672
04
#329674
03
#329678
13
#329680
14
#329682
03
#329772
1(
#329784
04
11
#329788
12
#329793
01
#329794
02
#329959
05
#329963
1%
1"
1'
1!
#329965
0#
0$
0%
0!
0"
0(
#329966
1#
1(
#329971
13
#330059
15
#330063
1-
1*
1/
1,
1)
#330067
16
#330068
14
#330070
0#
0(
#330071
12
#330077
06
#330078
04
#330158
0/
#330166
1$
1#
#330167
0)
0,
0-
0*
#330172
02
#330174
03
#330272
1(
#330282
13
#330284
14
#330359
05
#330363
1"
1%
1!
#330365
0%
0!
0$
0'
0(
0"
0#
#330366
1'
#330370
1$
1#
0'
#330372
03
#330374
04
#330376
11
#330378
07
#330381
13
#330383
01
17
#330386
14
#330559
15
#330563
1-
1*
1,
1)
#330567
0-
0*
0,
0)
#330570
03
#330573
04
#330580
14
#330672
1(
#330684
11
04
#330688
12
#330693
01
#330694
02
#330859
05
#330863
1!
1%
1"
#330865
0%
0"
0#
0$
0(
0!
#330866
1'
1#
1(
#330874
13
#330959
15
#330963
1,
1*
1)
1-
#330967
16
#330968
14
#330970
0#
0(
#330971
12
#330977
06
#330978
04
#331058
1.
1/
0-
#331063
02
#331064
03
#331066
1$
1#
#331067
0/
0)
0.
0,
0*
#331070
13
11
#331072
14
#331076
03
#331079
01
#331081
04
#331172
1(
#331182
13
#331184
14
#331259
05
#331263
1"
1!
1&
#331265
0!
0&
0#
0(
0"
0$
#331270
0'
1#
1$
#331272
03
#331274
04
#331276
11
#331278
07
#331281
13
#331283
01
17
#331286
14
#331459
15
#331463
1,
1/
1*
1.
1)
#331467
0.
0)
0,
0/
0*
#331469
03
#331472
04
#331478
12
13
#331480
14
#331482
02
03
#331572
1(
#331584
11
04
#331588
12
#331593
01
#331594
02
#331759
05
#331763
1&
1"
1!
1'
#331765
0!
0$
0(
0&
0"
0#
#331766
1(
1#
#331771
13
#331859
15
#331863
1,
1)
1.
1/
1*
#331867
16
#331868
14
#331870
0(
0#
#331871
03
#331873
04
#331874
12
#331877
06
#331882
13
11
#331884
14
02
#331958
0/
#331966
1#
1$
#331967
0*
0,
03
0.
0)
