400000.fsdb.vcd
$date
	Wed Aug 29 17:06:44 2001

$end
$version
	VERILOG-XL 3.10.p001
$end
$timescale
	1ns
$end
$scope module system $end
$scope module i_cpu $end
$scope module i_ALUB $end
$scope module i_alu $end
$var wire 1 ! a [7] $end
$var wire 1 " a [6] $end
$var wire 1 # a [5] $end
$var wire 1 $ a [4] $end
$var wire 1 % a [3] $end
$var wire 1 & a [2] $end
$var wire 1 ' a [1] $end
$var wire 1 ( a [0] $end
$var wire 1 ) b [7] $end
$var wire 1 * b [6] $end
$var wire 1 + b [5] $end
$var wire 1 , b [4] $end
$var wire 1 - b [3] $end
$var wire 1 . b [2] $end
$var wire 1 / b [1] $end
$var wire 1 0 b [0] $end
$var wire 1 1 four [3] $end
$var wire 1 2 four [2] $end
$var wire 1 3 four [1] $end
$var wire 1 4 four [0] $end
$var wire 1 5 cin $end
$var wire 1 6 carry $end
$var wire 1 7 big $end
$upscope $end
$upscope $end
$upscope $end
$upscope $end
$enddefinitions $end
#400000
$dumpvars
0!
17
0"
1$
1(
00
01
0)
02
03
0%
0*
04
15
0+
06
1#
0&
0,
0-
0'
0.
0/
$end
#400159
05
#400163
1"
1!
1%
1&
1'
#400165
0&
0$
0(
0"
0!
0%
0#
#400166
1(
1#
#400171
13
#400259
15
#400263
1.
1/
1)
1*
1-
1,
#400267
16
#400268
14
#400270
0(
0#
#400271
03
#400273
04
#400277
06
#400279
12
#400281
11
#400358
0/
#400366
1$
1#
#400367
0,
0-
0*
0)
0.
#400372
02
#400376
01
#400472
1(
#400482
13
#400484
14
#400559
05
#400563
1%
1&
1!
1"
#400565
0!
0"
0'
0(
0$
0&
0#
0%
#400566
1'
#400570
1$
1#
0'
#400572
03
#400574
04
#400576
11
#400578
07
#400581
13
#400583
01
17
#400586
14
#400759
15
#400763
1.
1)
1*
1-
1,
#400767
0-
0,
0.
0)
0*
#400770
03
#400774
04
#400778
12
#400780
14
#400782
02
#400872
1(
#400884
11
04
#400888
12
#400893
01
#400894
02
#400931
05
#400933
0(
0$
0#
#400944
11
#400946
07
#400951
01
#400954
14
#400959
04
#401159
15
#401174
14
#401272
1(
#401284
11
04
#401288
12
#401293
01
#401294
02
#401359
05
#401365
0(
#401374
14
#401376
11
#401383
01
#401391
04
#401459
15
#401465
1(
#401477
11
#401481
12
#401486
01
#401487
02
#401572
1'
0(
#401759
05
#401766
0'
#401767
1(
1$
1&
1"
#401780
17
#401781
11
13
#401858
1.
1,
10
1*
#401859
15
#401866
0"
0&
1'
0$
#401867
00
0*
0.
0,
#401869
14
12
#401871
07
#401874
17
#401876
01
#401877
02
#401883
07
#401972
0'
1&
0(
#401982
11
#401983
12
#401984
03
#401985
01
#401986
04
#402059
05
#402063
1$
1(
1"
#402070
0(
0"
0&
1#
02
0$
#402075
13
11
#402076
17
#402079
03
#402080
14
#402083
13
#402088
01
#402096
04
#402165
1(
1&
1"
1$
#402166
0#
#402172
03
#402179
11
13
#402259
15
#402264
1,
10
1.
1*
#402266
0.
0*
0"
0$
0,
00
0(
#402278
03
01
#402280
07
12
#402359
05
#402363
1(
1"
1$
#402370
02
#402375
11
13
#402376
17
#402459
15
#402463
0"
0$
0(
0&
#402464
10
1.
1*
1,
#402465
1&
1(
#402466
0,
0*
00
0.
#402480
07
#402572
0(
1'
#402581
03
#402587
14
#402659
05
#402663
1(
1"
1$
#402665
0'
#402668
13
#402670
12
#402674
04
02
#402676
17
#402759
15
#402764
1.
10
1,
1*
#402765
1'
#402766
0*
0,
0$
0"
0.
00
0(
#402774
03
#402775
01
#402778
11
#402780
14
07
#402872
1(
#402883
04
#402884
01
#403059
05
#403063
1$
1"
#403065
0&
0"
0'
0(
0$
#403066
1#
#403075
14
#403076
11
#403078
13
#403079
17
#403083
01
#403091
04
#403159
15
#403163
10
1*
1,
1.
#403166
1%
0#
#403167
0,
00
0*
0.
#403170
03
#403174
12
#403178
02
#403180
07
#403272
1(
#403283
12
#403363
1&
1$
1"
#403365
0%
#403370
02
#403374
13
11
#403376
17
#403459
0(
1'
#403463
0"
0$
0'
0&
#403464
1,
1/
1#
1*
1.
#403465
1(
1%
#403466
0.
0*
0,
0#
0/
#403468
03
#403470
12
#403474
01
#403480
07
#403572
1'
0(
#403579
13
#403659
05
#403661
1#
0%
0'
#403663
1"
1&
1'
1$
#403664
0#
1+
#403665
0'
0"
0&
0$
#403666
02
1#
#403668
03
#403670
1(
0#
#403672
13
#403674
17
#403679
03
07
#403682
17
#403683
14
#403686
11
12
#403691
13
#403694
04
#403761
0+
#403765
1'
1$
1&
1"
#403766
0(
#403771
03
02
01
#403774
07
#403778
13
11
17
#403859
15
#403864
1.
1/
1,
1*
#403865
1%
#403866
0*
0&
0"
0$
0.
0,
0/
#403868
03
#403870
14
12
#403872
13
#403874
01
#403876
04
#403880
07
#403959
05
#403963
1"
1&
1$
#403965
0%
#403969
03
#403970
02
#403975
11
13
#403976
17
#404059
15
#404063
0$
0&
0"
0'
#404064
1/
1*
1,
1.
#404065
1%
1(
1'
#404066
0.
0,
0*
0/
#404068
03
#404070
12
14
#404072
13
#404074
01
#404080
07
#404172
0'
0(
1&
#404178
03
#404359
05
#404363
1"
1'
1$
#404365
0'
0$
0%
0&
0"
#404366
1#
#404370
02
#404372
04
#404378
13
#404379
17
#404459
15
#404463
1*
1/
1,
1.
#404467
16
#404469
03
#404470
1&
1(
1"
0#
1$
#404475
11
#404477
14
#404480
06
#404481
04
#404482
13
01
#404489
07
#404558
0.
0,
0/
0*
10
#404566
1%
0"
0$
#404567
00
#404568
11
#404570
17
#404571
12
#404573
14
#404575
03
#404580
07
#404672
1'
0(
#404679
04
#404859
05
#404863
1(
#404865
0%
0&
0'
#404866
1#
#404870
02
#404874
01
#404875
14
#404879
17
#404884
13
#404887
04
#404970
1'
1$
0#
1"
0(
1&
#404976
03
#404983
11
13
#405059
15
#405063
1*
1/
1,
1.
#405066
1(
0$
1%
0"
#405067
0.
0,
0/
0*
#405068
03
#405070
14
#405071
12
#405072
13
#405075
01
03
#405077
04
02
#405085
07
#405172
0&
0%
0'
0(
1$
#405179
12
13
#405183
11
#405184
14
#405185
02
03
#405190
01
#405192
04
#405197
14
#405359
05
#405363
1"
1&
1'
#405365
0$
0"
0&
0'
#405366
1#
#405372
04
#405378
13
#405379
17
#405381
14
#405387
04
#405463
1*
1/
1,
1.
#405469
03
#405470
1"
1(
1$
1&
0#
#405475
11
#405479
13
#405482
01
03
#405558
1-
1+
0,
10
0*
0.
1)
#405559
15
#405566
0"
0&
#405567
00
0-
0+
0)
0/
#405574
11
#405577
14
#405579
01
#405582
13
#405584
07
#405588
03
#405590
04
#405672
1'
0(
#405759
05
#405763
1#
1%
1!
1(
#405765
0'
0%
0!
0$
#405766
1&
1"
1$
#405767
0#
#405770
0$
1#
0"
1'
0&
0(
#405776
13
17
#405777
11
#405779
12
03
14
#405781
01
#405783
02
04
#405865
1!
1(
1%
#405870
12
#405872
13
#405873
14
#405959
15
#405964
1)
1-
10
1/
1+
#405965
1$
#405966
0+
0/
0%
0(
00
0)
0#
0!
0-
#405973
03
#405974
04
02
#405985
07
#406059
05
#406063
1!
1%
1(
1#
#406065
0$
#406068
12
#406070
13
#406071
14
#406076
17
#406159
15
#406163
0!
0%
0(
#406164
1/
1-
1+
10
1)
#406165
0#
1$
1(
#406166
0)
00
0+
0/
0-
#406174
02
#406183
07
#406272
0'
1&
0(
#406282
11
#406283
12
#406284
03
#406285
01
#406286
04
#406359
05
#406363
1%
1#
1(
1'
1!
#406365
0&
0$
#406370
14
#406371
13
#406459
0!
0'
0#
0%
15
0(
#406464
1#
1'
1!
1(
1%
#406465
1$
1&
#406466
0%
0(
0#
0'
0!
#406467
02
04
#406470
03
#406480
12
#406572
1(
#406584
13
11
#406586
02
#406590
17
#406759
05
#406766
0$
0&
0(
#406767
1'
#406770
12
#406774
07
#406777
03
01
#406779
02
#406858
1/
#406859
15
#406866
1$
1&
#406867
0/
#406868
13
#406876
11
03
#406878
14
#406886
17
#406972
1(
#406983
04
#406984
01
#407059
05
#407065
0&
0(
0$
#407070
1(
1#
#407079
07
#407080
13
#407083
17
#407166
0(
0#
#407173
03
#407179
07
#407259
15
#407264
1/
#407265
1(
1&
1$
#407266
0/
#407285
17
#407359
05
#407365
0$
0&
0(
#407379
07
#407459
15
#407464
1/
#407465
0'
1%
1$
#407466
0/
#407470
12
#407474
02
#407482
17
#407572
1(
#407583
12
#407759
05
#407763
1'
#407765
0%
0$
0(
#407766
1%
#407770
13
#407779
07
#407859
15
#407863
1/
1-
#407866
1$
#407867
0/
0-
#407882
17
#407972
1(
#407980
14
#408059
05
#408065
0$
0(
#408070
0%
0'
1#
1$
#408073
04
02
#408077
03
11
#408079
07
#408081
13
#408083
01
17
#408086
14
#408259
15
#408263
1/
1-
#408267
0/
0-
#408272
04
#408274
03
#408278
13
#408280
14
#408282
03
#408372
1(
#408384
11
04
#408388
12
#408393
01
#408394
02
#408559
05
#408563
1%
1'
#408565
0#
0(
0%
0$
#408566
1#
1(
#408571
13
#408659
15
#408663
1-
1/
#408667
16
#408668
14
#408670
0#
0(
#408671
12
#408678
04
#408691
06
#408695
07
#408758
0/
#408766
1$
1#
#408767
0-
#408772
02
#408774
03
#408779
17
#408872
1(
#408882
13
#408884
14
#408959
05
#408963
1%
#408965
0(
0#
0$
0%
0'
#408966
1'
#408970
1#
1$
0'
#408972
03
#408974
04
#408976
11
#408978
07
#408981
13
#408983
01
17
#408986
14
#409159
15
#409163
1-
#409167
0-
#409170
03
#409173
04
#409180
14
#409272
1(
#409284
11
04
#409288
12
#409293
01
#409294
02
#409459
05
#409463
1%
#409465
0$
0(
0#
0%
#409466
1'
1(
1#
#409474
13
#409559
15
#409563
1-
#409567
16
#409568
14
#409570
0#
0(
#409571
12
#409578
04
#409591
06
#409595
07
#409658
1/
0-
1.
#409663
02
#409664
03
#409666
1$
1#
#409667
0/
0.
#409670
11
13
#409672
14
#409676
03
#409679
01
17
#409681
04
#409772
1(
#409782
13
#409784
14
#409859
05
#409863
1&
#409865
0#
0$
0(
0&
#409870
1$
0'
1#
#409872
03
#409874
04
#409876
11
#409878
07
#409881
13
#409883
01
17
#409886
14
#410059
15
#410063
1.
1/
#410067
0.
0/
#410069
03
#410072
04
#410078
13
12
#410080
14
#410082
03
02
#410172
1(
#410184
04
11
#410188
12
#410193
01
#410194
02
#410359
05
#410363
1&
1'
#410365
0#
0$
0(
0&
#410366
1#
1(
#410371
13
#410459
15
#410463
1/
1.
#410467
16
#410468
14
#410470
0#
0(
#410471
03
#410473
04
#410474
12
#410482
13
11
#410484
14
02
#410492
06
#410496
07
#410558
0/
#410566
1$
1#
#410567
03
0.
#410579
17
01
#410581
04
#410672
1(
#410682
13
#410684
14
#410759
05
#410763
1&
#410765
0(
0$
0'
0&
0#
#410766
1'
#410770
1$
1#
0'
#410772
03
#410774
04
#410776
11
#410778
07
#410781
13
#410783
01
17
#410786
14
#410959
15
#410963
1.
#410967
0.
#410970
03
#410973
04
#410978
12
#410980
14
#410982
02
#411072
1(
#411084
11
04
#411088
12
#411093
01
#411094
02
#411259
05
#411263
1&
#411265
0$
0(
0&
0#
#411266
1'
1(
1#
#411274
13
#411359
15
#411363
1.
#411367
16
#411368
14
#411370
0#
0(
#411371
03
#411373
04
#411374
12
#411382
11
#411384
14
02
#411392
06
#411396
07
#411458
0.
1/
#411466
1#
1$
#411467
13
0/
#411470
01
#411472
04
#411476
03
#411479
17
#411572
1(
#411582
13
#411584
14
#411659
05
#411665
0#
0$
0(
#411670
0'
1#
1$
#411672
03
#411674
04
#411676
11
#411678
07
#411681
13
#411683
01
17
#411686
14
#411859
15
#411863
1/
#411867
0/
#411869
03
#411872
04
#411878
13
#411880
14
#411882
03
#411972
1(
#411984
11
04
#411988
12
#411993
01
#411994
02
#412159
05
#412163
1'
#412165
0$
0(
0#
#412166
1(
1#
#412171
13
#412259
15
#412263
1/
#412267
16
#412268
14
#412270
0#
0(
#412279
04
#412307
06
#412312
07
#412358
0/
1)
1+
1*
#412366
1#
1$
#412367
0)
0+
0*
03
#412371
17
#412472
1(
#412482
13
#412484
14
#412559
05
#412563
1!
1"
#412565
0$
0!
0"
0(
0'
#412566
1'
#412567
0#
#412570
1$
0'
1#
#412574
04
#412576
11
#412583
01
#412586
14
#412759
15
#412763
1)
1*
1+
#412767
0)
0*
0+
#412771
03
#412773
04
#412780
14
#412872
1(
#412884
04
11
#412888
12
#412893
01
#412894
02
#413059
05
#413063
1!
1"
#413065
0$
0(
0!
0"
#413066
1'
1(
#413071
13
#413159
15
#413163
1)
1+
1*
#413167
16
#413168
14
#413170
0#
0(
#413177
06
#413179
04
#413180
03
#413258
1-
1.
1,
0+
1/
#413263
12
#413266
1$
1#
#413267
0/
0-
0)
0,
0*
0.
#413268
11
#413272
02
#413276
01
#413372
1(
#413382
13
#413384
14
#413459
05
#413463
1!
1%
1&
1"
#413465
0&
0"
0%
0(
0!
0#
0$
#413470
1#
1$
0'
#413472
03
#413474
04
#413476
11
#413478
07
#413481
13
#413483
01
17
#413486
14
#413659
15
#413663
1.
1*
1,
1)
1/
1-
#413667
0/
0-
0.
0*
0,
0)
#413669
03
#413672
04
#413678
12
13
#413680
14
#413682
02
03
#413772
1(
#413784
11
04
#413788
12
#413793
01
#413794
02
#413959
05
#413963
1"
1'
1!
1&
1%
#413965
0&
0%
0"
0$
0(
0!
0#
#413966
1(
1#
#413971
13
#414059
15
#414063
1/
1.
1-
1)
1,
1*
#414067
16
#414068
14
#414070
0(
0#
#414071
03
#414073
04
#414077
06
#414079
12
#414081
11
#414158
0/
#414166
1#
1$
#414167
0,
0*
0)
0-
0.
#414172
02
#414176
01
#414272
1(
#414282
13
#414284
14
#414359
05
#414363
1&
1%
1"
1!
#414365
0"
0!
0%
0'
0#
0&
0(
0$
#414366
1'
#414370
1#
1$
0'
#414372
03
#414374
04
#414376
11
#414378
07
#414381
13
#414383
01
17
#414386
14
#414559
15
#414563
1.
1-
1)
1*
1,
#414567
0*
0,
0.
0-
0)
#414570
03
#414574
04
#414578
12
#414580
14
#414582
02
#414672
1(
#414684
11
04
#414688
12
#414693
01
#414694
02
#414859
05
#414863
1!
1"
1&
1%
#414865
0&
0%
0(
0#
0$
0!
0"
#414866
1'
1#
1(
#414874
13
#414959
15
#414963
1.
1,
1*
1)
1-
#414967
16
#414968
14
#414970
0(
0#
#414971
03
#414973
04
#414977
06
#414979
12
#414981
11
#415058
0.
1/
#415064
13
#415066
1$
1#
#415067
0-
0/
0)
0,
0*
#415068
01
#415072
02
#415074
03
#415172
1(
#415182
13
#415184
14
#415259
05
#415263
1%
1"
1!
#415265
0"
0!
0(
0#
0$
0%
#415270
0'
1#
1$
#415272
03
#415274
04
#415276
11
#415278
07
#415281
13
#415283
01
17
#415286
14
#415459
15
#415463
1,
1*
1)
1/
1-
#415467
0/
0-
0,
0*
0)
#415472
04
#415474
03
#415478
13
#415480
14
#415482
03
#415572
1(
#415584
04
11
#415588
12
#415593
01
#415594
02
#415759
05
#415763
1!
1%
1"
1'
#415765
0"
0%
0(
0#
0$
0!
#415766
1(
1#
#415771
13
#415859
15
#415863
1,
1-
1)
1/
1*
#415867
16
#415868
14
#415870
0#
0(
#415871
12
#415877
06
#415878
04
#415958
0/
#415966
1#
1$
#415967
0*
0,
0)
0-
#415972
02
#415974
03
#416072
1(
#416082
13
#416084
14
#416159
05
#416163
1%
1"
1!
#416165
0"
0!
0(
0'
0#
0%
0$
#416166
1'
#416170
1#
1$
0'
#416172
03
#416174
04
#416176
11
#416178
07
#416181
13
#416183
01
17
#416186
14
#416359
15
#416363
1)
1-
1,
1*
#416367
0)
0-
0,
0*
#416370
03
#416373
04
#416380
14
#416472
1(
#416484
04
11
#416488
12
#416493
01
#416494
02
#416659
05
#416663
1"
1!
1%
#416665
0!
0%
0$
0#
0(
0"
#416666
1'
1#
1(
#416674
13
#416759
15
#416763
1-
1,
1*
1)
#416767
16
#416768
14
#416770
0(
0#
#416771
12
#416777
06
#416778
04
#416858
1.
0-
1/
#416863
02
#416864
03
#416866
1#
1$
#416867
0*
0)
0.
0/
0,
#416870
11
13
#416872
14
#416876
03
#416879
01
#416881
04
#416972
1(
#416982
13
#416984
14
#417059
05
#417063
1!
1&
1"
#417065
0&
0"
0!
0$
0(
0#
#417070
0'
1$
1#
#417072
03
#417074
04
#417076
11
#417078
07
#417081
13
#417083
01
17
#417086
14
#417259
15
#417263
1*
1.
1,
1/
1)
#417267
0/
0)
0*
0.
0,
#417269
03
#417272
04
#417278
12
13
#417280
14
#417282
02
03
#417372
1(
#417384
04
11
#417388
12
#417393
01
#417394
02
#417559
05
#417563
1"
1'
1!
1&
#417565
0(
0&
0$
0#
0"
0!
#417566
1(
1#
#417571
13
#417659
15
#417663
1*
1/
1)
1,
1.
#417667
16
#417668
14
#417670
0#
0(
#417671
03
#417673
04
#417674
12
#417677
06
#417682
13
11
#417684
14
02
#417758
0/
#417766
1$
1#
#417767
0.
03
0,
0)
0*
#417779
01
#417781
04
#417872
1(
#417882
13
#417884
14
#417959
05
#417963
1!
1&
1"
#417965
0&
0"
0#
0(
0!
0'
0$
#417966
1'
#417970
1#
1$
0'
#417972
03
#417974
04
#417976
11
#417978
07
#417981
13
#417983
01
17
#417986
14
#418159
15
#418163
1)
1*
1.
1,
#418167
0)
0*
0.
0,
#418170
03
#418173
04
#418178
12
#418180
14
#418182
02
#418272
1(
#418284
11
04
#418288
12
#418293
01
#418294
02
#418459
05
#418463
1"
1!
1&
#418465
0!
0&
0$
0#
0(
0"
#418466
1#
1(
1'
#418474
13
#418559
15
#418563
1)
1.
1*
1,
#418567
16
#418568
14
#418570
0(
0#
#418571
03
#418573
04
#418574
12
#418577
06
#418582
11
#418584
14
02
#418658
1/
0.
#418666
1#
1$
#418667
0/
13
0)
0,
0*
#418670
01
#418672
04
#418676
03
#418772
1(
#418782
13
#418784
14
#418859
05
#418863
1!
1"
#418865
0#
0(
0!
0"
0$
#418870
1#
1$
0'
#418872
03
#418874
04
#418876
11
#418878
07
#418881
13
#418883
01
17
#418886
14
#419059
15
#419063
1,
1*
1)
1/
#419067
0,
0*
0)
0/
#419069
03
#419072
04
#419078
13
#419080
14
#419082
03
#419172
1(
#419184
11
04
#419188
12
#419193
01
#419194
02
#419359
05
#419363
1'
1"
1!
#419365
0$
0(
0"
0!
0#
#419366
1(
1#
#419371
13
#419459
15
#419463
1*
1)
1,
1/
#419467
16
#419468
14
#419470
0(
0#
#419477
06
#419479
04
#419558
0/
#419566
1$
1#
#419567
0,
0*
03
0)
#419672
1(
#419682
13
#419684
14
#419759
05
#419763
1!
1"
#419765
0#
0"
0$
0(
0!
0'
#419766
1'
#419770
1#
1$
0'
#419772
03
#419774
04
#419776
11
#419778
07
#419781
13
#419783
01
17
#419786
14
#419959
15
#419963
1,
1)
1*
#419967
0,
0)
0*
#419971
03
#419973
04
#419980
14
#420072
1(
#420084
11
04
#420088
12
#420093
01
#420094
02
#420259
05
#420263
1!
1"
#420265
0!
0"
0$
0#
0(
#420266
1#
1(
1'
#420271
13
#420359
15
#420363
1,
1*
1)
#420367
16
#420368
14
#420370
0#
0(
#420377
06
#420379
04
#420380
03
#420458
1/
0,
1-
1.
#420463
12
#420466
1#
1$
#420467
0.
0*
0/
0)
0-
#420468
11
#420472
02
#420476
01
#420572
1(
#420582
13
#420584
14
#420659
05
#420663
1!
1&
1%
1"
#420665
0%
0"
0&
0(
0#
0$
0!
#420670
1#
1$
0'
#420672
03
#420674
04
#420676
11
#420678
07
#420681
13
#420683
01
17
#420686
14
#420859
15
#420863
1*
1.
1-
1)
1/
#420867
0)
0/
0*
0.
0-
#420869
03
#420872
04
#420878
12
13
#420880
14
#420882
02
03
#420972
1(
#420984
11
04
#420988
12
#420993
01
#420994
02
#421159
05
#421163
1"
1%
1'
1!
1&
#421165
0!
0&
0(
0%
0$
0"
0#
#421166
1(
1#
#421171
13
#421259
15
#421263
1*
1/
1-
1)
1.
#421267
16
#421268
14
#421270
0#
0(
#421271
03
#421273
04
#421277
06
#421279
12
#421281
11
#421358
0/
#421366
1$
1#
#421367
0.
0)
0-
0*
#421372
02
#421376
01
#421472
1(
#421482
13
#421484
14
#421559
05
#421563
1"
1!
1%
1&
#421565
0%
0&
0(
0'
0$
0#
0"
0!
#421566
1'
#421570
1$
1#
0'
#421572
03
#421574
04
#421576
11
#421578
07
#421581
13
#421583
01
17
#421586
14
#421759
15
#421763
1*
1-
1)
1.
#421767
0*
0-
0)
0.
#421770
03
#421774
04
#421778
12
#421780
14
#421782
02
#421872
1(
#421884
11
04
#421888
12
#421893
01
#421894
02
#422059
05
#422063
1%
1&
1"
1!
#422065
0"
0!
0&
0(
0$
0#
0%
#422066
1'
1(
1#
#422074
13
#422159
15
#422163
1)
1-
1*
1.
#422167
16
#422168
14
#422170
0#
0(
#422171
03
#422173
04
#422177
06
#422179
12
#422181
11
#422258
0.
1/
#422264
13
#422266
1#
1$
#422267
0/
0)
0*
0-
#422268
01
#422272
02
#422274
03
#422372
1(
#422382
13
#422384
14
#422459
05
#422463
1"
1!
1%
#422465
0!
0%
0(
0#
0"
0$
#422470
0'
1#
1$
#422472
03
#422474
04
#422476
11
#422478
07
#422481
13
#422483
01
17
#422486
14
#422659
15
#422663
1*
1-
1)
1/
#422667
0*
0-
0)
0/
#422672
04
#422674
03
#422678
13
#422680
14
#422682
03
#422772
1(
#422784
11
04
#422788
12
#422793
01
#422794
02
#422959
05
#422963
1'
1"
1!
1%
#422965
0(
0%
0#
0$
0"
0!
#422966
1(
1#
#422971
13
#423059
15
#423063
1*
1-
1)
1/
#423067
16
#423068
14
#423070
0#
0(
#423071
12
#423077
06
#423078
04
#423158
0/
#423166
1$
1#
#423167
0*
0-
0)
#423172
02
#423174
03
#423272
1(
#423282
13
#423284
14
#423359
05
#423363
1%
1!
1"
#423365
0!
0"
0%
0'
0$
0(
0#
#423366
1'
#423370
1$
1#
0'
#423372
03
#423374
04
#423376
11
#423378
07
#423381
13
#423383
01
17
#423386
14
#423559
15
#423563
1)
1-
1*
#423567
0)
0-
0*
#423570
03
#423573
04
#423580
14
#423672
1(
#423684
11
04
#423688
12
#423693
01
#423694
02
#423859
05
#423863
1!
1%
1"
#423865
0%
0"
0#
0$
0(
0!
#423866
1'
1#
1(
#423874
13
#423959
15
#423963
1*
1-
1)
#423967
16
#423968
14
#423970
0#
0(
#423971
12
#423977
06
#423978
04
#424058
0-
1/
1.
#424063
02
#424064
03
#424066
1#
1$
#424067
0/
0)
0.
0*
#424070
13
11
#424072
14
#424076
03
#424079
01
#424081
04
#424172
1(
#424182
13
#424184
14
#424259
05
#424263
1&
1"
1!
#424265
0"
0!
0#
0(
0&
0$
#424270
0'
1#
1$
#424272
03
#424274
04
#424276
11
#424278
07
#424281
13
#424283
01
17
#424286
14
#424459
15
#424463
1/
1.
1*
1)
#424467
0/
0.
0*
0)
#424469
03
#424472
04
#424478
12
13
#424480
14
#424482
02
03
#424572
1(
#424584
11
04
#424588
12
#424593
01
#424594
02
#424759
05
#424763
1'
1"
1&
1!
#424765
0&
0!
0#
0$
0(
0"
#424766
1#
1(
#424771
13
#424859
15
#424863
1*
1.
1/
1)
#424867
16
#424868
14
#424870
0#
0(
#424871
03
#424873
04
#424874
12
#424877
06
#424882
13
11
#424884
14
02
#424958
0/
#424966
1$
1#
#424967
0)
03
0*
0.
#424979
01
#424981
04
#425072
1(
#425082
13
#425084
14
#425159
05
#425163
1"
1&
1!
#425165
0&
0!
0"
0'
0#
0(
0$
#425166
1'
#425170
1#
1$
0'
#425172
03
#425174
04
#425176
11
#425178
07
#425181
13
#425183
01
17
#425186
14
#425359
15
#425363
1*
1.
1)
#425367
0*
0.
0)
#425370
03
#425373
04
#425378
12
#425380
14
#425382
02
#425472
1(
#425484
04
11
#425488
12
#425493
01
#425494
02
#425659
05
#425663
1&
1"
1!
#425665
0"
0!
0$
0#
0(
0&
#425666
1'
1#
1(
#425674
13
#425759
15
#425763
1)
1.
1*
#425767
16
#425768
14
#425770
0#
0(
#425771
03
#425773
04
#425774
12
#425777
06
#425782
11
#425784
14
02
#425858
1/
0.
#425866
1$
1#
#425867
0/
13
0)
0*
#425870
01
#425872
04
#425876
03
#425972
1(
#425982
13
#425984
14
#426059
05
#426063
1"
1!
#426065
0(
0"
0!
0$
0#
#426070
0'
1$
1#
#426072
03
#426074
04
#426076
11
#426078
07
#426081
13
#426083
01
17
#426086
14
#426259
15
#426263
1)
1*
1/
#426267
0)
0*
0/
#426269
03
#426272
04
#426278
13
#426280
14
#426282
03
#426372
1(
#426384
11
04
#426388
12
#426393
01
#426394
02
#426559
05
#426563
1'
1"
1!
#426565
0#
0$
0"
0!
0(
#426566
1#
1(
#426571
13
#426659
15
#426663
1)
1/
1*
#426667
16
#426668
14
#426670
0(
0#
#426677
06
#426679
04
#426758
0/
1+
#426766
1$
1#
#426767
0)
03
0+
0*
#426872
1(
#426882
13
#426884
14
#426959
05
#426963
1!
1"
#426965
0$
0(
0!
0"
0'
#426966
1'
#426967
0#
#426970
1$
0'
1#
#426974
04
#426976
11
#426983
01
#426986
14
#427159
15
#427163
1*
1+
1)
#427167
0*
0+
0)
#427171
03
#427173
04
#427180
14
#427272
1(
#427284
04
11
#427288
12
#427293
01
#427294
02
#427459
05
#427463
1"
1!
#427465
0$
0(
0"
0!
#427466
1'
1(
#427471
13
#427559
15
#427563
1)
1+
1*
#427567
16
#427568
14
#427570
0(
0#
#427577
06
#427579
04
#427580
03
#427658
1/
1.
0+
1,
1-
#427663
12
#427666
1$
1#
#427667
0,
0-
0/
0*
0)
0.
#427668
11
#427672
02
#427676
01
#427772
1(
#427782
13
#427784
14
#427859
05
#427863
1%
1&
1!
1"
#427865
0!
0"
0(
0$
0#
0%
0&
#427870
0'
1$
1#
#427872
03
#427874
04
#427876
11
#427878
07
#427881
13
#427883
01
17
#427886
14
#428059
15
#428063
1,
1)
1.
1-
1*
1/
#428067
0*
0/
0,
0)
0.
0-
#428069
03
#428072
04
#428078
12
13
#428080
14
#428082
02
03
#428172
1(
#428184
11
04
#428188
12
#428193
01
#428194
02
#428359
05
#428363
1!
1'
1&
1"
1%
#428365
0"
0%
0#
0(
0!
0&
0$
#428366
1#
1(
#428371
13
#428459
15
#428463
1,
1-
1/
1*
1.
1)
#428467
16
#428468
14
#428470
0#
0(
#428471
03
#428473
04
#428477
06
#428479
12
#428481
11
#428558
0/
#428566
1$
1#
#428567
0)
0.
0-
0*
0,
#428572
02
#428576
01
#428672
1(
#428682
13
#428684
14
#428759
05
#428763
1"
1&
1%
1!
#428765
0%
0!
0#
0'
0$
0(
0"
0&
#428766
1'
#428770
1$
1#
0'
#428772
03
#428774
04
#428776
11
#428778
07
#428781
13
#428783
01
17
#428786
14
#428959
15
#428963
1)
1,
1*
1-
1.
#428967
0-
0.
0)
0,
0*
#428970
03
#428974
04
#428978
12
#428980
14
#428982
02
#429072
1(
#429084
11
04
#429088
12
#429093
01
#429094
02
#429259
05
#429263
1!
1%
1&
1"
#429265
0&
0"
0(
0$
0#
0!
0%
#429266
1'
1(
1#
#429274
13
#429359
15
#429363
1)
1*
1.
1-
1,
#429367
16
#429368
14
#429370
0#
0(
#429371
03
#429373
04
#429377
06
#429379
12
#429381
11
#429458
0.
1/
#429464
13
#429466
1#
1$
#429467
0,
0/
0)
0-
0*
#429468
01
#429472
02
#429474
03
#429572
1(
#429582
13
#429584
14
#429659
05
#429663
1%
1"
1!
#429665
0"
0!
0(
0#
0$
0%
#429670
0'
1#
1$
#429672
03
#429674
04
#429676
11
#429678
07
#429681
13
#429683
01
17
#429686
14
#429859
15
#429863
1-
1*
1)
1/
1,
#429867
0/
0,
0-
0*
0)
#429872
04
#429874
03
#429878
13
#429880
14
#429882
03
#429972
1(
#429984
11
04
#429988
12
#429993
01
#429994
02
#430159
05
#430163
1!
1'
1"
1%
#430165
0$
0%
0(
0!
0"
0#
#430166
1(
1#
#430171
13
#430259
15
#430263
1-
1,
1/
1)
1*
#430267
16
#430268
14
#430270
0#
0(
#430271
12
#430277
06
#430278
04
#430358
0/
#430366
1$
1#
#430367
0*
0)
0-
0,
#430372
02
#430374
03
#430472
1(
#430482
13
#430484
14
#430559
05
#430563
1"
1%
1!
#430565
0%
0!
0$
0(
0"
0'
0#
#430566
1'
#430570
1$
1#
0'
#430572
03
#430574
04
#430576
11
#430578
07
#430581
13
#430583
01
17
#430586
14
#430759
15
#430763
1-
1,
1)
1*
#430767
0-
0,
0)
0*
#430770
03
#430773
04
#430780
14
#430872
1(
#430884
11
04
#430888
12
#430893
01
#430894
02
#431059
05
#431063
1!
1"
1%
#431065
0"
0%
0#
0$
0(
0!
#431066
1#
1(
1'
#431074
13
#431159
15
#431163
1)
1,
1-
1*
#431167
16
#431168
14
#431170
0(
0#
#431171
12
#431177
06
#431178
04
#431258
0-
1/
1.
#431263
02
#431264
03
#431266
1#
1$
#431267
0)
0/
0.
0*
0,
#431270
13
11
#431272
14
#431276
03
#431279
01
#431281
04
#431372
1(
#431382
13
#431384
14
#431459
05
#431463
1"
1&
1!
#431465
0&
0!
0"
0(
0$
0#
#431470
1$
1#
0'
#431472
03
#431474
04
#431476
11
#431478
07
#431481
13
#431483
01
17
#431486
14
#431659
15
#431663
1)
1*
1.
1/
1,
#431667
0/
0,
0)
0*
0.
#431669
03
#431672
04
#431678
12
13
#431680
14
#431682
02
03
#431772
1(
#431784
04
11
#431788
12
#431793
01
#431794
02
#431959
05
#431963
1'
1&
1!
1"
#431965
0(
0&
0!
0"
0#
0$
#431966
1(
1#
#431971
13
#432059
15
#432063
1)
1/
1,
1.
1*
#432067
16
#432068
14
#432070
0#
0(
#432071
03
#432073
04
