500000.fsdb.vcd
$date
	Wed Aug 29 17:06:44 2001

$end
$version
	VERILOG-XL 3.10.p001
$end
$timescale
	1ns
$end
$scope module system $end
$scope module i_cpu $end
$scope module i_ALUB $end
$scope module i_alu $end
$var wire 1 ! a [7] $end
$var wire 1 " a [6] $end
$var wire 1 # a [5] $end
$var wire 1 $ a [4] $end
$var wire 1 % a [3] $end
$var wire 1 & a [2] $end
$var wire 1 ' a [1] $end
$var wire 1 ( a [0] $end
$var wire 1 ) b [7] $end
$var wire 1 * b [6] $end
$var wire 1 + b [5] $end
$var wire 1 , b [4] $end
$var wire 1 - b [3] $end
$var wire 1 . b [2] $end
$var wire 1 / b [1] $end
$var wire 1 0 b [0] $end
$var wire 1 1 four [3] $end
$var wire 1 2 four [2] $end
$var wire 1 3 four [1] $end
$var wire 1 4 four [0] $end
$var wire 1 5 cin $end
$var wire 1 6 carry $end
$var wire 1 7 big $end
$upscope $end
$upscope $end
$upscope $end
$upscope $end
$enddefinitions $end
#500000
$dumpvars
0!
17
0"
1$
0(
00
01
0)
02
13
0%
0*
14
05
0+
06
1#
0&
0,
0-
0'
0.
0/
$end
#500059
15
#500063
1/
1.
1*
1)
1-
1,
#500067
0-
0,
0/
0.
0*
0)
#500069
03
#500072
04
#500078
12
13
#500080
14
#500082
02
03
#500172
1(
#500184
11
04
#500188
12
#500193
01
#500194
02
#500359
05
#500363
1"
1!
1%
1&
1'
#500365
0&
0$
0(
0"
0%
0#
0!
#500366
1(
1#
#500371
13
#500459
15
#500463
1)
1,
1/
1*
1-
1.
#500467
16
#500468
14
#500470
0#
0(
#500471
03
#500473
04
#500477
06
#500479
12
#500481
11
#500558
0/
#500566
1$
1#
#500567
0,
0.
0*
0-
0)
#500572
02
#500576
01
#500672
1(
#500682
13
#500684
14
#500759
05
#500763
1&
1!
1%
1"
#500765
0%
0"
0$
0(
0#
0'
0!
0&
#500766
1'
#500770
1$
1#
0'
#500772
03
#500774
04
#500776
11
#500778
07
#500781
13
#500783
01
17
#500786
14
#500959
15
#500963
1)
1-
1*
1.
1,
#500967
0.
0,
0)
0-
0*
#500970
03
#500974
04
#500978
12
#500980
14
#500982
02
#501072
1(
#501084
11
04
#501088
12
#501093
01
#501094
02
#501156
05
#501158
0$
0(
0#
#501169
11
#501171
07
#501176
01
#501179
14
#501184
04
#501359
15
#501374
14
#501472
1(
#501484
11
04
#501488
12
#501493
01
#501494
02
#501559
05
#501565
0(
#501574
14
#501576
11
#501583
01
#501591
04
#501659
15
#501665
1(
#501677
11
#501681
12
#501686
01
#501687
02
#501772
1'
0(
#501959
05
#501966
0'
#501967
1&
1(
1$
1"
#501980
17
#501981
13
11
#502058
1.
10
1,
1*
#502059
15
#502066
0$
1'
0"
0&
#502067
0*
0,
0.
00
#502069
14
12
#502071
07
#502074
17
#502076
01
#502077
02
#502083
07
#502172
0'
1&
0(
#502182
11
#502183
12
#502184
03
#502185
01
#502186
04
#502259
05
#502263
1"
1$
1(
#502270
0$
0(
0&
02
0"
1#
#502275
13
11
#502276
17
#502279
03
#502280
14
#502283
13
#502288
01
#502296
04
#502365
1"
1&
1(
1$
#502366
0#
#502372
03
#502379
11
13
#502459
15
#502464
10
1*
1.
1,
#502466
0.
0,
0$
0"
00
0*
0(
#502478
03
01
#502480
07
12
#502559
05
#502563
1(
1$
1"
#502570
02
#502575
13
11
#502576
17
#502659
15
#502663
0$
0&
0"
0(
#502664
1*
1.
1,
10
#502665
1(
1&
#502666
00
0,
0*
0.
#502680
07
#502772
0(
1'
#502781
03
#502787
14
#502859
05
#502863
1"
1$
1(
#502865
0'
#502868
13
#502870
12
#502874
04
02
#502876
17
#502959
15
#502964
1.
1,
10
1*
#502965
1'
#502966
0*
0(
0$
0"
0.
00
0,
#502974
03
#502975
01
#502978
11
#502980
07
14
#503072
1(
#503083
04
#503084
01
#503259
05
#503263
1$
1"
#503265
0$
0"
0'
0&
0(
#503266
1#
#503275
14
#503276
11
#503278
13
#503279
17
#503283
01
#503291
04
#503359
15
#503363
1,
1*
10
1.
#503366
1%
0#
#503367
0.
00
0,
0*
#503370
03
#503374
12
#503378
02
#503380
07
#503472
1(
#503483
12
#503563
1&
1"
1$
#503565
0%
#503570
02
#503574
13
11
#503576
17
#503659
1'
0(
#503663
0$
0"
0'
0&
#503664
1,
1*
1/
1.
1#
#503665
1%
1(
#503666
0#
0/
0.
0,
0*
#503668
03
#503670
12
#503674
01
#503680
07
#503772
1'
0(
#503779
13
#503859
05
#503861
0%
1#
0'
#503863
1&
1$
1'
1"
#503864
0#
1+
#503865
0'
0&
0$
0"
#503866
02
1#
#503868
03
#503870
1(
0#
#503872
13
#503874
17
#503879
03
07
#503882
17
#503883
14
#503886
11
12
#503891
13
#503894
04
#503961
0+
#503965
1'
1"
1$
1&
#503966
0(
#503971
02
01
03
#503974
07
#503978
11
13
17
#504059
15
#504064
1.
1/
1,
1*
#504065
1%
#504066
0*
0,
0$
0"
0&
0.
0/
#504068
03
#504070
14
12
#504072
13
#504074
01
#504076
04
#504080
07
#504159
05
#504163
1"
1$
1&
#504165
0%
#504169
03
#504170
02
#504175
11
13
#504176
17
#504259
15
#504263
0&
0$
0'
0"
#504264
1/
1.
1,
1*
#504265
1'
1(
1%
#504266
0.
0*
0/
0,
#504268
03
#504270
12
14
#504272
13
#504274
01
#504280
07
#504372
0'
0(
1&
#504378
03
#504559
05
#504563
1"
1'
1$
#504565
0'
0$
0%
0&
0"
#504566
1#
#504570
02
#504572
04
#504578
13
#504579
17
#504659
15
#504663
1,
1*
1.
1/
#504667
16
#504669
03
#504670
0#
1(
1$
1"
1&
#504675
11
#504677
14
#504680
06
#504681
04
#504682
13
01
#504689
07
#504758
0/
0,
0*
10
0.
#504766
0$
1%
0"
#504767
00
#504768
11
#504770
17
#504771
12
#504773
14
#504775
03
#504780
07
#504872
1'
0(
#504879
04
#505059
05
#505063
1(
#505065
0%
0'
0&
#505066
1#
#505070
02
#505074
01
#505075
14
#505079
17
#505084
13
#505087
04
#505170
1&
1"
1$
0(
1'
0#
#505176
03
#505183
11
13
#505259
15
#505263
1.
1*
1/
1,
#505266
0$
0"
1(
1%
#505267
0,
0/
0.
0*
#505268
03
#505270
14
#505271
12
#505272
13
#505275
01
03
#505277
04
02
#505285
07
#505372
0%
0'
0&
0(
1$
#505379
13
12
#505383
11
#505384
14
#505385
03
02
#505390
01
#505392
04
#505397
14
#505559
05
#505563
1'
1&
1"
#505565
0$
0'
0&
0"
#505566
1#
#505572
04
#505578
13
#505579
17
#505581
14
#505587
04
#505663
1,
1*
1.
1/
#505669
03
#505670
1$
1"
1(
1&
0#
#505675
11
#505679
13
#505682
01
03
#505758
0,
1+
1)
10
0.
0*
1-
#505759
15
#505766
0&
0"
#505767
0-
0/
0+
0)
00
#505774
11
#505777
14
#505779
01
#505782
13
#505784
07
#505788
03
#505790
04
#505872
1'
0(
#505959
05
#505963
1!
1#
1%
1(
#505965
0'
0$
0!
0%
#505966
1&
1$
1"
#505967
0#
#505970
0"
1#
0$
0(
1'
0&
#505976
13
17
#505977
11
#505979
03
12
14
#505981
01
#505983
02
04
#506065
1%
1(
1!
#506070
12
#506072
13
#506073
14
#506159
15
#506164
1)
1/
1-
10
1+
#506165
1$
#506166
0+
00
0)
0(
0#
0%
0-
0!
0/
#506173
03
#506174
02
04
#506185
07
#506259
05
#506263
1!
1(
1#
1%
#506265
0$
#506268
12
#506270
13
#506271
14
#506276
17
#506359
15
#506363
0%
0(
0!
#506364
10
1/
1)
1+
1-
#506365
0#
1(
1$
#506366
0-
0/
0+
00
0)
#506374
02
#506383
07
#506472
1&
0(
0'
#506482
11
#506483
12
#506484
03
#506485
01
#506486
04
#506559
05
#506563
1'
1!
1(
1#
1%
#506565
0$
0&
#506570
14
#506571
13
#506659
0'
0#
15
0%
0(
0!
#506664
1(
1!
1'
1#
1%
#506665
1&
1$
#506666
0%
0#
0'
0!
0(
#506667
04
02
#506670
03
#506680
12
#506772
1(
#506784
13
11
#506786
02
#506790
17
#506959
05
#506966
0$
0&
0(
#506967
1'
#506970
12
#506974
07
#506977
01
03
#506979
02
#507058
1/
#507059
15
#507066
1$
1&
#507067
0/
#507068
13
#507076
11
03
#507078
14
#507086
17
#507172
1(
#507183
04
#507184
01
#507259
05
#507265
0&
0(
0$
#507270
1#
1(
#507279
07
#507280
13
#507283
17
#507366
0#
0(
#507373
03
#507379
07
#507459
15
#507464
1/
#507465
1(
1$
1&
#507466
0/
#507485
17
#507559
05
#507565
0&
0$
0(
#507579
07
#507659
15
#507664
1/
#507665
0'
1%
1$
#507666
0/
#507670
12
#507674
02
#507682
17
#507772
1(
#507783
12
#507959
05
#507963
1'
#507965
0%
0(
0$
#507966
1%
#507970
13
#507979
07
#508059
15
#508063
1/
1-
#508066
1$
#508067
0/
0-
#508082
17
#508172
1(
#508180
14
#508259
05
#508265
0$
0(
#508270
1#
0%
1$
0'
#508273
02
04
#508277
11
03
#508279
07
#508281
13
#508283
01
17
#508286
14
#508459
15
#508463
1/
1-
#508467
0/
0-
#508472
04
#508474
03
#508478
13
#508480
14
#508482
03
#508572
1(
#508584
11
04
#508588
12
#508593
01
#508594
02
#508759
05
#508763
1'
1%
#508765
0#
0(
0$
0%
#508766
1#
1(
#508771
13
#508859
15
#508863
1/
1-
#508867
16
#508868
14
#508870
0#
0(
#508871
12
#508878
04
#508891
06
#508895
07
#508958
0/
#508966
1$
1#
#508967
0-
#508972
02
#508974
03
#508979
17
#509072
1(
#509082
13
#509084
14
#509159
05
#509163
1%
#509165
0(
0%
0'
0$
0#
#509166
1'
#509170
1$
1#
0'
#509172
03
#509174
04
#509176
11
#509178
07
#509181
13
#509183
01
17
#509186
14
#509359
15
#509363
1-
#509367
0-
#509370
03
#509373
04
#509380
14
#509472
1(
#509484
11
04
#509488
12
#509493
01
#509494
02
#509659
05
#509663
1%
#509665
0#
0$
0(
0%
#509666
1'
1#
1(
#509674
13
#509759
15
#509763
1-
#509767
16
#509768
14
#509770
0(
0#
#509771
12
#509778
04
#509791
06
#509795
07
#509858
0-
1/
1.
#509863
02
#509864
03
#509866
1$
1#
#509867
0/
0.
#509870
11
13
#509872
14
#509876
03
#509879
17
01
#509881
04
#509972
1(
#509982
13
#509984
14
#510059
05
#510063
1&
#510065
0$
0(
0&
0#
#510070
0'
1$
1#
#510072
03
#510074
04
#510076
11
#510078
07
#510081
13
#510083
01
17
#510086
14
#510259
15
#510263
1.
1/
#510267
0.
0/
#510269
03
#510272
04
#510278
12
13
#510280
14
#510282
02
03
#510372
1(
#510384
11
04
#510388
12
#510393
01
#510394
02
#510559
05
#510563
1'
1&
#510565
0(
0&
0$
0#
#510566
1(
1#
#510571
13
#510659
15
#510663
1.
1/
#510667
16
#510668
14
#510670
0#
0(
#510671
03
#510673
04
#510674
12
#510682
13
11
#510684
14
02
#510692
06
#510696
07
#510758
0/
#510766
1#
1$
#510767
0.
03
#510779
01
17
#510781
04
#510872
1(
#510882
13
#510884
14
#510959
05
#510963
1&
#510965
0$
0#
0(
0&
0'
#510966
1'
#510970
1$
1#
0'
#510972
03
#510974
04
#510976
11
#510978
07
#510981
13
#510983
01
17
#510986
14
#511159
15
#511163
1.
#511167
0.
#511170
03
#511173
04
#511178
12
#511180
14
#511182
02
#511272
1(
#511284
11
04
#511288
12
#511293
01
#511294
02
#511459
05
#511463
1&
#511465
0#
0$
0(
0&
#511466
1#
1(
1'
#511474
13
#511559
15
#511563
1.
#511567
16
#511568
14
#511570
0#
0(
#511571
03
#511573
04
#511574
12
#511582
11
#511584
14
02
#511592
06
#511596
07
#511658
1/
0.
#511666
1#
1$
#511667
0/
13
#511670
01
#511672
04
#511676
03
#511679
17
#511772
1(
#511782
13
#511784
14
#511859
05
#511865
0#
0(
0$
#511870
0'
1#
1$
#511872
03
#511874
04
#511876
11
#511878
07
#511881
13
#511883
01
17
#511886
14
#512059
15
#512063
1/
#512067
0/
#512069
03
#512072
04
#512078
13
#512080
14
#512082
03
#512172
1(
#512184
11
04
#512188
12
#512193
01
#512194
02
#512359
05
#512363
1'
#512365
0$
0(
0#
#512366
1(
1#
#512371
13
#512459
15
#512463
1/
#512467
16
#512468
14
#512470
0#
0(
#512479
04
#512507
06
#512512
07
#512558
1)
0/
1+
1*
#512566
1$
1#
#512567
0*
0+
03
0)
#512571
17
#512672
1(
#512682
13
#512684
14
#512759
05
#512763
1"
1!
#512765
0$
0(
0"
0!
0'
#512766
1'
#512767
0#
#512770
1$
0'
1#
#512774
04
#512776
11
#512783
01
#512786
14
#512959
15
#512963
1+
1*
1)
#512967
0+
0*
0)
#512971
03
#512973
04
#512980
14
#513072
1(
#513084
04
11
#513088
12
#513093
01
#513094
02
#513259
05
#513263
1"
1!
#513265
0$
0(
0"
0!
#513266
1'
1(
#513271
13
#513359
15
#513363
1)
1*
1+
#513367
16
#513368
14
#513370
0#
0(
#513377
06
#513379
04
#513380
03
#513458
1,
0+
1.
1-
1/
#513463
12
#513466
1$
1#
#513467
0)
0*
0/
0,
0-
0.
#513468
11
#513472
02
#513476
01
#513572
1(
#513582
13
#513584
14
#513659
05
#513663
1"
1%
1&
1!
#513665
0&
0!
0%
0$
0(
0"
0#
#513670
1$
1#
0'
#513672
03
#513674
04
#513676
11
#513678
07
#513681
13
#513683
01
17
#513686
14
#513859
15
#513863
1*
1.
1)
1/
1-
1,
#513867
0-
0,
0*
0.
0)
0/
#513869
03
#513872
04
#513878
13
12
#513880
14
#513882
03
02
#513972
1(
#513984
04
11
#513988
12
#513993
01
#513994
02
#514159
05
#514163
1'
1&
1"
1%
1!
#514165
0%
0!
0(
0&
0"
0#
0$
#514166
1(
1#
#514171
13
#514259
15
#514263
1/
1*
1,
1)
1-
1.
#514267
16
#514268
14
#514270
0#
0(
#514271
03
#514273
04
#514277
06
#514279
12
#514281
11
#514358
0/
#514366
1$
1#
#514367
0.
0-
0)
0*
0,
#514372
02
#514376
01
#514472
1(
#514482
13
#514484
14
#514559
05
#514563
1%
1!
1"
1&
#514565
0"
0&
0(
0'
0$
0#
0%
0!
#514566
1'
#514570
1$
1#
0'
#514572
03
#514574
04
#514576
11
#514578
07
#514581
13
#514583
01
17
#514586
14
#514759
15
#514763
1,
1*
1)
1.
1-
#514767
0.
0-
0,
0*
0)
#514770
03
#514774
04
#514778
12
#514780
14
#514782
02
#514872
1(
#514884
11
04
#514888
12
#514893
01
#514894
02
#515059
05
#515063
1&
1"
1%
1!
#515065
0%
0!
0"
0(
0#
0$
0&
#515066
1(
1#
1'
#515074
13
#515159
15
#515163
1.
1,
1-
1)
1*
#515167
16
#515168
14
#515170
0(
0#
#515171
03
#515173
04
#515177
06
#515179
12
#515181
11
#515258
1/
0.
#515264
13
#515266
1#
1$
#515267
0*
0/
0-
0)
0,
#515268
01
#515272
02
#515274
03
#515372
1(
#515382
13
#515384
14
#515459
05
#515463
1!
1%
1"
#515465
0%
0"
0!
0(
0$
0#
#515470
0'
1$
1#
#515472
03
#515474
04
#515476
11
#515478
07
#515481
13
#515483
01
17
#515486
14
#515659
15
#515663
1)
1,
1-
1/
1*
#515667
0/
0*
0)
0,
0-
#515672
04
#515674
03
#515678
13
#515680
14
#515682
03
#515772
1(
#515784
04
11
#515788
12
#515793
01
#515794
02
#515959
05
#515963
1!
1"
1%
1'
#515965
0%
0"
0(
0$
0#
0!
#515966
1(
1#
#515971
13
#516059
15
#516063
1)
1*
1-
1/
1,
#516067
16
#516068
14
#516070
0#
0(
#516071
12
#516077
06
#516078
04
#516158
0/
#516166
1#
1$
#516167
0,
0)
0-
0*
#516172
02
#516174
03
#516272
1(
#516282
13
#516284
14
#516359
05
#516363
1%
1"
1!
#516365
0"
0!
0(
0'
0#
0%
0$
#516366
1'
#516370
1#
1$
0'
#516372
03
#516374
04
#516376
11
#516378
07
#516381
13
#516383
01
17
#516386
14
#516559
15
#516563
1-
1*
1)
1,
#516567
0-
0*
0)
0,
#516570
03
#516573
04
#516580
14
#516672
1(
#516684
04
11
#516688
12
#516693
01
#516694
02
#516859
05
#516863
1"
1!
1%
#516865
0!
0%
0$
0#
0(
0"
#516866
1'
1#
1(
#516874
13
#516959
15
#516963
1*
1)
1,
1-
#516967
16
#516968
14
#516970
0#
0(
#516971
12
#516977
06
#516978
04
#517058
1.
0-
1/
#517063
02
#517064
03
#517066
1$
1#
#517067
0/
0,
0.
0)
0*
#517070
13
11
#517072
14
#517076
03
#517079
01
#517081
04
#517172
1(
#517182
13
#517184
14
#517259
05
#517263
1!
1"
1&
#517265
0(
0&
0$
0!
0"
0#
#517270
1$
1#
0'
#517272
03
#517274
04
#517276
11
#517278
07
#517281
13
#517283
01
17
#517286
14
#517459
15
#517463
1)
1/
1*
1.
1,
#517467
0.
0,
0)
0/
0*
#517469
03
#517472
04
#517478
12
13
#517480
14
#517482
02
03
#517572
1(
#517584
11
04
#517588
12
#517593
01
#517594
02
#517759
05
#517763
1"
1&
1'
1!
#517765
0#
0(
0"
0!
0&
0$
#517766
1#
1(
#517771
13
#517859
15
#517863
1)
1.
1,
1*
1/
#517867
16
#517868
14
#517870
0(
0#
#517871
03
#517873
04
#517874
12
#517877
06
#517882
13
11
#517884
14
02
#517958
0/
#517966
1$
1#
#517967
0)
03
0,
0*
0.
#517979
01
#517981
04
#518072
1(
#518082
13
#518084
14
#518159
05
#518163
1"
1&
1!
#518165
0&
0!
0#
0(
0"
0'
0$
#518166
1'
#518170
1#
1$
0'
#518172
03
#518174
04
#518176
11
#518178
07
#518181
13
#518183
01
17
#518186
14
#518359
15
#518363
1.
1*
1,
1)
#518367
0.
0*
0,
0)
#518370
03
#518373
04
#518378
12
#518380
14
#518382
02
#518472
1(
#518484
11
04
#518488
12
#518493
01
#518494
02
#518659
05
#518663
1!
1"
1&
#518665
0"
0&
0#
0(
0$
0!
#518666
1'
1#
1(
#518674
13
#518759
15
#518763
1.
1,
1*
1)
#518767
16
#518768
14
#518770
0#
0(
#518771
03
#518773
04
#518774
12
#518777
06
#518782
11
#518784
14
02
#518858
1/
0.
#518866
1$
1#
#518867
0)
0/
13
0,
0*
#518870
01
#518872
04
#518876
03
#518972
1(
#518982
13
#518984
14
#519059
05
#519063
1"
1!
#519065
0#
0(
0"
0!
0$
#519070
0'
1#
1$
#519072
03
#519074
04
#519076
11
#519078
07
#519081
13
#519083
01
17
#519086
14
#519259
15
#519263
1,
1*
1)
1/
#519267
0,
0*
0)
0/
#519269
03
#519272
04
#519278
13
#519280
14
#519282
03
#519372
1(
#519384
11
04
#519388
12
#519393
01
#519394
02
#519559
05
#519563
1!
1'
1"
#519565
0$
0(
0!
0"
0#
#519566
1(
1#
#519571
13
#519659
15
#519663
1)
1,
1*
1/
#519667
16
#519668
14
#519670
0#
0(
#519677
06
#519679
04
#519758
0/
#519766
1#
1$
#519767
0*
03
0)
0,
#519872
1(
#519882
13
#519884
14
#519959
05
#519963
1"
1!
#519965
0'
0(
0"
0!
0$
0#
#519966
1'
#519970
1$
1#
0'
#519972
03
#519974
04
#519976
11
#519978
07
#519981
13
#519983
01
17
#519986
14
#520159
15
#520163
1)
1,
1*
#520167
0)
0,
0*
#520171
03
#520173
04
#520180
14
#520272
1(
#520284
11
04
#520288
12
#520293
01
#520294
02
#520459
05
#520463
1!
1"
#520465
0!
0"
0#
0$
0(
#520466
1'
1#
1(
#520471
13
#520559
15
#520563
1*
1,
1)
#520567
16
#520568
14
#520570
0#
0(
#520577
06
#520579
04
#520580
03
#520658
0,
1-
1.
1/
#520663
12
#520666
1$
1#
#520667
0/
0-
0.
0)
0*
#520668
11
#520672
02
#520676
01
#520772
1(
#520782
13
#520784
14
#520859
05
#520863
1!
1%
1&
1"
#520865
0&
0"
0%
0(
0#
0$
0!
#520870
0'
1#
1$
#520872
03
#520874
04
#520876
11
#520878
07
#520881
13
#520883
01
17
#520886
14
#521059
15
#521063
1*
1.
1/
1-
1)
#521067
0-
0)
0*
0.
0/
#521069
03
#521072
04
#521078
13
12
#521080
14
#521082
03
02
#521172
1(
#521184
04
11
#521188
12
#521193
01
#521194
02
#521359
05
#521363
1%
1&
1'
1!
1"
#521365
0!
0"
0(
0$
0#
0%
0&
#521366
1(
1#
#521371
13
#521459
15
#521463
1*
1)
1-
1/
1.
#521467
16
#521468
14
#521470
0#
0(
#521471
03
#521473
04
#521477
06
#521479
12
#521481
11
#521558
0/
#521566
1#
1$
#521567
0.
0*
0-
0)
#521572
02
#521576
01
#521672
1(
#521682
13
#521684
14
#521759
05
#521763
1&
1!
1%
1"
#521765
0%
0"
0!
0(
0#
0&
0$
0'
#521766
1'
#521770
1#
1$
0'
#521772
03
#521774
04
#521776
11
#521778
07
#521781
13
#521783
01
17
#521786
14
#521959
15
#521963
1)
1-
1*
1.
#521967
0)
0-
0*
0.
#521970
03
#521974
04
#521978
12
#521980
14
#521982
02
#522072
1(
#522084
11
04
#522088
12
#522093
01
#522094
02
#522259
05
#522263
1%
1"
1!
1&
#522265
0!
0&
0(
0#
0$
0%
0"
#522266
1'
1#
1(
#522274
13
#522359
15
#522363
1)
1*
1-
1.
#522367
16
#522368
14
#522370
0#
0(
#522371
03
#522373
04
#522377
06
#522379
12
#522381
11
#522458
0.
1/
#522464
13
#522466
1$
1#
#522467
0)
0/
0-
0*
#522468
01
#522472
02
#522474
03
#522572
1(
#522582
13
#522584
14
#522659
05
#522663
1!
1"
1%
#522665
0"
0%
0$
0#
0!
0(
#522670
0'
1$
1#
#522672
03
#522674
04
#522676
11
#522678
07
#522681
13
#522683
01
17
#522686
14
#522859
15
#522863
1-
1/
1)
1*
#522867
0-
0/
0)
0*
#522872
04
#522874
03
#522878
13
#522880
14
#522882
03
#522972
1(
#522984
04
11
#522988
12
#522993
01
#522994
02
#523159
05
#523163
1!
1%
1'
1"
#523165
0#
0$
0!
0"
0%
0(
#523166
1#
1(
#523171
13
#523259
15
#523263
1)
1/
1-
1*
#523267
16
#523268
14
#523270
0(
0#
#523271
12
#523277
06
#523278
04
#523358
0/
#523366
1$
1#
#523367
0*
0-
0)
#523372
02
#523374
03
#523472
1(
#523482
13
#523484
14
#523559
05
#523563
1%
1!
1"
#523565
0!
0"
0$
0'
0(
0%
0#
#523566
1'
#523570
1$
1#
0'
#523572
03
#523574
04
#523576
11
#523578
07
#523581
13
#523583
01
17
#523586
14
#523759
15
#523763
1-
1*
1)
#523767
0-
0*
0)
#523770
03
#523773
04
#523780
14
#523872
1(
#523884
04
11
#523888
12
#523893
01
#523894
02
#524059
05
#524063
1"
1%
1!
#524065
0%
0!
0#
0$
0(
0"
#524066
1'
1#
1(
#524074
13
#524159
15
#524163
1)
1*
1-
#524167
16
#524168
14
#524170
0#
0(
#524171
12
#524177
06
#524178
04
#524258
1.
1/
0-
#524263
02
#524264
03
#524266
1#
1$
#524267
0/
0*
0.
0)
#524270
11
13
#524272
14
#524276
03
#524279
01
#524281
04
#524372
1(
#524382
13
#524384
14
#524459
05
#524463
1&
1!
1"
#524465
0!
0"
0&
0$
0(
0#
#524470
0'
1$
1#
#524472
03
#524474
04
#524476
11
#524478
07
#524481
13
#524483
01
17
#524486
14
#524659
15
#524663
1/
1*
1)
1.
#524667
0/
0*
0)
0.
#524669
03
#524672
04
#524678
12
13
#524680
14
#524682
02
03
#524772
1(
#524784
04
11
#524788
12
#524793
01
#524794
02
#524959
05
#524963
1'
1"
1!
1&
#524965
0!
0&
0#
0(
0"
0$
#524966
1#
1(
#524971
13
#525059
15
#525063
1)
1*
1.
1/
#525067
16
#525068
14
#525070
0#
0(
#525071
03
#525073
04
#525074
12
#525077
06
#525082
13
11
#525084
14
02
#525158
0/
#525166
1#
1$
#525167
0.
03
0*
0)
#525179
01
#525181
04
#525272
1(
#525282
13
#525284
14
#525359
05
#525363
1"
1!
1&
#525365
0!
0&
0(
0$
0"
0#
0'
#525366
1'
#525370
1$
1#
0'
#525372
03
#525374
04
#525376
11
#525378
07
#525381
13
#525383
01
17
#525386
14
#525559
15
#525563
1*
1)
1.
#525567
0*
0)
0.
#525570
03
#525573
04
#525578
12
#525580
14
#525582
02
#525672
1(
#525684
04
11
#525688
12
#525693
01
#525694
02
#525859
05
#525863
1&
1!
1"
#525865
0$
0"
0#
0&
0!
0(
#525866
1'
1#
1(
#525874
13
#525959
15
#525963
1*
1.
1)
#525967
16
#525968
14
#525970
0#
0(
#525971
03
#525973
04
#525974
12
#525977
06
#525982
11
#525984
14
02
#526058
0.
1/
#526066
1$
1#
#526067
0)
0/
0*
13
#526070
01
#526072
04
#526076
03
#526172
1(
#526182
13
#526184
14
#526259
05
#526263
1"
1!
#526265
0"
0!
0(
0#
0$
#526270
0'
1#
1$
#526272
03
#526274
04
#526276
11
#526278
07
#526281
13
#526283
01
17
#526286
14
#526459
15
#526463
1*
1)
1/
#526467
0*
0)
0/
#526469
03
#526472
04
#526478
13
#526480
14
#526482
03
#526572
1(
#526584
11
04
#526588
12
#526593
01
#526594
02
#526759
05
#526763
1!
1"
1'
#526765
0#
0$
0!
0"
0(
#526766
1#
1(
#526771
13
#526859
15
#526863
1/
1)
1*
#526867
16
#526868
14
#526870
0(
0#
#526877
06
#526879
04
#526958
0/
1+
#526966
1$
1#
#526967
0*
0)
03
0+
#527072
1(
#527082
13
#527084
14
#527159
05
#527163
1"
1!
#527165
0"
0!
0$
0'
0(
#527166
1'
#527167
0#
#527170
1$
0'
1#
#527174
04
#527176
11
#527183
01
#527186
14
#527359
15
#527363
1*
1)
1+
#527367
0*
0)
0+
#527371
03
#527373
04
#527380
14
#527472
1(
#527484
04
11
#527488
12
#527493
01
#527494
02
#527659
05
#527663
1!
1"
#527665
0$
0(
0!
0"
#527666
1'
1(
#527671
13
#527759
15
#527763
1*
1+
1)
#527767
16
#527768
14
#527770
0(
0#
#527777
06
#527779
04
#527780
03
#527858
1,
1-
0+
1/
1.
#527863
12
#527866
1#
1$
#527867
0.
0)
0,
0/
0-
0*
#527868
11
#527872
02
#527876
01
#527972
1(
#527982
13
#527984
14
#528059
05
#528063
1%
1!
1"
1&
#528065
0"
0&
0%
0(
0$
0#
0!
#528070
1$
1#
0'
#528072
03
#528074
04
#528076
11
#528078
07
#528081
13
#528083
01
17
#528086
14
#528259
15
#528263
1.
1-
1*
1)
1/
1,
#528267
0/
0,
0.
0-
0*
0)
#528269
03
#528272
04
#528278
12
13
#528280
14
#528282
02
03
#528372
1(
#528384
11
04
#528388
12
#528393
01
#528394
02
#528559
05
#528563
1'
1"
1&
1%
1!
#528565
0%
0!
0#
0(
0"
0&
0$
#528566
1#
1(
#528571
13
#528659
15
#528663
1)
1.
1,
1*
1/
1-
#528667
16
#528668
14
#528670
0(
0#
#528671
03
#528673
04
#528677
06
#528679
12
#528681
11
#528758
0/
#528766
1$
1#
#528767
0)
0-
0*
0,
0.
#528772
02
#528776
01
#528872
1(
#528882
13
#528884
14
#528959
05
#528963
1&
1!
1%
1"
#528965
0%
0"
0(
0$
0'
0#
0!
0&
#528966
1'
#528970
1$
1#
0'
#528972
03
#528974
04
#528976
11
#528978
07
#528981
13
#528983
01
17
#528986
14
#529159
15
#529163
1.
1,
1*
1-
1)
#529167
0-
0)
0.
0,
0*
#529170
03
#529174
04
#529178
12
#529180
14
#529182
02
#529272
1(
#529284
11
04
#529288
12
#529293
01
#529294
02
#529459
05
#529463
1%
1!
1&
1"
#529465
0&
0"
0(
0$
0%
0!
0#
#529466
1'
1(
1#
#529474
13
#529559
15
#529563
1-
1.
1)
1*
1,
#529567
16
#529568
14
#529570
0#
0(
#529571
03
#529573
04
#529577
06
#529579
12
#529581
11
#529658
0.
1/
#529664
13
#529666
1#
1$
#529667
0,
0/
0)
0*
0-
#529668
01
#529672
02
#529674
03
#529772
1(
#529782
13
#529784
14
#529859
05
#529863
1!
1"
1%
#529865
0"
0%
0(
0#
0$
0!
#529870
0'
1#
1$
#529872
03
#529874
04
#529876
11
#529878
07
#529881
13
#529883
01
17
#529886
14
#530059
15
#530063
1*
1-
1)
1/
1,
#530067
0/
0,
0*
0-
0)
#530072
04
#530074
03
#530078
13
#530080
14
#530082
03
#530172
1(
#530184
11
04
#530188
12
#530193
01
#530194
02
#530359
05
#530363
1'
1%
1!
1"
#530365
0!
0"
0#
0$
0(
0%
#530366
1#
1(
#530371
13
#530459
15
#530463
1*
1,
1/
1)
1-
#530467
16
#530468
14
#530470
0#
0(
#530471
12
#530477
06
#530478
04
#530558
0/
#530566
1$
1#
#530567
0-
0)
0*
0,
#530572
02
#530574
03
#530672
1(
#530682
13
#530684
14
#530759
05
#530763
1!
1%
1"
#530765
0%
0"
0!
0(
0$
0#
0'
#530766
1'
#530770
1$
1#
0'
#530772
03
#530774
04
#530776
11
#530778
07
#530781
13
#530783
01
17
#530786
14
#530959
15
#530963
1,
1*
1)
1-
#530967
0,
0*
0)
0-
#530970
03
#530973
04
#530980
14
#531072
1(
#531084
11
04
#531088
12
#531093
01
#531094
02
#531259
05
#531263
1!
1"
1%
#531265
0"
0%
0#
0(
0!
0$
#531266
1'
1#
1(
#531274
13
#531359
15
#531363
1)
1*
1-
1,
#531367
16
#531368
14
#531370
0#
0(
#531371
12
#531377
06
#531378
04
#531458
1/
1.
0-
#531463
02
#531464
03
#531466
1#
1$
#531467
0,
0.
0/
0*
0)
#531470
13
11
#531472
14
#531476
03
#531479
01
#531481
04
#531572
1(
#531582
13
#531584
14
#531659
05
#531663
1"
1!
1&
#531665
0!
0&
0(
0$
0"
0#
#531670
0'
1$
1#
#531672
03
#531674
04
#531676
11
#531678
07
#531681
13
#531683
01
17
#531686
14
#531859
15
#531863
1,
1)
1/
1*
1.
#531867
0*
0.
0,
0)
0/
#531869
03
#531872
04
#531878
12
13
#531880
14
#531882
02
03
#531972
1(
#531984
04
11
#531988
12
#531993
01
#531994
02
