600000.fsdb.vcd
$date
	Wed Aug 29 17:06:44 2001

$end
$version
	VERILOG-XL 3.10.p001
$end
$timescale
	1ns
$end
$scope module system $end
$scope module i_cpu $end
$scope module i_ALUB $end
$scope module i_alu $end
$var wire 1 ! a [7] $end
$var wire 1 " a [6] $end
$var wire 1 # a [5] $end
$var wire 1 $ a [4] $end
$var wire 1 % a [3] $end
$var wire 1 & a [2] $end
$var wire 1 ' a [1] $end
$var wire 1 ( a [0] $end
$var wire 1 ) b [7] $end
$var wire 1 * b [6] $end
$var wire 1 + b [5] $end
$var wire 1 , b [4] $end
$var wire 1 - b [3] $end
$var wire 1 . b [2] $end
$var wire 1 / b [1] $end
$var wire 1 0 b [0] $end
$var wire 1 1 four [3] $end
$var wire 1 2 four [2] $end
$var wire 1 3 four [1] $end
$var wire 1 4 four [0] $end
$var wire 1 5 cin $end
$var wire 1 6 carry $end
$var wire 1 7 big $end
$upscope $end
$upscope $end
$upscope $end
$upscope $end
$enddefinitions $end
#600000
$dumpvars
0!
17
0"
1$
1(
00
01
0)
02
13
0%
0*
14
15
0+
06
1#
0&
0,
0-
1'
0.
0/
$end
#600059
05
#600063
1"
1!
1%
1&
#600065
0%
0&
0$
0(
0"
0!
0#
#600070
1$
1#
0'
#600072
03
#600074
04
#600076
11
#600078
07
#600081
13
#600083
01
17
#600086
14
#600259
15
#600263
1.
1)
1/
1*
1-
1,
#600267
0-
0,
0.
0)
0/
0*
#600269
03
#600272
04
#600278
12
13
#600280
14
#600282
02
03
#600372
1(
#600384
11
04
#600388
12
#600393
01
#600394
02
#600559
05
#600563
1%
1&
1!
1"
1'
#600565
0"
0#
0(
0%
0!
0$
0&
#600566
1#
1(
#600571
13
#600659
15
#600663
1.
1,
1*
1-
1)
1/
#600667
16
#600668
14
#600670
0(
0#
#600671
03
#600673
04
#600677
06
#600679
12
#600681
11
#600758
0/
#600766
1$
1#
#600767
0.
0)
0-
0*
0,
#600772
02
#600776
01
#600872
1(
#600882
13
#600884
14
#600959
05
#600963
1"
1&
1!
1%
#600965
0!
0%
0(
0'
0$
0"
0&
0#
#600966
1'
#600970
1$
1#
0'
#600972
03
#600974
04
#600976
11
#600978
07
#600981
13
#600983
01
17
#600986
14
#601159
15
#601163
1,
1*
1-
1)
1.
#601167
0)
0.
0,
0*
0-
#601170
03
#601174
04
#601178
12
#601180
14
#601182
02
#601272
1(
#601284
11
04
#601288
12
#601293
01
#601294
02
#601381
05
#601383
0#
0$
0(
#601394
11
#601396
07
#601401
01
#601404
14
#601409
04
#601659
15
#601674
14
#601772
1(
#601784
11
04
#601788
12
#601793
01
#601794
02
#601859
05
#601865
0(
#601874
14
#601876
11
#601883
01
#601891
04
#601959
15
#601965
1(
#601977
11
#601981
12
#601986
01
#601987
02
#602072
0(
1'
#602259
05
#602266
0'
#602267
1&
1(
1$
1"
#602280
17
#602281
11
13
#602358
1.
1,
10
1*
#602359
15
#602366
0"
1'
0$
0&
#602367
0*
00
0.
0,
#602369
14
12
#602371
07
#602374
17
#602376
01
#602377
02
#602383
07
#602472
0'
1&
0(
#602482
11
#602483
12
#602484
03
#602485
01
#602486
04
#602559
05
#602563
1"
1$
1(
#602570
0$
0(
02
1#
0&
0"
#602575
11
13
#602576
17
#602579
03
#602580
14
#602583
13
#602588
01
#602596
04
#602665
1&
1$
1(
1"
#602666
0#
#602672
03
#602679
11
13
#602759
15
#602764
1.
1*
10
1,
#602766
00
0,
0"
0$
0.
0*
0(
#602778
01
03
#602780
07
12
#602859
05
#602863
1"
1$
1(
#602870
02
#602875
13
11
#602876
17
#602959
15
#602963
0(
0$
0"
0&
#602964
10
1*
1,
1.
#602965
1(
1&
#602966
0.
0,
00
0*
#602980
07
#603072
0(
1'
#603081
03
#603087
14
#603159
05
#603163
1"
1(
1$
#603165
0'
#603168
13
#603170
12
#603174
04
02
#603176
17
#603259
15
#603264
1*
1.
1,
10
#603265
1'
#603266
00
0,
0(
0$
0*
0.
0"
#603274
03
#603275
01
#603278
11
#603280
14
07
#603372
1(
#603383
04
#603384
01
#603559
05
#603563
1$
1"
#603565
0$
0"
0'
0&
0(
#603566
1#
#603575
14
#603576
11
#603578
13
#603579
17
#603583
01
#603591
04
#603659
15
#603663
10
1.
1,
1*
#603666
1%
0#
#603667
0,
00
0.
0*
#603670
03
#603674
12
#603678
02
#603680
07
#603772
1(
#603783
12
#603863
1&
1"
1$
#603865
0%
#603870
02
#603874
13
11
#603876
17
#603959
1'
0(
#603963
0"
0$
0'
0&
#603964
1,
1/
1#
1*
1.
#603965
1%
1(
#603966
0.
0*
0,
0#
0/
#603968
03
#603970
12
#603974
01
#603980
07
#604072
1'
0(
#604079
13
#604159
05
#604161
1#
0%
0'
#604163
1&
1"
1'
1$
#604164
0#
1+
#604165
0'
0&
0"
0$
#604166
02
1#
#604168
03
#604170
1(
0#
#604172
13
#604174
17
#604179
03
07
#604182
17
#604183
14
#604186
11
12
#604191
13
#604194
04
#604261
0+
#604265
1'
1$
1"
1&
#604266
0(
#604271
02
01
03
#604274
07
#604278
11
13
17
#604359
15
#604364
1.
1,
1/
1*
#604365
1%
#604366
0*
0/
0"
0$
0&
0,
0.
#604368
03
#604370
14
12
#604372
13
#604374
01
#604376
04
#604380
07
#604459
05
#604463
1"
1&
1$
#604465
0%
#604469
03
#604470
02
#604475
11
13
#604476
17
#604559
15
#604563
0$
0&
0'
0"
#604564
1*
1.
1/
1,
#604565
1'
1(
1%
#604566
0*
0,
0/
0.
#604568
03
#604570
12
14
#604572
13
#604574
01
#604580
07
#604672
0'
0(
1&
#604678
03
#604859
05
#604863
1"
1'
1$
#604865
0'
0$
0%
0&
0"
#604866
1#
#604870
02
#604872
04
#604878
13
#604879
17
#604959
15
#604963
1*
1.
1/
1,
#604967
16
#604969
03
#604970
1&
1(
0#
1"
1$
#604975
11
#604977
14
#604980
06
#604981
04
#604982
13
01
#604989
07
#605058
0*
0,
0/
0.
10
#605066
1%
0"
0$
#605067
00
#605068
11
#605070
17
#605071
12
#605073
14
#605075
03
#605080
07
#605172
1'
0(
#605179
04
#605359
05
#605363
1(
#605365
0%
0&
0'
#605366
1#
#605370
02
#605374
01
#605375
14
#605379
17
#605384
13
#605387
04
#605470
1'
1"
0(
1$
0#
1&
#605476
03
#605483
11
13
#605559
15
#605563
1*
1/
1,
1.
#605566
1(
0"
0$
1%
#605567
0.
0,
0*
0/
#605568
03
#605570
14
#605571
12
#605572
13
#605575
01
03
#605577
04
02
#605585
07
#605672
0'
0%
1$
0&
0(
#605679
12
13
#605683
11
#605684
14
#605685
02
03
#605690
01
#605692
04
#605697
14
#605859
05
#605863
1'
1&
1"
#605865
0'
0&
0"
0$
#605866
1#
#605872
04
#605878
13
#605879
17
#605881
14
#605887
04
#605963
1.
1/
1*
1,
#605969
03
#605970
1$
1(
1&
1"
0#
#605975
11
#605979
13
#605982
01
03
#606058
0.
0*
1)
1+
10
0,
1-
#606059
15
#606066
0&
0"
#606067
0-
0)
0+
00
0/
#606074
11
#606077
14
#606079
01
#606082
13
#606084
07
#606088
03
#606090
04
#606172
0(
1'
#606259
05
#606263
1!
1#
1(
1%
#606265
0'
0$
0!
0%
#606266
1"
1$
1&
#606267
0#
#606270
0&
1#
1'
0(
0"
0$
#606276
17
13
#606277
11
#606279
12
03
14
#606281
01
#606283
02
04
#606365
1!
1(
1%
#606370
12
#606372
13
#606373
14
#606459
15
#606464
10
1-
1/
1)
1+
#606465
1$
#606466
0+
0%
0(
00
0)
0/
0!
0-
0#
#606473
03
#606474
02
04
#606485
07
#606559
05
#606563
1#
1%
1(
1!
#606565
0$
#606568
12
#606570
13
#606571
14
#606576
17
#606659
15
#606663
0!
0(
0%
#606664
1+
1-
10
1/
1)
#606665
0#
1$
1(
#606666
0)
0/
00
0-
0+
#606674
02
#606683
07
#606772
0'
1&
0(
#606782
11
#606783
12
#606784
03
#606785
01
#606786
04
#606859
05
#606863
1%
1#
1(
1'
1!
#606865
0&
0$
#606870
14
#606871
13
#606959
0#
0!
0'
0%
15
0(
#606964
1'
1!
1#
1(
1%
#606965
1&
1$
#606966
0%
0(
0'
0!
0#
#606967
04
02
#606970
03
#606980
12
#607072
1(
#607084
13
11
#607086
02
#607090
17
#607259
05
#607266
0$
0&
0(
#607267
1'
#607270
12
#607274
07
#607277
03
01
#607279
02
#607358
1/
#607359
15
#607366
1$
1&
#607367
0/
#607368
13
#607376
11
03
#607378
14
#607386
17
#607472
1(
#607483
04
#607484
01
#607559
05
#607565
0$
0&
0(
#607570
1#
1(
#607579
07
#607580
13
#607583
17
#607666
0#
0(
#607673
03
#607679
07
#607759
15
#607764
1/
#607765
1(
1&
1$
#607766
0/
#607785
17
#607859
05
#607865
0$
0&
0(
#607879
07
#607959
15
#607964
1/
#607965
0'
1$
1%
#607966
0/
#607970
12
#607974
02
#607982
17
#608072
1(
#608083
12
#608259
05
#608263
1'
#608265
0$
0(
0%
#608266
1%
#608270
13
#608279
07
#608359
15
#608363
1/
1-
#608366
1$
#608367
0/
0-
#608382
17
#608472
1(
#608480
14
#608559
05
#608565
0$
0(
#608570
1$
1#
0'
0%
#608573
04
02
#608577
11
03
#608579
07
#608581
13
#608583
01
17
#608586
14
#608759
15
#608763
1/
1-
#608767
0/
0-
#608772
04
#608774
03
#608778
13
#608780
14
#608782
03
#608872
1(
#608884
11
04
#608888
12
#608893
01
#608894
02
#609059
05
#609063
1'
1%
#609065
0(
0%
0#
0$
#609066
1(
1#
#609071
13
#609159
15
#609163
1-
1/
#609167
16
#609168
14
#609170
0#
0(
#609171
12
#609178
04
#609191
06
#609195
07
#609258
0/
#609266
1$
1#
#609267
0-
#609272
02
#609274
03
#609279
17
#609372
1(
#609382
13
#609384
14
#609459
05
#609463
1%
#609465
0(
0$
0#
0%
0'
#609466
1'
#609470
1$
1#
0'
#609472
03
#609474
04
#609476
11
#609478
07
#609481
13
#609483
01
17
#609486
14
#609659
15
#609663
1-
#609667
0-
#609670
03
#609673
04
#609680
14
#609772
1(
#609784
11
04
#609788
12
#609793
01
#609794
02
#609959
05
#609963
1%
#609965
0(
0$
0%
0#
#609966
1(
1#
1'
#609974
13
#610059
15
#610063
1-
#610067
16
#610068
14
#610070
0#
0(
#610071
12
#610078
04
#610091
06
#610095
07
#610158
1.
0-
1/
#610163
02
#610164
03
#610166
1#
1$
#610167
0.
0/
#610170
13
11
#610172
14
#610176
03
#610179
01
17
#610181
04
#610272
1(
#610282
13
#610284
14
#610359
05
#610363
1&
#610365
0$
0(
0&
0#
#610370
0'
1$
1#
#610372
03
#610374
04
#610376
11
#610378
07
#610381
13
#610383
01
17
#610386
14
#610559
15
#610563
1.
1/
#610567
0.
0/
#610569
03
#610572
04
#610578
13
12
#610580
14
#610582
03
02
#610672
1(
#610684
11
04
#610688
12
#610693
01
#610694
02
#610859
05
#610863
1'
1&
#610865
0#
0(
0&
0$
#610866
1#
1(
#610871
13
#610959
15
#610963
1.
1/
#610967
16
#610968
14
#610970
0(
0#
#610971
03
#610973
04
#610974
12
#610982
13
11
#610984
14
02
#610992
06
#610996
07
#611058
0/
#611066
1#
1$
#611067
03
0.
#611079
01
17
#611081
04
#611172
1(
#611182
13
#611184
14
#611259
05
#611263
1&
#611265
0(
0#
0&
0'
0$
#611266
1'
#611270
1#
1$
0'
#611272
03
#611274
04
#611276
11
#611278
07
#611281
13
#611283
01
17
#611286
14
#611459
15
#611463
1.
#611467
0.
#611470
03
#611473
04
#611478
12
#611480
14
#611482
02
#611572
1(
#611584
11
04
#611588
12
#611593
01
#611594
02
#611759
05
#611763
1&
#611765
0#
0(
0&
0$
#611766
1'
1#
1(
#611774
13
#611859
15
#611863
1.
#611867
16
#611868
14
#611870
0(
0#
#611871
03
#611873
04
#611874
12
#611882
11
#611884
14
02
#611892
06
#611896
07
#611958
0.
1/
#611966
1#
1$
#611967
0/
13
#611970
01
#611972
04
#611976
03
#611979
17
#612072
1(
#612082
13
#612084
14
#612159
05
#612165
0(
0#
0$
#612170
0'
1#
1$
#612172
03
#612174
04
#612176
11
#612178
07
#612181
13
#612183
01
17
#612186
14
#612359
15
#612363
1/
#612367
0/
#612369
03
#612372
04
#612378
13
#612380
14
#612382
03
#612472
1(
#612484
11
04
#612488
12
#612493
01
#612494
02
#612659
05
#612663
1'
#612665
0$
0#
0(
#612666
1#
1(
#612671
13
#612759
15
#612763
1/
#612767
16
#612768
14
#612770
0(
0#
#612779
04
#612807
06
#612812
07
#612858
1+
0/
1*
1)
#612866
1$
1#
#612867
0)
0*
0+
03
#612871
17
#612972
1(
#612982
13
#612984
14
#613059
05
#613063
1!
1"
#613065
0$
0!
0"
0(
0'
#613066
1'
#613067
0#
#613070
1$
0'
1#
#613074
04
#613076
11
#613083
01
#613086
14
#613259
15
#613263
1)
1+
1*
#613267
0)
0+
0*
#613271
03
#613273
04
#613280
14
#613372
1(
#613384
11
04
#613388
12
#613393
01
#613394
02
#613559
05
#613563
1"
1!
#613565
0$
0(
0"
0!
#613566
1'
1(
#613571
13
#613659
15
#613663
1*
1+
1)
#613667
16
#613668
14
#613670
0#
0(
#613677
06
#613679
04
#613680
03
#613758
1-
1,
0+
1.
1/
#613763
12
#613766
1$
1#
#613767
0*
0/
0-
0.
0)
0,
#613768
11
#613772
02
#613776
01
#613872
1(
#613882
13
#613884
14
#613959
05
#613963
1%
1"
1&
1!
#613965
0&
0!
0"
0(
0%
0#
0$
#613970
1#
1$
0'
#613972
03
#613974
04
#613976
11
#613978
07
#613981
13
#613983
01
17
#613986
14
#614159
15
#614163
1*
1,
1/
1.
1)
1-
#614167
0)
0-
0*
0,
0/
0.
#614169
03
#614172
04
#614178
12
13
#614180
14
#614182
02
03
#614272
1(
#614284
11
04
#614288
12
#614293
01
#614294
02
#614459
05
#614463
1"
1%
1&
1'
1!
#614465
0&
0!
0"
0%
0(
0#
0$
#614466
1(
1#
#614471
13
#614559
15
#614563
1-
1*
1)
1.
1/
1,
#614567
16
#614568
14
#614570
0(
0#
#614571
03
#614573
04
#614577
06
#614579
12
#614581
11
#614658
0/
#614666
1$
1#
#614667
0,
0-
0.
0)
0*
#614672
02
#614676
01
#614772
1(
#614782
13
#614784
14
#614859
05
#614863
1"
1!
1%
1&
#614865
0%
0&
0'
0$
0(
0#
0!
0"
#614866
1'
#614870
1$
1#
0'
#614872
03
#614874
04
#614876
11
#614878
07
#614881
13
#614883
01
17
#614886
14
#615059
15
#615063
1)
1*
1.
1-
1,
#615067
0-
0,
0)
0*
0.
#615070
03
#615074
04
#615078
12
#615080
14
#615082
02
#615172
1(
#615184
11
04
#615188
12
#615193
01
#615194
02
#615359
05
#615363
1!
1%
1"
1&
#615365
0"
0&
0(
0$
0#
0!
0%
#615366
1'
1(
1#
#615374
13
#615459
15
#615463
1-
1)
1,
1.
1*
#615467
16
#615468
14
#615470
0#
0(
#615471
03
#615473
04
#615477
06
#615479
12
#615481
11
#615558
0.
1/
#615564
13
#615566
1#
1$
#615567
0*
0/
0-
0,
0)
#615568
01
#615572
02
#615574
03
#615672
1(
#615682
13
#615684
14
#615759
05
#615763
1"
1%
1!
#615765
0%
0!
0(
0$
0#
0"
#615770
0'
1$
1#
#615772
03
#615774
04
#615776
11
#615778
07
#615781
13
#615783
01
17
#615786
14
#615959
15
#615963
1,
1)
1-
1*
1/
#615967
0*
0/
0,
0)
0-
#615972
04
#615974
03
#615978
13
#615980
14
#615982
03
#616072
1(
#616084
11
04
#616088
12
#616093
01
#616094
02
#616259
05
#616263
1%
1'
1!
1"
#616265
0!
0"
0(
0#
0$
0%
#616266
1(
1#
#616271
13
#616359
15
#616363
1,
1/
1-
1*
1)
#616367
16
#616368
14
#616370
0#
0(
#616371
12
#616377
06
#616378
04
#616458
0/
#616466
1$
1#
#616467
0)
0*
0-
0,
#616472
02
#616474
03
#616572
1(
#616582
13
#616584
14
#616659
05
#616663
1%
1"
1!
#616665
0"
0!
0(
0$
0%
0'
0#
#616666
1'
#616670
1$
1#
0'
#616672
03
#616674
04
#616676
11
#616678
07
#616681
13
#616683
01
17
#616686
14
#616859
15
#616863
1-
1,
1*
1)
#616867
0-
0,
0*
0)
#616870
03
#616873
04
#616880
14
#616972
1(
#616984
11
04
#616988
12
#616993
01
#616994
02
#617159
05
#617163
1"
1!
1%
#617165
0!
0%
0#
0(
0"
0$
#617166
1'
1#
1(
#617174
13
#617259
15
#617263
1*
1,
1-
1)
#617267
16
#617268
14
#617270
0#
0(
#617271
12
#617277
06
#617278
04
#617358
1/
1.
0-
#617363
02
#617364
03
#617366
1#
1$
#617367
0.
0)
0/
0,
0*
#617370
13
11
#617372
14
#617376
03
#617379
01
#617381
04
#617472
1(
#617482
13
#617484
14
#617559
05
#617563
1!
1&
1"
#617565
0&
0"
0#
0(
0!
0$
#617570
0'
1#
1$
#617572
03
#617574
04
#617576
11
#617578
07
#617581
13
#617583
01
17
#617586
14
#617759
15
#617763
1,
1.
1*
1/
1)
#617767
0/
0)
0,
0.
0*
#617769
03
#617772
04
#617778
13
12
#617780
14
#617782
03
02
#617872
1(
#617884
11
04
#617888
12
#617893
01
#617894
02
#618059
05
#618063
1'
1"
1&
1!
#618065
0&
0!
0#
0$
0(
0"
#618066
1#
1(
#618071
13
#618159
15
#618163
1,
1)
1/
1*
1.
#618167
16
#618168
14
#618170
0#
0(
#618171
03
#618173
04
#618174
12
#618177
06
#618182
13
11
#618184
14
02
#618258
0/
#618266
1$
1#
#618267
0*
03
0,
0.
0)
#618279
01
#618281
04
#618372
1(
#618382
13
#618384
14
#618459
05
#618463
1"
1&
1!
#618465
0&
0!
0"
0#
0(
0'
0$
#618466
1'
#618470
1#
1$
0'
#618472
03
#618474
04
#618476
11
#618478
07
#618481
13
#618483
01
17
#618486
14
#618659
15
#618663
1.
1)
1,
1*
#618667
0.
0)
0,
0*
#618670
03
#618673
04
#618678
12
#618680
14
#618682
02
#618772
1(
#618784
04
11
#618788
12
#618793
01
#618794
02
#618959
05
#618963
1!
1"
1&
#618965
0#
0&
0$
0!
0"
0(
#618966
1'
1#
1(
#618974
13
#619059
15
#619063
1.
1)
1,
1*
#619067
16
#619068
14
#619070
0(
0#
#619071
03
#619073
04
#619074
12
#619077
06
#619082
11
#619084
14
02
#619158
1/
0.
#619166
1#
1$
#619167
0*
0/
13
0)
0,
#619170
01
#619172
04
#619176
03
#619272
1(
#619282
13
#619284
14
#619359
05
#619363
1"
1!
#619365
0$
0(
0"
0!
0#
#619370
0'
1$
1#
#619372
03
#619374
04
#619376
11
#619378
07
#619381
13
#619383
01
17
#619386
14
#619559
15
#619563
1)
1,
1*
1/
#619567
0)
0,
0*
0/
#619569
03
#619572
04
#619578
13
#619580
14
#619582
03
#619672
1(
#619684
11
04
#619688
12
#619693
01
#619694
02
#619859
05
#619863
1'
1!
1"
#619865
0#
0$
0!
0"
0(
#619866
1#
1(
#619871
13
#619959
15
#619963
1)
1*
1,
1/
#619967
16
#619968
14
#619970
0(
0#
#619977
06
#619979
04
#620058
0/
#620066
1$
1#
#620067
0)
0,
03
0*
#620172
1(
#620182
13
#620184
14
#620259
05
#620263
1"
1!
#620265
0#
0!
0$
0(
0"
0'
#620266
1'
#620270
1#
1$
0'
#620272
03
#620274
04
#620276
11
#620278
07
#620281
13
#620283
01
17
#620286
14
#620459
15
#620463
1*
1)
1,
#620467
0*
0)
0,
#620471
03
#620473
04
#620480
14
#620572
1(
#620584
11
04
#620588
12
#620593
01
#620594
02
#620759
05
#620763
1"
1!
#620765
0"
0!
0#
0$
0(
#620766
1'
1#
1(
#620771
13
#620859
15
#620863
1,
1)
1*
#620867
16
#620868
14
#620870
0#
0(
#620877
06
#620879
04
#620880
03
#620958
1/
1-
0,
1.
#620963
12
#620966
1$
1#
#620967
0)
0.
0*
0/
0-
#620968
11
#620972
02
#620976
01
#621072
1(
#621082
13
#621084
14
#621159
05
#621163
1&
1"
1!
1%
#621165
0!
0%
0"
0(
0#
0$
0&
#621170
0'
1#
1$
#621172
03
#621174
04
#621176
11
#621178
07
#621181
13
#621183
01
17
#621186
14
#621359
15
#621363
1.
1-
1)
1/
1*
#621367
0/
0*
0.
0-
0)
#621369
03
#621372
04
#621378
13
12
#621380
14
#621382
03
02
#621472
1(
#621484
04
11
#621488
12
#621493
01
#621494
02
#621659
05
#621663
1%
1!
1"
1'
1&
#621665
0(
0&
0$
0%
0!
0"
0#
#621666
1(
1#
#621671
13
#621759
15
#621763
1)
1.
1*
1/
1-
#621767
16
#621768
14
#621770
0#
0(
#621771
03
#621773
04
#621777
06
#621779
12
#621781
11
#621858
0/
#621866
1$
1#
#621867
0-
0)
0*
0.
#621872
02
#621876
01
#621972
1(
#621982
13
#621984
14
#622059
05
#622063
1&
1"
1!
1%
#622065
0!
0%
0(
0'
0$
0#
0&
0"
#622066
1'
#622070
1$
1#
0'
#622072
03
#622074
04
#622076
11
#622078
07
#622081
13
#622083
01
17
#622086
14
#622259
15
#622263
1.
1*
1)
1-
#622267
0.
0*
0)
0-
#622270
03
#622274
04
#622278
12
#622280
14
#622282
02
#622372
1(
#622384
11
04
#622388
12
#622393
01
#622394
02
#622559
05
#622563
1%
1!
1&
1"
#622565
0&
0"
0!
0(
0#
0$
0%
#622566
1(
1#
1'
#622574
13
#622659
15
#622663
1)
1.
1*
1-
#622667
16
#622668
14
#622670
0(
0#
#622671
03
#622673
04
#622677
06
#622679
12
#622681
11
#622758
1/
0.
#622764
13
#622766
1#
1$
#622767
0-
0/
0)
0*
#622768
01
#622772
02
#622774
03
#622872
1(
#622882
13
#622884
14
#622959
05
#622963
1"
1!
1%
#622965
0!
0%
0(
0#
0$
0"
#622970
0'
1#
1$
#622972
03
#622974
04
#622976
11
#622978
07
#622981
13
#622983
01
17
#622986
14
#623159
15
#623163
1)
1*
1-
1/
#623167
0)
0*
0-
0/
#623172
04
#623174
03
#623178
13
#623180
14
#623182
03
#623272
1(
#623284
04
11
#623288
12
#623293
01
#623294
02
#623459
05
#623463
1!
1%
1'
1"
#623465
0#
0$
0!
0"
0%
0(
#623466
1#
1(
#623471
13
#623559
15
#623563
1-
1*
1)
1/
#623567
16
#623568
14
#623570
0#
0(
#623571
12
#623577
06
#623578
04
#623658
0/
#623666
1$
1#
#623667
0-
0)
0*
#623672
02
#623674
03
#623772
1(
#623782
13
#623784
14
#623859
05
#623863
1%
1!
1"
#623865
0!
0"
0$
0'
0(
0%
0#
#623866
1'
#623870
1$
1#
0'
#623872
03
#623874
04
#623876
11
#623878
07
#623881
13
#623883
01
17
#623886
14
#624059
15
#624063
1)
1*
1-
#624067
0)
0*
0-
#624070
03
#624073
04
#624080
14
#624172
1(
#624184
11
04
#624188
12
#624193
01
#624194
02
#624359
05
#624363
1"
1!
1%
#624365
0!
0%
0#
0$
0(
0"
#624366
1'
1#
1(
#624374
13
#624459
15
#624463
1-
1*
1)
#624467
16
#624468
14
#624470
0#
0(
#624471
12
#624477
06
#624478
04
#624558
1/
1.
0-
#624563
02
#624564
03
#624566
1$
1#
#624567
0*
0.
0/
0)
#624570
13
11
#624572
14
#624576
03
#624579
01
#624581
04
#624672
1(
#624682
13
#624684
14
#624759
05
#624763
1!
1&
1"
#624765
0&
0"
0!
0#
0(
0$
#624770
0'
1#
1$
#624772
03
#624774
04
#624776
11
#624778
07
#624781
13
#624783
01
17
#624786
14
#624959
15
#624963
1*
1/
1)
1.
#624967
0*
0/
0)
0.
#624969
03
#624972
04
#624978
12
13
#624980
14
#624982
02
03
#625072
1(
#625084
11
04
#625088
12
#625093
01
#625094
02
#625259
05
#625263
1"
1'
1!
1&
#625265
0!
0&
0$
0(
0"
0#
#625266
1(
1#
#625271
13
#625359
15
#625363
1)
1/
1*
1.
#625367
16
#625368
14
#625370
0#
0(
#625371
03
#625373
04
#625374
12
#625377
06
#625382
13
11
#625384
14
02
#625458
0/
#625466
1#
1$
#625467
0.
0*
03
0)
#625479
01
#625481
04
#625572
1(
#625582
13
#625584
14
#625659
05
#625663
1"
1!
1&
#625665
0!
0&
0#
0(
0$
0"
0'
#625666
1'
#625670
1#
1$
0'
#625672
03
#625674
04
#625676
11
#625678
07
#625681
13
#625683
01
17
#625686
14
#625859
15
#625863
1.
1)
1*
#625867
0.
0)
0*
#625870
03
#625873
04
#625878
12
#625880
14
#625882
02
#625972
1(
#625984
11
04
#625988
12
#625993
01
#625994
02
#626159
05
#626163
1!
1"
1&
#626165
0(
0&
0$
0#
0!
0"
#626166
1(
1'
1#
#626174
13
#626259
15
#626263
1*
1)
1.
#626267
16
#626268
14
#626270
0#
0(
#626271
03
#626273
04
#626274
12
#626277
06
#626282
11
#626284
14
02
#626358
0.
1/
#626366
1$
1#
#626367
0*
0/
13
0)
#626370
01
#626372
04
#626376
03
#626472
1(
#626482
13
#626484
14
#626559
05
#626563
1!
1"
#626565
0!
0"
0$
0#
0(
#626570
1$
1#
0'
#626572
03
#626574
04
#626576
11
#626578
07
#626581
13
#626583
01
17
#626586
14
#626759
15
#626763
1)
1*
1/
#626767
0)
0*
0/
#626769
03
#626772
04
#626778
13
#626780
14
#626782
03
#626872
1(
#626884
11
04
#626888
12
#626893
01
#626894
02
#627059
05
#627063
1"
1!
1'
#627065
0#
0"
0!
0(
0$
#627066
1#
1(
#627071
13
#627159
15
#627163
1/
1*
1)
#627167
16
#627168
14
#627170
0(
0#
#627177
06
#627179
04
#627258
0/
1+
#627266
1$
1#
#627267
0)
0*
0+
03
#627372
1(
#627382
13
#627384
14
#627459
05
#627463
1"
1!
#627465
0$
0(
0"
0!
0'
#627466
1'
#627467
0#
#627470
1$
0'
1#
#627474
04
#627476
11
#627483
01
#627486
14
#627659
15
#627663
1+
1)
1*
#627667
0+
0)
0*
#627671
03
#627673
04
#627680
14
#627772
1(
#627784
04
11
#627788
12
#627793
01
#627794
02
#627959
05
#627963
1!
1"
#627965
0$
0(
0!
0"
#627966
1'
1(
#627971
13
#628059
15
#628063
1)
1*
1+
#628067
16
#628068
14
#628070
0(
0#
#628077
06
#628079
04
#628080
03
#628158
1/
1.
1-
0+
1,
#628163
12
#628166
1$
1#
#628167
0,
0/
0-
0*
0.
0)
#628168
11
#628172
02
#628176
01
#628272
1(
#628282
13
#628284
14
#628359
05
#628363
1%
1&
1"
1!
#628365
0"
0!
0(
0#
0$
0%
0&
#628370
0'
1#
1$
#628372
03
#628374
04
#628376
11
#628378
07
#628381
13
#628383
01
17
#628386
14
#628559
15
#628563
1)
1.
1*
1,
1-
1/
#628567
0-
0/
0)
0.
0*
0,
#628569
03
#628572
04
#628578
12
13
#628580
14
#628582
02
03
#628672
1(
#628684
11
04
#628688
12
#628693
01
#628694
02
#628859
05
#628863
1!
1"
1'
1&
1%
#628865
0&
0%
0"
0$
0(
0!
0#
#628866
1(
1#
#628871
13
#628959
15
#628963
1)
1/
1,
1-
1*
1.
#628967
16
#628968
14
#628970
0#
0(
#628971
03
#628973
04
#628977
06
#628979
12
#628981
11
#629058
0/
#629066
1#
1$
#629067
0*
0.
0)
0-
0,
#629072
02
#629076
01
#629172
1(
#629182
13
#629184
14
#629259
05
#629263
1&
1!
1%
1"
#629265
0%
0"
0!
0#
0&
0$
0(
0'
#629266
1'
#629270
1#
1$
0'
#629272
03
#629274
04
#629276
11
#629278
07
#629281
13
#629283
01
17
#629286
14
#629459
15
#629463
1,
1-
1)
1*
1.
#629467
0*
0.
0,
0-
0)
#629470
03
#629474
04
#629478
12
#629480
14
#629482
02
#629572
1(
#629584
11
04
#629588
12
#629593
01
#629594
02
#629759
05
#629763
1%
1!
1"
1&
#629765
0"
0&
0#
0$
0(
0!
0%
#629766
1'
1#
1(
#629774
13
#629859
15
#629863
1,
1*
1.
1)
1-
#629867
16
#629868
14
#629870
0(
0#
#629871
03
#629873
04
#629877
06
#629879
12
#629881
11
#629958
0.
1/
#629964
13
#629966
1#
1$
#629967
0-
0/
0)
0,
0*
#629968
01
#629972
02
#629974
03
#630072
1(
#630082
13
#630084
14
#630159
05
#630163
1"
1%
1!
#630165
0%
0!
0(
0$
0#
0"
#630170
0'
1$
1#
#630172
03
#630174
04
#630176
11
#630178
07
#630181
13
#630183
01
17
#630186
14
#630359
15
#630363
1,
1*
1)
1/
1-
#630367
0/
0-
0,
0*
0)
#630372
04
#630374
03
#630378
13
#630380
14
#630382
03
#630472
1(
#630484
11
04
#630488
12
#630493
01
#630494
02
#630659
05
#630663
1%
1'
1!
1"
#630665
0!
0"
0(
0#
0$
0%
#630666
1(
1#
#630671
13
#630759
15
#630763
1,
1-
1)
1/
1*
#630767
16
#630768
14
#630770
0#
0(
#630771
12
#630777
06
#630778
04
#630858
0/
#630866
1$
1#
#630867
0*
0,
0)
0-
#630872
02
#630874
03
#630972
1(
#630982
13
#630984
14
#631059
05
#631063
1%
1!
1"
#631065
0!
0"
0%
0$
0(
0#
0'
#631066
1'
#631070
1$
1#
0'
#631072
03
#631074
04
#631076
11
#631078
07
#631081
13
#631083
01
17
#631086
14
#631259
15
#631263
1)
1-
1,
1*
#631267
0)
0-
0,
0*
#631270
03
#631273
04
#631280
14
#631372
1(
#631384
04
11
#631388
12
#631393
01
#631394
02
#631559
05
#631563
1%
1"
1!
#631565
0"
0!
0#
0(
0%
0$
#631566
1'
1#
1(
#631574
13
#631659
15
#631663
1,
1-
1*
1)
#631667
16
#631668
14
#631670
0#
0(
#631671
12
#631677
06
#631678
04
#631758
1.
1/
0-
#631763
02
#631764
03
#631766
1#
1$
#631767
0*
0/
0.
0)
0,
#631770
13
11
#631772
14
#631776
03
#631779
01
#631781
04
#631872
1(
#631882
13
#631884
14
#631959
05
#631963
1!
1&
1"
#631965
0&
0"
0(
0$
0!
0#
#631970
0'
1$
1#
#631972
03
#631974
04
#631976
11
#631978
07
#631981
13
#631983
01
17
#631986
14
#632159
15
