700000.fsdb.vcd
$date
	Wed Aug 29 17:06:44 2001

$end
$version
	VERILOG-XL 3.10.p001
$end
$timescale
	1ns
$end
$scope module system $end
$scope module i_cpu $end
$scope module i_ALUB $end
$scope module i_alu $end
$var wire 1 ! a [7] $end
$var wire 1 " a [6] $end
$var wire 1 # a [5] $end
$var wire 1 $ a [4] $end
$var wire 1 % a [3] $end
$var wire 1 & a [2] $end
$var wire 1 ' a [1] $end
$var wire 1 ( a [0] $end
$var wire 1 ) b [7] $end
$var wire 1 * b [6] $end
$var wire 1 + b [5] $end
$var wire 1 , b [4] $end
$var wire 1 - b [3] $end
$var wire 1 . b [2] $end
$var wire 1 / b [1] $end
$var wire 1 0 b [0] $end
$var wire 1 1 four [3] $end
$var wire 1 2 four [2] $end
$var wire 1 3 four [1] $end
$var wire 1 4 four [0] $end
$var wire 1 5 cin $end
$var wire 1 6 carry $end
$var wire 1 7 big $end
$upscope $end
$upscope $end
$upscope $end
$upscope $end
$enddefinitions $end
#700000
$dumpvars
0!
17
0"
0$
1(
00
01
0)
02
13
0%
0*
04
05
0+
06
1#
0&
0,
0-
1'
0.
0/
$end
#700059
15
#700063
1*
1)
1+
#700067
16
#700068
14
#700070
0(
0#
#700077
06
#700079
04
#700080
03
#700158
0+
1/
1.
1-
1,
#700163
12
#700166
1$
1#
#700167
0-
0,
0/
0.
0)
0*
#700168
11
#700172
02
#700176
01
#700272
1(
#700282
13
#700284
14
#700359
05
#700363
1"
1!
1%
1&
#700365
0%
0&
0"
0#
0(
0$
0!
#700370
1#
1$
0'
#700372
03
#700374
04
#700376
11
#700378
07
#700381
13
#700383
01
17
#700386
14
#700559
15
#700563
1)
1-
1*
1,
1/
1.
#700567
0/
0.
0)
0-
0*
0,
#700569
03
#700572
04
#700578
12
13
#700580
14
#700582
02
03
#700672
1(
#700684
11
04
#700688
12
#700693
01
#700694
02
#700859
05
#700863
1!
1'
1"
1%
1&
#700865
0%
0&
0(
0$
0!
0"
0#
#700866
1(
1#
#700871
13
#700959
15
#700963
1)
1,
1.
1/
1*
1-
#700967
16
#700968
14
#700970
0#
0(
#700971
03
#700973
04
#700977
06
#700979
12
#700981
11
#701058
0/
#701066
1$
1#
#701067
0-
0,
0*
0)
0.
#701072
02
#701076
01
#701172
1(
#701182
13
#701184
14
#701259
05
#701263
1"
1%
1&
1!
#701265
0&
0!
0#
0$
0(
0"
0%
0'
#701266
1'
#701270
1#
1$
0'
#701272
03
#701274
04
#701276
11
#701278
07
#701281
13
#701283
01
17
#701286
14
#701459
15
#701463
1.
1)
1-
1*
1,
#701467
0*
0,
0.
0)
0-
#701470
03
#701474
04
#701478
12
#701480
14
#701482
02
#701572
1(
#701584
11
04
#701588
12
#701593
01
#701594
02
#701606
05
#701608
0$
0#
0(
#701619
11
#701621
07
#701626
01
#701629
14
#701634
04
#701859
15
#701874
14
#701972
1(
#701984
11
04
#701988
12
#701993
01
#701994
02
#702059
05
#702065
0(
#702074
14
#702076
11
#702083
01
#702091
04
#702159
15
#702165
1(
#702177
11
#702181
12
#702186
01
#702187
02
#702272
1'
0(
#702459
05
#702466
0'
#702467
1&
1$
1(
1"
#702480
17
#702481
11
13
#702558
1*
10
1.
1,
#702559
15
#702566
0&
0"
1'
0$
#702567
0,
00
0.
0*
#702569
14
12
#702571
07
#702574
17
#702576
01
#702577
02
#702583
07
#702672
0'
1&
0(
#702682
11
#702683
12
#702684
03
#702685
01
#702686
04
#702759
05
#702763
1$
1(
1"
#702770
0(
0"
02
0&
0$
1#
#702775
11
13
#702776
17
#702779
03
#702780
14
#702783
13
#702788
01
#702796
04
#702865
1$
1"
1(
1&
#702866
0#
#702872
03
#702879
11
13
#702959
15
#702964
1*
1.
10
1,
#702966
00
0,
0.
0*
0$
0(
0"
#702978
03
01
#702980
12
07
#703059
05
#703063
1"
1$
1(
#703070
02
#703075
13
11
#703076
17
#703159
15
#703163
0$
0&
0"
0(
#703164
1.
1,
10
1*
#703165
1&
1(
#703166
0*
00
0.
0,
#703180
07
#703272
1'
0(
#703281
03
#703287
14
#703359
05
#703363
1$
1(
1"
#703365
0'
#703368
13
#703370
12
#703374
04
02
#703376
17
#703459
15
#703464
1*
1.
1,
10
#703465
1'
#703466
00
0,
0"
0*
0.
0$
0(
#703474
03
#703475
01
#703478
11
#703480
07
14
#703572
1(
#703583
04
#703584
01
#703759
05
#703763
1$
1"
#703765
0&
0(
0$
0"
0'
#703766
1#
#703775
14
#703776
11
#703778
13
#703779
17
#703783
01
#703791
04
#703859
15
#703863
10
1,
1.
1*
#703866
0#
1%
#703867
0*
0.
00
0,
#703870
03
#703874
12
#703878
02
#703880
07
#703972
1(
#703983
12
#704063
1&
1"
1$
#704065
0%
#704070
02
#704074
13
11
#704076
17
#704159
1'
0(
#704163
0$
0"
0'
0&
#704164
1/
1,
1*
1#
1.
#704165
1%
1(
#704166
0.
0,
0#
0/
0*
#704168
03
#704170
12
#704174
01
#704180
07
#704272
1'
0(
#704279
13
#704359
05
#704361
0%
0'
1#
#704363
1$
1&
1'
1"
#704364
0#
1+
#704365
0'
0$
0&
0"
#704366
02
1#
#704368
03
#704370
1(
0#
#704372
13
#704374
17
#704379
03
07
#704382
17
#704383
14
#704386
11
12
#704391
13
#704394
04
#704461
0+
#704465
1"
1'
1&
1$
#704466
0(
#704471
02
01
03
#704474
07
#704478
11
13
17
#704559
15
#704564
1,
1/
1.
1*
#704565
1%
#704566
0*
0,
0&
0$
0"
0.
0/
#704568
03
#704570
14
12
#704572
13
#704574
01
#704576
04
#704580
07
#704659
05
#704663
1&
1$
1"
#704665
0%
#704669
03
#704670
02
#704675
11
13
#704676
17
#704759
15
#704763
0"
0$
0&
0'
#704764
1.
1*
1/
1,
#704765
1'
1(
1%
#704766
0*
0,
0.
0/
#704768
03
#704770
14
12
#704772
13
#704774
01
#704780
07
#704872
0'
1&
0(
#704878
03
#705059
05
#705063
1'
1$
1"
#705065
0$
0"
0%
0&
0'
#705066
1#
#705070
02
#705072
04
#705078
13
#705079
17
#705159
15
#705163
1/
1,
1*
1.
#705167
16
#705169
03
#705170
0#
1(
1&
1"
1$
#705175
11
#705177
14
#705180
06
#705181
04
#705182
13
01
#705189
07
#705258
0/
0.
10
0,
0*
#705266
0$
1%
0"
#705267
00
#705268
11
#705270
17
#705271
12
#705273
14
#705275
03
#705280
07
#705372
0(
1'
#705379
04
#705559
05
#705563
1(
#705565
0%
0'
0&
#705566
1#
#705570
02
#705574
01
#705575
14
#705579
17
#705584
13
#705587
04
#705670
1"
1'
1&
0(
0#
1$
#705676
03
#705683
11
13
#705759
15
#705763
1,
1/
1*
1.
#705766
0$
0"
1%
1(
#705767
0.
0*
0,
0/
#705768
03
#705770
14
#705771
12
#705772
13
#705775
01
03
#705777
04
02
#705785
07
#705872
0(
0%
0'
1$
0&
#705879
12
13
#705883
11
#705884
14
#705885
02
03
#705890
01
#705892
04
#705897
14
#706059
05
#706063
1&
1'
1"
#706065
0$
0&
0'
0"
#706066
1#
#706072
04
#706078
13
#706079
17
#706081
14
#706087
04
#706163
1/
1.
1,
1*
#706169
03
#706170
1"
1&
0#
1$
1(
#706175
11
#706179
13
#706182
01
03
#706258
0.
10
1+
0*
0,
1-
1)
#706259
15
#706266
0"
0&
#706267
0)
0/
00
0+
0-
#706274
11
#706277
14
#706279
01
#706282
13
#706284
07
#706288
03
#706290
04
#706372
0(
1'
#706459
05
#706463
1!
1(
1#
1%
#706465
0$
0'
0!
0%
#706466
1&
1"
1$
#706467
0#
#706470
0$
1#
1'
0&
0"
0(
#706476
17
13
#706477
11
#706479
12
14
03
#706481
01
#706483
02
04
#706565
1%
1!
1(
#706570
12
#706572
13
#706573
14
#706659
15
#706664
1/
1+
1)
10
1-
#706665
1$
#706666
0-
0/
0!
0(
0#
0%
00
0)
0+
#706673
03
#706674
02
04
#706685
07
#706759
05
#706763
1(
1!
1#
1%
#706765
0$
#706768
12
#706770
13
#706771
14
#706776
17
#706859
15
#706863
0%
0!
0(
#706864
1+
1)
1/
1-
10
#706865
1$
0#
1(
#706866
0-
0)
00
0+
0/
#706874
02
#706883
07
#706972
0'
0(
1&
#706982
11
#706983
12
#706984
03
#706985
01
#706986
04
#707059
05
#707063
1!
1#
1(
1'
1%
#707065
0&
0$
#707070
14
#707071
13
#707159
0'
0#
0%
0!
15
0(
#707164
1%
1#
1'
1(
1!
#707165
1$
1&
#707166
0!
0(
0%
0#
0'
#707167
04
02
#707170
03
#707180
12
#707272
1(
#707284
13
11
#707286
02
#707290
17
#707459
05
#707466
0&
0$
0(
#707467
1'
#707470
12
#707474
07
#707477
03
01
#707479
02
#707558
1/
#707559
15
#707566
1$
1&
#707567
0/
#707568
13
#707576
11
03
#707578
14
#707586
17
#707672
1(
#707683
04
#707684
01
#707759
05
#707765
0$
0(
0&
#707770
1#
1(
#707779
07
#707780
13
#707783
17
#707866
0#
0(
#707873
03
#707879
07
#707959
15
#707964
1/
#707965
1(
1&
1$
#707966
0/
#707985
17
#708059
05
#708065
0$
0&
0(
#708079
07
#708159
15
#708164
1/
#708165
0'
1$
1%
#708166
0/
#708170
12
#708174
02
#708182
17
#708272
1(
#708283
12
#708459
05
#708463
1'
#708465
0$
0(
0%
#708466
1%
#708470
13
#708479
07
#708559
15
#708563
1/
1-
#708566
1$
#708567
0/
0-
#708582
17
#708672
1(
#708680
14
#708759
05
#708765
0$
0(
#708770
1#
0%
1$
0'
#708773
04
02
#708777
03
11
#708779
07
#708781
13
#708783
01
17
#708786
14
#708959
15
#708963
1/
1-
#708967
0/
0-
#708972
04
#708974
03
#708978
13
#708980
14
#708982
03
#709072
1(
#709084
11
04
#709088
12
#709093
01
#709094
02
#709259
05
#709263
1%
1'
#709265
0%
0#
0$
0(
#709266
1#
1(
#709271
13
#709359
15
#709363
1-
1/
#709367
16
#709368
14
#709370
0#
0(
#709371
12
#709378
04
#709391
06
#709395
07
#709458
0/
#709466
1$
1#
#709467
0-
#709472
02
#709474
03
#709479
17
#709572
1(
#709582
13
#709584
14
#709659
05
#709663
1%
#709665
0(
0'
0#
0%
0$
#709666
1'
#709670
1#
1$
0'
#709672
03
#709674
04
#709676
11
#709678
07
#709681
13
#709683
01
17
#709686
14
#709859
15
#709863
1-
#709867
0-
#709870
03
#709873
04
#709880
14
#709972
1(
#709984
11
04
#709988
12
#709993
01
#709994
02
#710159
05
#710163
1%
#710165
0$
0#
0(
0%
#710166
1'
1#
1(
#710174
13
#710259
15
#710263
1-
#710267
16
#710268
14
#710270
0(
0#
#710271
12
#710278
04
#710291
06
#710295
07
#710358
1.
0-
1/
#710363
02
#710364
03
#710366
1#
1$
#710367
0/
0.
#710370
11
13
#710372
14
#710376
03
#710379
01
17
#710381
04
#710472
1(
#710482
13
#710484
14
#710559
05
#710563
1&
#710565
0$
0(
0&
0#
#710570
0'
1$
1#
#710572
03
#710574
04
#710576
11
#710578
07
#710581
13
#710583
01
17
#710586
14
#710759
15
#710763
1.
1/
#710767
0.
0/
#710769
03
#710772
04
#710778
12
13
#710780
14
#710782
02
03
#710872
1(
#710884
11
04
#710888
12
#710893
01
#710894
02
#711059
05
#711063
1'
1&
#711065
0#
0$
0(
0&
#711066
1#
1(
#711071
13
#711159
15
#711163
1/
1.
#711167
16
#711168
14
#711170
0(
0#
#711171
03
#711173
04
#711174
12
#711182
13
11
#711184
14
02
#711192
06
#711196
07
#711258
0/
#711266
1$
1#
#711267
03
0.
#711279
01
17
#711281
04
#711372
1(
#711382
13
#711384
14
#711459
05
#711463
1&
#711465
0'
0(
0$
0&
0#
#711466
1'
#711470
1$
1#
0'
#711472
03
#711474
04
#711476
11
#711478
07
#711481
13
#711483
01
17
#711486
14
#711659
15
#711663
1.
#711667
0.
#711670
03
#711673
04
#711678
12
#711680
14
#711682
02
#711772
1(
#711784
11
04
#711788
12
#711793
01
#711794
02
#711959
05
#711963
1&
#711965
0$
0(
0&
0#
#711966
1'
1(
1#
#711974
13
#712059
15
#712063
1.
#712067
16
#712068
14
#712070
0(
0#
#712071
03
#712073
04
#712074
12
#712082
11
#712084
14
02
#712092
06
#712096
07
#712158
0.
1/
#712166
1$
1#
#712167
13
0/
#712170
01
#712172
04
#712176
03
#712179
17
#712272
1(
#712282
13
#712284
14
#712359
05
#712365
0$
0#
0(
#712370
0'
1$
1#
#712372
03
#712374
04
#712376
11
#712378
07
#712381
13
#712383
01
17
#712386
14
#712559
15
#712563
1/
#712567
0/
#712569
03
#712572
04
#712578
13
#712580
14
#712582
03
#712672
1(
#712684
11
04
#712688
12
#712693
01
#712694
02
#712859
05
#712863
1'
#712865
0$
0(
0#
#712866
1(
1#
#712871
13
#712959
15
#712963
1/
#712967
16
#712968
14
#712970
0#
0(
#712979
04
#713007
06
#713012
07
#713058
1+
0/
1)
1*
#713066
1#
1$
#713067
03
0+
0)
0*
#713071
17
#713172
1(
#713182
13
#713184
14
#713259
05
#713263
1!
1"
#713265
0$
0(
0!
0"
0'
#713266
1'
#713267
0#
#713270
1$
0'
1#
#713274
04
#713276
11
#713283
01
#713286
14
#713459
15
#713463
1)
1*
1+
#713467
0)
0*
0+
#713471
03
#713473
04
#713480
14
#713572
1(
#713584
04
11
#713588
12
#713593
01
#713594
02
#713759
05
#713763
1"
1!
#713765
0$
0(
0"
0!
#713766
1'
1(
#713771
13
#713859
15
#713863
1)
1+
1*
#713867
16
#713868
14
#713870
0#
0(
#713877
06
#713879
04
#713880
03
#713958
1-
1.
1,
0+
1/
#713963
12
#713966
1$
1#
#713967
0/
0-
0,
0*
0.
0)
#713968
11
#713972
02
#713976
01
#714072
1(
#714082
13
#714084
14
#714159
05
#714163
1%
1&
1!
1"
#714165
0!
0"
0&
0(
0#
0$
0%
#714170
1#
1$
0'
#714172
03
#714174
04
#714176
11
#714178
07
#714181
13
#714183
01
17
#714186
14
#714359
15
#714363
1)
1/
1*
1.
1-
1,
#714367
0-
0,
0)
0/
0*
0.
#714369
03
#714372
04
#714378
13
12
#714380
14
#714382
03
02
#714472
1(
#714484
04
11
#714488
12
#714493
01
#714494
02
#714659
05
#714663
1&
1%
1!
1'
1"
#714665
0%
0"
0(
0$
0&
0!
0#
#714666
1(
1#
#714671
13
#714759
15
#714763
1)
1,
1-
1.
1*
1/
#714767
16
#714768
14
#714770
0#
0(
#714771
03
#714773
04
#714777
06
#714779
12
#714781
11
#714858
0/
#714866
1$
1#
#714867
0)
0*
0.
0-
0,
#714872
02
#714876
01
#714972
1(
#714982
13
#714984
14
#715059
05
#715063
1"
1!
1&
1%
#715065
0&
0%
0$
0'
0#
0"
0!
0(
#715066
1'
#715070
1$
1#
0'
#715072
03
#715074
04
#715076
11
#715078
07
#715081
13
#715083
01
17
#715086
14
#715259
15
#715263
1,
1-
1.
1*
1)
#715267
0*
0)
0,
0-
0.
#715270
03
#715274
04
#715278
12
#715280
14
#715282
02
#715372
1(
#715384
11
04
#715388
12
#715393
01
#715394
02
#715559
05
#715563
1&
1!
1"
1%
#715565
0"
0%
0#
0$
0(
0!
0&
#715566
1#
1(
1'
#715574
13
#715659
15
#715663
1,
1*
1)
1.
1-
#715667
16
#715668
14
#715670
0(
0#
#715671
03
#715673
04
#715677
06
#715679
12
#715681
11
#715758
0.
1/
#715764
13
#715766
1#
1$
#715767
0-
0/
0,
0)
0*
#715768
01
#715772
02
#715774
03
#715872
1(
#715882
13
#715884
14
#715959
05
#715963
1%
1"
1!
#715965
0"
0!
0(
0$
0#
0%
#715970
0'
1$
1#
#715972
03
#715974
04
#715976
11
#715978
07
#715981
13
#715983
01
17
#715986
14
#716159
15
#716163
1)
1*
1,
1-
1/
#716167
0-
0/
0)
0*
0,
#716172
04
#716174
03
#716178
13
#716180
14
#716182
03
#716272
1(
#716284
11
04
#716288
12
#716293
01
#716294
02
#716459
05
#716463
1"
1'
1!
1%
#716465
0!
0%
0$
0#
0(
0"
#716466
1#
1(
#716471
13
#716559
15
#716563
1)
1/
1-
1,
1*
#716567
16
#716568
14
#716570
0#
0(
#716571
12
#716577
06
#716578
04
#716658
0/
#716666
1#
1$
#716667
0*
0,
0-
0)
#716672
02
#716674
03
#716772
1(
#716782
13
#716784
14
#716859
05
#716863
1!
1"
1%
#716865
0"
0%
0!
0(
0#
0$
0'
#716866
1'
#716870
1#
1$
0'
#716872
03
#716874
04
#716876
11
#716878
07
#716881
13
#716883
01
17
#716886
14
#717059
15
#717063
1)
1-
1,
1*
#717067
0)
0-
0,
0*
#717070
03
#717073
04
#717080
14
#717172
1(
#717184
11
04
#717188
12
#717193
01
#717194
02
#717359
05
#717363
1!
1%
1"
#717365
0$
0!
0%
0"
0#
0(
#717366
1'
1#
1(
#717374
13
#717459
15
#717463
1,
1-
1)
1*
#717467
16
#717468
14
#717470
0#
0(
#717471
12
#717477
06
#717478
04
#717558
1.
0-
1/
#717563
02
#717564
03
#717566
1#
1$
#717567
0/
0*
0.
0)
0,
#717570
13
11
#717572
14
#717576
03
#717579
01
#717581
04
#717672
1(
#717682
13
#717684
14
#717759
05
#717763
1&
1!
1"
#717765
0!
0"
0$
0(
0&
0#
#717770
0'
1$
1#
#717772
03
#717774
04
#717776
11
#717778
07
#717781
13
#717783
01
17
#717786
14
#717959
15
#717963
1/
1)
1,
1.
1*
#717967
0.
0*
0/
0)
0,
#717969
03
#717972
04
#717978
12
13
#717980
14
#717982
02
03
#718072
1(
#718084
11
04
#718088
12
#718093
01
#718094
02
#718259
05
#718263
1!
1&
1'
1"
#718265
0$
0"
0#
0(
0!
0&
#718266
1#
1(
#718271
13
#718359
15
#718363
1/
1.
1*
1,
1)
#718367
16
#718368
14
#718370
0(
0#
#718371
03
#718373
04
#718374
12
#718377
06
#718382
13
11
#718384
14
02
#718458
0/
#718466
1#
1$
#718467
0)
03
0*
0,
0.
#718479
01
#718481
04
#718572
1(
#718582
13
#718584
14
#718659
05
#718663
1!
1"
1&
#718665
0(
0&
0$
0'
0!
0"
0#
#718666
1'
#718670
1$
1#
0'
#718672
03
#718674
04
#718676
11
#718678
07
#718681
13
#718683
01
17
#718686
14
#718859
15
#718863
1.
1,
1*
1)
#718867
0.
0,
0*
0)
#718870
03
#718873
04
#718878
12
#718880
14
#718882
02
#718972
1(
#718984
11
04
#718988
12
#718993
01
#718994
02
#719159
05
#719163
1"
1!
1&
#719165
0!
0&
0#
0$
0(
0"
#719166
1'
1#
1(
#719174
13
#719259
15
#719263
1.
1*
1,
1)
#719267
16
#719268
14
#719270
0#
0(
#719271
03
#719273
04
#719274
12
#719277
06
#719282
11
#719284
14
02
#719358
0.
1/
#719366
1$
1#
#719367
0*
0/
13
0)
0,
#719370
01
#719372
04
#719376
03
#719472
1(
#719482
13
#719484
14
#719559
05
#719563
1!
1"
#719565
0#
0(
0!
0"
0$
#719570
0'
1#
1$
#719572
03
#719574
04
#719576
11
#719578
07
#719581
13
#719583
01
17
#719586
14
#719759
15
#719763
1)
1,
1/
1*
#719767
0)
0,
0/
0*
#719769
03
#719772
04
#719778
13
#719780
14
#719782
03
#719872
1(
#719884
04
11
#719888
12
#719893
01
#719894
02
#720059
05
#720063
1'
1"
1!
#720065
0$
0(
0"
0!
0#
#720066
1(
1#
#720071
13
#720159
15
#720163
1)
1/
1,
1*
#720167
16
#720168
14
#720170
0#
0(
#720177
06
#720179
04
#720258
0/
#720266
1#
1$
#720267
0,
03
0*
0)
#720372
1(
#720382
13
#720384
14
#720459
05
#720463
1!
1"
#720465
0#
0(
0!
0"
0$
0'
#720466
1'
#720470
1#
1$
0'
#720472
03
#720474
04
#720476
11
#720478
07
#720481
13
#720483
01
17
#720486
14
#720659
15
#720663
1*
1)
1,
#720667
0*
0)
0,
#720671
03
#720673
04
#720680
14
#720772
1(
#720784
11
04
#720788
12
#720793
01
#720794
02
#720959
05
#720963
1!
1"
#720965
0!
0"
0#
0$
0(
#720966
1'
1#
1(
#720971
13
#721059
15
#721063
1,
1)
1*
#721067
16
#721068
14
#721070
0#
0(
#721077
06
#721079
04
#721080
03
#721158
1.
1-
0,
1/
#721163
12
#721166
1$
1#
#721167
0)
0/
0.
0-
0*
#721168
11
#721172
02
#721176
01
#721272
1(
#721282
13
#721284
14
#721359
05
#721363
1!
1"
1&
1%
#721365
0&
0%
0(
0$
0#
0!
0"
#721370
0'
1$
1#
#721372
03
#721374
04
#721376
11
#721378
07
#721381
13
#721383
01
17
#721386
14
#721559
15
#721563
1)
1.
1/
1*
1-
#721567
0*
0-
0)
0.
0/
#721569
03
#721572
04
#721578
12
13
#721580
14
#721582
02
03
#721672
1(
#721684
04
11
#721688
12
#721693
01
#721694
02
#721859
05
#721863
1%
1'
1"
1&
1!
#721865
0&
0!
0$
0#
0%
0"
0(
#721866
1#
1(
#721871
13
#721959
15
#721963
1)
1*
1-
1/
1.
#721967
16
#721968
14
#721970
0#
0(
#721971
03
#721973
04
#721977
06
#721979
12
#721981
11
#722058
0/
#722066
1$
1#
#722067
0.
0)
0-
0*
#722072
02
#722076
01
#722172
1(
#722182
13
#722184
14
#722259
05
#722263
1&
1!
1"
1%
#722265
0"
0%
0$
0'
0#
0&
0!
0(
#722266
1'
#722270
1$
1#
0'
#722272
03
#722274
04
#722276
11
#722278
07
#722281
13
#722283
01
17
#722286
14
#722459
15
#722463
1*
1-
1)
1.
#722467
0*
0-
0)
0.
#722470
03
#722474
04
#722478
12
#722480
14
#722482
02
#722572
1(
#722584
11
04
#722588
12
#722593
01
#722594
02
#722759
05
#722763
1"
1!
1&
1%
#722765
0&
0%
0$
0#
0(
0!
0"
#722766
1'
1#
1(
#722774
13
#722859
15
#722863
1)
1*
1-
1.
#722867
16
#722868
14
#722870
0(
0#
#722871
03
#722873
04
#722877
06
#722879
12
#722881
11
#722958
0.
1/
#722964
13
#722966
1#
1$
#722967
0/
0-
0*
0)
#722968
01
#722972
02
#722974
03
#723072
1(
#723082
13
#723084
14
#723159
05
#723163
1!
1%
1"
#723165
0%
0"
0(
0#
0!
0$
#723170
0'
1#
1$
#723172
03
#723174
04
#723176
11
#723178
07
#723181
13
#723183
01
17
#723186
14
#723359
15
#723363
1*
1)
1/
1-
#723367
0*
0)
0/
0-
#723372
04
#723374
03
#723378
13
#723380
14
#723382
03
#723472
1(
#723484
11
04
#723488
12
#723493
01
#723494
02
#723659
05
#723663
1%
1'
1"
1!
#723665
0"
0!
0(
0#
0$
0%
#723666
1(
1#
#723671
13
#723759
15
#723763
1/
1)
1-
1*
#723767
16
#723768
14
#723770
0#
0(
#723771
12
#723777
06
#723778
04
#723858
0/
#723866
1$
1#
#723867
0*
0-
0)
#723872
02
#723874
03
#723972
1(
#723982
13
#723984
14
#724059
05
#724063
1"
1%
1!
#724065
0%
0!
0"
0$
0(
0#
0'
#724066
1'
#724070
1$
1#
0'
#724072
03
#724074
04
#724076
11
#724078
07
#724081
13
#724083
01
17
#724086
14
#724259
15
#724263
1-
1)
1*
#724267
0-
0)
0*
#724270
03
#724273
04
#724280
14
#724372
1(
#724384
04
11
#724388
12
#724393
01
#724394
02
#724559
05
#724563
1"
1!
1%
#724565
0!
0%
0#
0(
0"
0$
#724566
1'
1#
1(
#724574
13
#724659
15
#724663
1)
1*
1-
#724667
16
#724668
14
#724670
0#
0(
#724671
12
#724677
06
#724678
04
#724758
0-
1/
1.
#724763
02
#724764
03
#724766
1#
1$
#724767
0*
0.
0/
0)
#724770
13
11
#724772
14
#724776
03
#724779
01
#724781
04
#724872
1(
#724882
13
#724884
14
#724959
05
#724963
1"
1!
1&
#724965
0!
0&
0"
0#
0$
0(
#724970
1#
1$
0'
#724972
03
#724974
04
#724976
11
#724978
07
#724981
13
#724983
01
17
#724986
14
#725159
15
#725163
1*
1.
1)
1/
#725167
0*
0.
0)
0/
#725169
03
#725172
04
#725178
12
13
#725180
14
#725182
02
03
#725272
1(
#725284
04
11
#725288
12
#725293
01
#725294
02
#725459
05
#725463
1"
1'
1&
1!
#725465
0(
0"
0&
0!
0$
0#
#725466
1(
1#
#725471
13
#725559
15
#725563
1)
1.
1*
1/
#725567
16
#725568
14
#725570
0#
0(
#725571
03
#725573
04
#725574
12
#725577
06
#725582
13
11
#725584
14
02
#725658
0/
#725666
1$
1#
#725667
0)
0*
03
0.
#725679
01
#725681
04
#725772
1(
#725782
13
#725784
14
#725859
05
#725863
1"
1&
1!
#725865
0&
0!
0#
0'
0$
0(
0"
#725866
1'
#725870
1$
1#
0'
#725872
03
#725874
04
#725876
11
#725878
07
#725881
13
#725883
01
17
#725886
14
#726059
15
#726063
1)
1.
1*
#726067
0)
0.
0*
#726070
03
#726073
04
#726078
12
#726080
14
#726082
02
#726172
1(
#726184
04
11
#726188
12
#726193
01
#726194
02
#726359
05
#726363
1"
1&
1!
#726365
0(
0!
0$
0"
0&
0#
#726366
1'
1(
1#
#726374
13
#726459
15
#726463
1)
1.
1*
#726467
16
#726468
14
#726470
0#
0(
#726471
03
#726473
04
#726474
12
#726477
06
#726482
11
#726484
14
02
#726558
1/
0.
#726566
1#
1$
#726567
0*
13
0/
0)
#726570
01
#726572
04
#726576
03
#726672
1(
#726682
13
#726684
14
#726759
05
#726763
1!
1"
#726765
0$
0(
0!
0"
0#
#726770
0'
1$
1#
#726772
03
#726774
04
#726776
11
#726778
07
#726781
13
#726783
01
17
#726786
14
#726959
15
#726963
1/
1*
1)
#726967
0/
0*
0)
#726969
03
#726972
04
#726978
13
#726980
14
#726982
03
#727072
1(
#727084
11
04
#727088
12
#727093
01
#727094
02
#727259
05
#727263
1'
1!
1"
#727265
0#
0$
0!
0"
0(
#727266
1#
1(
#727271
13
#727359
15
#727363
1/
1*
1)
#727367
16
#727368
14
#727370
0#
0(
#727377
06
#727379
04
#727458
0/
1+
#727466
1$
1#
#727467
03
0*
0+
0)
#727572
1(
#727582
13
#727584
14
#727659
05
#727663
1"
1!
#727665
0$
0(
0"
0!
0'
#727666
1'
#727667
0#
#727670
1$
0'
1#
#727674
04
#727676
11
#727683
01
#727686
14
#727859
15
#727863
1)
1+
1*
#727867
0)
0+
0*
#727871
03
#727873
04
#727880
14
#727972
1(
#727984
04
11
#727988
12
#727993
01
#727994
02
#728159
05
#728163
1"
1!
#728165
0$
0(
0"
0!
#728166
1'
1(
#728171
13
#728259
15
#728263
1*
1)
1+
#728267
16
#728268
14
#728270
0#
0(
#728277
06
#728279
04
#728280
03
#728358
0+
1/
1,
1.
1-
#728363
12
#728366
1$
1#
#728367
0)
0-
0/
0.
0*
0,
#728368
11
#728372
02
#728376
01
#728472
1(
#728482
13
#728484
14
#728559
05
#728563
1%
1&
1!
1"
#728565
0!
0"
0(
0#
0$
0%
0&
#728570
0'
1#
1$
#728572
03
#728574
04
#728576
11
#728578
07
#728581
13
#728583
01
17
#728586
14
#728759
15
#728763
1,
1)
1*
1-
1/
1.
#728767
0/
0.
0,
0)
0*
0-
#728769
03
#728772
04
#728778
13
12
#728780
14
#728782
03
02
#728872
1(
#728884
11
04
#728888
12
#728893
01
#728894
02
#729059
05
#729063
1'
1"
1!
1&
1%
#729065
0&
0%
0$
0(
0"
0!
0#
#729066
1(
1#
#729071
13
#729159
15
#729163
1,
1.
1/
1-
1*
1)
#729167
16
#729168
14
#729170
0(
0#
#729171
03
#729173
04
#729177
06
#729179
12
#729181
11
#729258
0/
#729266
1#
1$
#729267
0)
0*
0-
0,
0.
#729272
02
#729276
01
#729372
1(
#729382
13
#729384
14
#729459
05
#729463
1&
1!
1%
1"
#729465
0%
0"
0(
0'
0#
0$
0&
0!
#729466
1'
#729470
1#
1$
0'
#729472
03
#729474
04
#729476
11
#729478
07
#729481
13
#729483
01
17
#729486
14
#729659
15
#729663
1.
1,
1-
1*
1)
#729667
0*
0)
0.
0,
0-
#729670
03
#729674
04
#729678
12
#729680
14
#729682
02
#729772
1(
#729784
11
04
#729788
12
#729793
01
#729794
02
#729959
05
#729963
1%
1"
1!
1&
#729965
0!
0&
0(
0#
0$
0%
0"
#729966
1'
1(
1#
#729974
13
#730059
15
#730063
1*
1.
1)
1-
1,
#730067
16
#730068
14
#730070
0#
0(
#730071
03
#730073
04
#730077
06
#730079
12
#730081
11
#730158
0.
1/
#730164
13
#730166
1#
1$
#730167
0-
0,
0/
0*
0)
#730168
01
#730172
02
#730174
03
#730272
1(
#730282
13
#730284
14
#730359
05
#730363
1!
1"
1%
#730365
0"
0%
0#
0(
0$
0!
#730370
0'
1#
1$
#730372
03
#730374
04
#730376
11
#730378
07
#730381
13
#730383
01
17
#730386
14
#730559
15
#730563
1-
1*
1)
1,
1/
#730567
0,
0/
0-
0*
0)
#730572
04
#730574
03
#730578
13
#730580
14
#730582
03
#730672
1(
#730684
11
04
#730688
12
#730693
01
#730694
02
#730859
05
#730863
1'
1"
1%
1!
#730865
0%
0!
0(
0$
0#
0"
#730866
1(
1#
#730871
13
#730959
15
#730963
1-
1/
1)
1,
1*
#730967
16
#730968
14
#730970
0(
0#
#730971
12
#730977
06
#730978
04
#731058
0/
#731066
1$
1#
#731067
0*
0,
0)
0-
#731072
02
#731074
03
#731172
1(
#731182
13
#731184
14
#731259
05
#731263
1%
1"
1!
#731265
0"
0!
0(
0'
0$
0%
0#
#731266
1'
#731270
1$
1#
0'
#731272
03
#731274
04
#731276
11
#731278
07
#731281
13
#731283
01
17
#731286
14
#731459
15
#731463
1)
1-
1,
1*
#731467
0)
0-
0,
0*
#731470
03
#731473
04
#731480
14
#731572
1(
#731584
04
11
#731588
12
#731593
01
#731594
02
#731759
05
#731763
1"
1!
1%
#731765
0!
0%
0#
0$
0(
0"
#731766
1'
1#
1(
#731774
13
#731859
15
#731863
1,
1-
1*
1)
#731867
16
#731868
14
#731870
0#
0(
#731871
12
#731877
06
#731878
04
#731958
0-
1.
1/
#731963
02
#731964
03
#731966
1#
1$
#731967
0)
0.
0/
0*
0,
