800000.fsdb.vcd
$date
	Wed Aug 29 17:06:44 2001

$end
$version
	VERILOG-XL 3.10.p001
$end
$timescale
	1ns
$end
$scope module system $end
$scope module i_cpu $end
$scope module i_ALUB $end
$scope module i_alu $end
$var wire 1 ! a [7] $end
$var wire 1 " a [6] $end
$var wire 1 # a [5] $end
$var wire 1 $ a [4] $end
$var wire 1 % a [3] $end
$var wire 1 & a [2] $end
$var wire 1 ' a [1] $end
$var wire 1 ( a [0] $end
$var wire 1 ) b [7] $end
$var wire 1 * b [6] $end
$var wire 1 + b [5] $end
$var wire 1 , b [4] $end
$var wire 1 - b [3] $end
$var wire 1 . b [2] $end
$var wire 1 / b [1] $end
$var wire 1 0 b [0] $end
$var wire 1 1 four [3] $end
$var wire 1 2 four [2] $end
$var wire 1 3 four [1] $end
$var wire 1 4 four [0] $end
$var wire 1 5 cin $end
$var wire 1 6 carry $end
$var wire 1 7 big $end
$upscope $end
$upscope $end
$upscope $end
$upscope $end
$enddefinitions $end
#800000
$dumpvars
0!
17
0"
1$
1(
00
01
0)
02
03
0%
0*
04
15
0+
06
1#
0&
0,
0-
0'
0.
0/
$end
#800159
05
#800163
1"
1!
#800165
0$
0(
0"
0!
#800166
1'
1(
#800171
13
#800259
15
#800263
1)
1*
1+
#800267
16
#800268
14
#800270
0(
0#
#800277
06
#800279
04
#800280
03
#800358
1.
1/
0+
1-
1,
#800363
12
#800366
1$
1#
#800367
0,
0-
0*
0)
0/
0.
#800368
11
#800372
02
#800376
01
#800472
1(
#800482
13
#800484
14
#800559
05
#800563
1!
1"
1%
1&
#800565
0%
0&
0(
0#
0$
0!
0"
#800570
0'
1#
1$
#800572
03
#800574
04
#800576
11
#800578
07
#800581
13
#800583
01
17
#800586
14
#800759
15
#800763
1/
1.
1)
1,
1*
1-
#800767
0*
0-
0/
0.
0)
0,
#800769
03
#800772
04
#800778
12
13
#800780
14
#800782
02
03
#800872
1(
#800884
11
04
#800888
12
#800893
01
#800894
02
#801059
05
#801063
1!
1%
1'
1&
1"
#801065
0&
0"
0(
0$
0%
0!
0#
#801066
1(
1#
#801071
13
#801159
15
#801163
1*
1/
1-
1,
1)
1.
#801167
16
#801168
14
#801170
0(
0#
#801171
03
#801173
04
#801177
06
#801179
12
#801181
11
#801258
0/
#801266
1$
1#
#801267
0*
0.
0)
0-
0,
#801272
02
#801276
01
#801372
1(
#801382
13
#801384
14
#801459
05
#801463
1&
1!
1"
1%
#801465
0"
0%
0#
0'
0$
0&
0!
0(
#801466
1'
#801470
1$
1#
0'
#801472
03
#801474
04
#801476
11
#801478
07
#801481
13
#801483
01
17
#801486
14
#801659
15
#801663
1,
1*
1-
1)
1.
#801667
0)
0.
0,
0*
0-
#801670
03
#801674
04
#801678
12
#801680
14
#801682
02
#801772
1(
#801784
11
04
#801788
12
#801793
01
#801794
02
#801831
05
#801833
0(
0$
0#
#801844
11
#801846
07
#801851
01
#801854
14
#801859
04
#802059
15
#802074
14
#802172
1(
#802184
11
04
#802188
12
#802193
01
#802194
02
#802259
05
#802265
0(
#802274
14
#802276
11
#802283
01
#802291
04
#802359
15
#802365
1(
#802377
11
#802381
12
#802386
01
#802387
02
#802472
0(
1'
#802659
05
#802666
0'
#802667
1"
1(
1$
1&
#802680
17
#802681
11
13
#802758
1,
10
1.
1*
#802759
15
#802766
0&
0$
1'
0"
#802767
0*
0.
0,
00
#802769
14
12
#802771
07
#802774
17
#802776
01
#802777
02
#802783
07
#802872
0'
1&
0(
#802882
11
#802883
12
#802884
03
#802885
01
#802886
04
#802959
05
#802963
1(
1"
1$
#802970
0"
0$
02
1#
0&
0(
#802975
13
11
#802976
17
#802979
03
#802980
14
#802983
13
#802988
01
#802996
04
#803065
1"
1&
1$
1(
#803066
0#
#803072
03
#803079
11
13
#803159
15
#803164
1,
1*
1.
10
#803166
0.
00
0$
0"
0(
0*
0,
#803178
03
01
#803180
07
12
#803259
05
#803263
1$
1(
1"
#803270
02
#803275
11
13
#803276
17
#803359
15
#803363
0(
0"
0&
0$
#803364
1*
1.
1,
10
#803365
1&
1(
#803366
00
0.
0,
0*
#803380
07
#803472
0(
1'
#803481
03
#803487
14
#803559
05
#803563
1$
1(
1"
#803565
0'
#803568
13
#803570
12
#803574
04
02
#803576
17
#803659
15
#803664
1.
1*
1,
10
#803665
1'
#803666
00
0,
0"
0.
0*
0(
0$
#803674
03
#803675
01
#803678
11
#803680
14
07
#803772
1(
#803783
04
#803784
01
#803959
05
#803963
1$
1"
#803965
0&
0(
0$
0"
0'
#803966
1#
#803975
14
#803976
11
#803978
13
#803979
17
#803983
01
#803991
04
#804059
15
#804063
1,
10
1.
1*
#804066
1%
0#
#804067
0.
0,
00
0*
#804070
03
#804074
12
#804078
02
#804080
07
#804172
1(
#804183
12
#804263
1&
1"
1$
#804265
0%
#804270
02
#804274
13
11
#804276
17
#804359
1'
0(
#804363
0$
0"
0'
0&
#804364
1*
1/
1.
1#
1,
#804365
1%
1(
#804366
0,
0/
0#
0*
0.
#804368
03
#804370
12
#804374
01
#804380
07
#804472
1'
0(
#804479
13
#804559
05
#804561
0%
0'
1#
#804563
1$
1&
1'
1"
#804564
0#
1+
#804565
0'
0$
0&
0"
#804566
02
1#
#804568
03
#804570
0#
1(
#804572
13
#804574
17
#804579
03
07
#804582
17
#804583
14
#804586
12
11
#804591
13
#804594
04
#804661
0+
#804665
1"
1'
1&
1$
#804666
0(
#804671
01
02
03
#804674
07
#804678
11
13
17
#804759
15
#804764
1*
1.
1/
1,
#804765
1%
#804766
0,
0.
0$
0*
0/
0"
0&
#804768
03
#804770
12
14
#804772
13
#804774
01
#804776
04
#804780
07
#804859
05
#804863
1&
1$
1"
#804865
0%
#804869
03
#804870
02
#804875
11
13
#804876
17
#804959
15
#804963
0"
0&
0$
0'
#804964
1,
1*
1.
1/
#804965
1%
1(
1'
#804966
0/
0.
0*
0,
#804968
03
#804970
12
14
#804972
13
#804974
01
#804980
07
#805072
0'
0(
1&
#805078
03
#805259
05
#805263
1$
1"
1'
#805265
0"
0'
0&
0%
0$
#805266
1#
#805270
02
#805272
04
#805278
13
#805279
17
#805359
15
#805363
1,
1*
1.
1/
#805367
16
#805369
03
#805370
1&
1(
0#
1$
1"
#805375
11
#805377
14
#805380
06
#805381
04
#805382
13
01
#805389
07
#805458
0/
0.
10
0*
0,
#805466
0$
1%
0"
#805467
00
#805468
11
#805470
17
#805471
12
#805473
14
#805475
03
#805480
07
#805572
1'
0(
#805579
04
#805759
05
#805763
1(
#805765
0&
0%
0'
#805766
1#
#805770
02
#805774
01
#805775
14
#805779
17
#805784
13
#805787
04
#805870
1&
1$
0(
0#
1'
1"
#805876
03
#805883
11
13
#805959
15
#805963
1*
1,
1.
1/
#805966
1%
0"
0$
1(
#805967
0/
0.
0,
0*
#805968
03
#805970
14
#805971
12
#805972
13
#805975
01
03
#805977
04
02
#805985
07
#806072
0(
0'
1$
0&
0%
#806079
12
13
#806083
11
#806084
14
#806085
02
03
#806090
01
#806092
04
#806097
14
#806259
05
#806263
1&
1'
1"
#806265
0$
0&
0'
0"
#806266
1#
#806272
04
#806278
13
#806279
17
#806281
14
#806287
04
#806363
1,
1*
1.
1/
#806369
03
#806370
1"
1$
1(
1&
0#
#806375
11
#806379
13
#806382
01
03
#806458
1)
0.
1+
0*
10
0,
1-
#806459
15
#806466
0"
0&
#806467
0-
0/
0)
00
0+
#806474
11
#806477
14
#806479
01
#806482
13
#806484
07
#806488
03
#806490
04
#806572
0(
1'
#806659
05
#806663
1!
1#
1%
1(
#806665
0%
0$
0!
0'
#806666
1&
1"
1$
#806667
0#
#806670
0$
1#
0"
0&
1'
0(
#806676
17
13
#806677
11
#806679
12
03
14
#806681
01
#806683
02
04
#806765
1%
1!
1(
#806770
12
#806772
13
#806773
14
#806859
15
#806864
1-
10
1+
1)
1/
#806865
1$
#806866
0/
0)
0!
0(
0%
0+
0-
00
0#
#806873
03
#806874
04
02
#806885
07
#806959
05
#806963
1#
1!
1(
1%
#806965
0$
#806968
12
#806970
13
#806971
14
#806976
17
#807059
15
#807063
0(
0%
0!
#807064
10
1/
1-
1)
1+
#807065
1$
0#
1(
#807066
0)
0+
00
0-
0/
#807074
02
#807083
07
#807172
0'
1&
0(
#807182
11
#807183
12
#807184
03
#807185
01
#807186
04
#807259
05
#807263
1(
1!
1%
1'
1#
#807265
0$
0&
#807270
14
#807271
13
#807359
0#
15
0%
0'
0!
0(
#807364
1!
1(
1'
1#
1%
#807365
1$
1&
#807366
0%
0#
0'
0(
0!
#807367
02
04
#807370
03
#807380
12
#807472
1(
#807484
13
11
#807486
02
#807490
17
#807659
05
#807666
0&
0$
0(
#807667
1'
#807670
12
#807674
07
#807677
03
01
#807679
02
#807758
1/
#807759
15
#807766
1$
1&
#807767
0/
#807768
13
#807776
11
03
#807778
14
#807786
17
#807872
1(
#807883
04
#807884
01
#807959
05
#807965
0&
0(
0$
#807970
1#
1(
#807979
07
#807980
13
#807983
17
#808066
0#
0(
#808073
03
#808079
07
#808159
15
#808164
1/
#808165
1(
1$
1&
#808166
0/
#808185
17
#808259
05
#808265
0&
0$
0(
#808279
07
#808359
15
#808364
1/
#808365
0'
1%
1$
#808366
0/
#808370
12
#808374
02
#808382
17
#808472
1(
#808483
12
#808659
05
#808663
1'
#808665
0$
0%
0(
#808666
1%
#808670
13
#808679
07
#808759
15
#808763
1/
1-
#808766
1$
#808767
0/
0-
#808782
17
#808872
1(
#808880
14
#808959
05
#808965
0$
0(
#808970
0%
1#
0'
1$
#808973
04
02
#808977
11
03
#808979
07
#808981
13
#808983
01
17
#808986
14
#809159
15
#809163
1/
1-
#809167
0/
0-
#809172
04
#809174
03
#809178
13
#809180
14
#809182
03
#809272
1(
#809284
11
04
#809288
12
#809293
01
#809294
02
#809459
05
#809463
1'
1%
#809465
0#
0$
0%
0(
#809466
1#
1(
#809471
13
#809559
15
#809563
1/
1-
#809567
16
#809568
14
#809570
0(
0#
#809571
12
#809578
04
#809591
06
#809595
07
#809658
0/
#809666
1#
1$
#809667
0-
#809672
02
#809674
03
#809679
17
#809772
1(
#809782
13
#809784
14
#809859
05
#809863
1%
#809865
0#
0%
0'
0$
0(
#809866
1'
#809870
1#
1$
0'
#809872
03
#809874
04
#809876
11
#809878
07
#809881
13
#809883
01
17
#809886
14
#810059
15
#810063
1-
#810067
0-
#810070
03
#810073
04
#810080
14
#810172
1(
#810184
11
04
#810188
12
#810193
01
#810194
02
#810359
05
#810363
1%
#810365
0$
0#
0(
0%
#810366
1'
1#
1(
#810374
13
#810459
15
#810463
1-
#810467
16
#810468
14
#810470
0(
0#
#810471
12
#810478
04
#810491
06
#810495
07
#810558
0-
1.
1/
#810563
02
#810564
03
#810566
1$
1#
#810567
0/
0.
#810570
11
13
#810572
14
#810576
03
#810579
17
01
#810581
04
#810672
1(
#810682
13
#810684
14
#810759
05
#810763
1&
#810765
0#
0$
0(
0&
#810770
1$
0'
1#
#810772
03
#810774
04
#810776
11
#810778
07
#810781
13
#810783
01
17
#810786
14
#810959
15
#810963
1.
1/
#810967
0.
0/
#810969
03
#810972
04
#810978
12
13
#810980
14
#810982
02
03
#811072
1(
#811084
11
04
#811088
12
#811093
01
#811094
02
#811259
05
#811263
1'
1&
#811265
0$
0(
0&
0#
#811266
1(
1#
#811271
13
#811359
15
#811363
1/
1.
#811367
16
#811368
14
#811370
0(
0#
#811371
03
#811373
04
#811374
12
#811382
13
11
#811384
14
02
#811392
06
#811396
07
#811458
0/
#811466
1$
1#
#811467
0.
03
#811479
01
17
#811481
04
#811572
1(
#811582
13
#811584
14
#811659
05
#811663
1&
#811665
0(
0#
0'
0&
0$
#811666
1'
#811670
1#
1$
0'
#811672
03
#811674
04
#811676
11
#811678
07
#811681
13
#811683
01
17
#811686
14
#811859
15
#811863
1.
#811867
0.
#811870
03
#811873
04
#811878
12
#811880
14
#811882
02
#811972
1(
#811984
11
04
#811988
12
#811993
01
#811994
02
#812159
05
#812163
1&
#812165
0#
0(
0&
0$
#812166
1'
1#
1(
#812174
13
#812259
15
#812263
1.
#812267
16
#812268
14
#812270
0(
0#
#812271
03
#812273
04
#812274
12
#812282
11
#812284
14
02
#812292
06
#812296
07
#812358
0.
1/
#812366
1#
1$
#812367
13
0/
#812370
01
#812372
04
#812376
03
#812379
17
#812472
1(
#812482
13
#812484
14
#812559
05
#812565
0#
0$
0(
#812570
0'
1#
1$
#812572
03
#812574
04
#812576
11
#812578
07
#812581
13
#812583
01
17
#812586
14
#812759
15
#812763
1/
#812767
0/
#812769
03
#812772
04
#812778
13
#812780
14
#812782
03
#812872
1(
#812884
11
04
#812888
12
#812893
01
#812894
02
#813059
05
#813063
1'
#813065
0$
0(
0#
#813066
1(
1#
#813071
13
#813159
15
#813163
1/
#813167
16
#813168
14
#813170
0#
0(
#813179
04
#813207
06
#813212
07
#813258
1)
0/
1+
1*
#813266
1#
1$
#813267
03
0)
0+
0*
#813271
17
#813372
1(
#813382
13
#813384
14
#813459
05
#813463
1!
1"
#813465
0$
0(
0!
0"
0'
#813466
1'
#813467
0#
#813470
1$
0'
1#
#813474
04
#813476
11
#813483
01
#813486
14
#813659
15
#813663
1+
1*
1)
#813667
0+
0*
0)
#813671
03
#813673
04
#813680
14
#813772
1(
#813784
04
11
#813788
12
#813793
01
#813794
02
#813959
05
#813963
1"
1!
#813965
0$
0(
0"
0!
#813966
1'
1(
#813971
13
#814059
15
#814063
1)
1+
1*
#814067
16
#814068
14
#814070
0#
0(
#814077
06
#814079
04
#814080
03
#814158
0+
1,
1.
1-
1/
#814163
12
#814166
1$
1#
#814167
0-
0/
0,
0.
0*
0)
#814168
11
#814172
02
#814176
01
#814272
1(
#814282
13
#814284
14
#814359
05
#814363
1%
1&
1!
1"
#814365
0!
0"
0(
0$
0#
0%
0&
#814370
0'
1$
1#
#814372
03
#814374
04
#814376
11
#814378
07
#814381
13
#814383
01
17
#814386
14
#814559
15
#814563
1-
1)
1*
1/
1,
1.
#814567
0,
0.
0-
0)
0*
0/
#814569
03
#814572
04
#814578
13
12
#814580
14
#814582
03
02
#814672
1(
#814684
11
04
#814688
12
#814693
01
#814694
02
#814859
05
#814863
1"
1%
1'
1!
1&
#814865
0!
0&
0%
0#
0(
0"
0$
#814866
1#
1(
#814871
13
#814959
15
#814963
1-
1.
1,
1/
1*
1)
#814967
16
#814968
14
#814970
0(
0#
#814971
03
#814973
04
#814977
06
#814979
12
#814981
11
#815058
0/
#815066
1#
1$
#815067
0)
0*
0-
0,
0.
#815072
02
#815076
01
#815172
1(
#815182
13
#815184
14
#815259
05
#815263
1!
1%
1"
1&
#815265
0"
0&
0#
0(
0$
0!
0%
0'
#815266
1'
#815270
1#
1$
0'
#815272
03
#815274
04
#815276
11
#815278
07
#815281
13
#815283
01
17
#815286
14
#815459
15
#815463
1.
1,
1-
1*
1)
#815467
0*
0)
0.
0,
0-
#815470
03
#815474
04
#815478
12
#815480
14
#815482
02
#815572
1(
#815584
11
04
#815588
12
#815593
01
#815594
02
#815759
05
#815763
1%
1"
1&
1!
#815765
0&
0!
0(
0#
0$
0%
0"
#815766
1'
1(
1#
#815774
13
#815859
15
#815863
1*
1.
1)
1-
1,
#815867
16
#815868
14
#815870
0#
0(
#815871
03
#815873
04
#815877
06
#815879
12
#815881
11
#815958
0.
1/
#815964
13
#815966
1#
1$
#815967
0,
0/
0-
0*
0)
#815968
01
#815972
02
#815974
03
#816072
1(
#816082
13
#816084
14
#816159
05
#816163
1!
1"
1%
#816165
0"
0%
0(
0$
0#
0!
#816170
0'
1$
1#
#816172
03
#816174
04
#816176
11
#816178
07
#816181
13
#816183
01
17
#816186
14
#816359
15
#816363
1*
1)
1-
1/
1,
#816367
0/
0,
0*
0)
0-
#816372
04
#816374
03
#816378
13
#816380
14
#816382
03
#816472
1(
#816484
11
04
#816488
12
#816493
01
#816494
02
#816659
05
#816663
1"
1'
1%
1!
#816665
0%
0!
0(
0#
0$
0"
#816666
1(
1#
#816671
13
#816759
15
#816763
1*
1,
1-
1/
1)
#816767
16
#816768
14
#816770
0#
0(
#816771
12
#816777
06
#816778
04
#816858
0/
#816866
1$
1#
#816867
0)
0*
0-
0,
#816872
02
#816874
03
#816972
1(
#816982
13
#816984
14
#817059
05
#817063
1"
1!
1%
#817065
0!
0%
0(
0$
0"
0#
0'
#817066
1'
#817070
1$
1#
0'
#817072
03
#817074
04
#817076
11
#817078
07
#817081
13
#817083
01
17
#817086
14
#817259
15
#817263
1-
1,
1*
1)
#817267
0-
0,
0*
0)
#817270
03
#817273
04
#817280
14
#817372
1(
#817384
04
11
#817388
12
#817393
01
#817394
02
#817559
05
#817563
1!
1%
1"
#817565
0%
0"
0#
0(
0!
0$
#817566
1'
1#
1(
#817574
13
#817659
15
#817663
1,
1*
1)
1-
#817667
16
#817668
14
#817670
0#
0(
#817671
12
#817677
06
#817678
04
#817758
1/
1.
0-
#817763
02
#817764
03
#817766
1#
1$
#817767
0.
0)
0/
0*
0,
#817770
13
11
#817772
14
#817776
03
#817779
01
#817781
04
#817872
1(
#817882
13
#817884
14
#817959
05
#817963
1&
1!
1"
#817965
0!
0"
0#
0(
0&
0$
#817970
0'
1#
1$
#817972
03
#817974
04
#817976
11
#817978
07
#817981
13
#817983
01
17
#817986
14
#818159
15
#818163
1*
1.
1/
1,
1)
#818167
0,
0)
0*
0.
0/
#818169
03
#818172
04
#818178
13
12
#818180
14
#818182
03
02
#818272
1(
#818284
11
04
#818288
12
#818293
01
#818294
02
#818459
05
#818463
1'
1"
1&
1!
#818465
0&
0!
0#
0(
0"
0$
#818466
1#
1(
#818471
13
#818559
15
#818563
1*
1)
1/
1,
1.
#818567
16
#818568
14
#818570
0#
0(
#818571
03
#818573
04
#818574
12
#818577
06
#818582
13
11
#818584
14
02
#818658
0/
#818666
1#
1$
#818667
0,
03
0.
0)
0*
#818679
01
#818681
04
#818772
1(
#818782
13
#818784
14
#818859
05
#818863
1"
1&
1!
#818865
0&
0!
0(
0$
0"
0#
0'
#818866
1'
#818870
1$
1#
0'
#818872
03
#818874
04
#818876
11
#818878
07
#818881
13
#818883
01
17
#818886
14
#819059
15
#819063
1)
1.
1*
1,
#819067
0)
0.
0*
0,
#819070
03
#819073
04
#819078
12
#819080
14
#819082
02
#819172
1(
#819184
04
11
#819188
12
#819193
01
#819194
02
#819359
05
#819363
1!
1&
1"
#819365
0#
0"
0$
0!
0&
0(
#819366
1'
1#
1(
#819374
13
#819459
15
#819463
1)
1*
1.
1,
#819467
16
#819468
14
#819470
0#
0(
#819471
03
#819473
04
#819474
12
#819477
06
#819482
11
#819484
14
02
#819558
0.
1/
#819566
1#
1$
#819567
0,
0/
13
0*
0)
#819570
01
#819572
04
#819576
03
#819672
1(
#819682
13
#819684
14
#819759
05
#819763
1"
1!
#819765
0$
0(
0"
0!
0#
#819770
0'
1$
1#
#819772
03
#819774
04
#819776
11
#819778
07
#819781
13
#819783
01
17
#819786
14
#819959
15
#819963
1*
1,
1)
1/
#819967
0*
0,
0)
0/
#819969
03
#819972
04
#819978
13
#819980
14
#819982
03
#820072
1(
#820084
04
11
#820088
12
#820093
01
#820094
02
#820259
05
#820263
1!
1'
1"
#820265
0#
0"
0$
0(
0!
#820266
1#
1(
#820271
13
#820359
15
#820363
1)
1*
1,
1/
#820367
16
#820368
14
#820370
0#
0(
#820377
06
#820379
04
#820458
0/
#820466
1$
1#
#820467
03
0,
0)
0*
#820572
1(
#820582
13
#820584
14
#820659
05
#820663
1!
1"
#820665
0'
0(
0!
0"
0#
0$
#820666
1'
#820670
1#
1$
0'
#820672
03
#820674
04
#820676
11
#820678
07
#820681
13
#820683
01
17
#820686
14
#820859
15
#820863
1)
1*
1,
#820867
0)
0*
0,
#820871
03
#820873
04
#820880
14
#820972
1(
#820984
04
11
#820988
12
#820993
01
#820994
02
#821159
05
#821163
1"
1!
#821165
0#
0(
0"
0!
0$
#821166
1'
1#
1(
#821171
13
#821259
15
#821263
1,
1*
1)
#821267
16
#821268
14
#821270
0(
0#
#821277
06
#821279
04
#821280
03
#821358
1/
1-
0,
1.
#821363
12
#821366
1#
1$
#821367
0.
0*
0/
0-
0)
#821368
11
#821372
02
#821376
01
#821472
1(
#821482
13
#821484
14
#821559
05
#821563
1%
1&
1!
1"
#821565
0!
0"
0(
0#
0$
0%
0&
#821570
0'
1#
1$
#821572
03
#821574
04
#821576
11
#821578
07
#821581
13
#821583
01
17
#821586
14
#821759
15
#821763
1*
1.
1-
1/
1)
#821767
0/
0)
0*
0.
0-
#821769
03
#821772
04
#821778
13
12
#821780
14
#821782
03
02
#821872
1(
#821884
04
11
#821888
12
#821893
01
#821894
02
#822059
05
#822063
1&
1!
1"
1'
1%
#822065
0(
0%
0$
0&
0!
0"
0#
#822066
1(
1#
#822071
13
#822159
15
#822163
1*
1)
1/
1.
1-
#822167
16
#822168
14
#822170
0#
0(
#822171
03
#822173
04
#822177
06
#822179
12
#822181
11
#822258
0/
#822266
1$
1#
#822267
0.
0-
0)
0*
#822272
02
#822276
01
#822372
1(
#822382
13
#822384
14
#822459
05
#822463
1%
1"
1!
1&
#822465
0!
0&
0(
0$
0'
0#
0%
0"
#822466
1'
#822470
1$
1#
0'
#822472
03
#822474
04
#822476
11
#822478
07
#822481
13
#822483
01
17
#822486
14
#822659
15
#822663
1*
1)
1-
1.
#822667
0*
0)
0-
0.
#822670
03
#822674
04
#822678
12
#822680
14
#822682
02
#822772
1(
#822784
11
04
#822788
12
#822793
01
#822794
02
#822959
05
#822963
1!
1&
1"
1%
#822965
0"
0%
0(
0#
0$
0!
0&
#822966
1(
1#
1'
#822974
13
#823059
15
#823063
1*
1-
1)
1.
#823067
16
#823068
14
#823070
0(
0#
#823071
03
#823073
04
#823077
06
#823079
12
#823081
11
#823158
0.
1/
#823164
13
#823166
1#
1$
#823167
0*
0/
0-
0)
#823168
01
#823172
02
#823174
03
#823272
1(
#823282
13
#823284
14
#823359
05
#823363
1"
1!
1%
#823365
0!
0%
0$
0#
0"
0(
#823370
0'
1$
1#
#823372
03
#823374
04
#823376
11
#823378
07
#823381
13
#823383
01
17
#823386
14
#823559
15
#823563
1-
1)
1/
1*
#823567
0-
0)
0/
0*
#823572
04
#823574
03
#823578
13
#823580
14
#823582
03
#823672
1(
#823684
11
04
#823688
12
#823693
01
#823694
02
#823859
05
#823863
1!
1'
1"
1%
#823865
0(
0!
0"
0%
0$
0#
#823866
1(
1#
#823871
13
#823959
15
#823963
1/
1-
1)
1*
#823967
16
#823968
14
#823970
0#
0(
#823971
12
#823977
06
#823978
04
#824058
0/
#824066
1$
1#
#824067
0*
0)
0-
#824072
02
#824074
03
#824172
1(
#824182
13
#824184
14
#824259
05
#824263
1!
1"
1%
#824265
0"
0%
0'
0$
0(
0!
0#
#824266
1'
#824270
1$
1#
0'
#824272
03
#824274
04
#824276
11
#824278
07
#824281
13
#824283
01
17
#824286
14
#824459
15
#824463
1)
1-
1*
#824467
0)
0-
0*
#824470
03
#824473
04
#824480
14
#824572
1(
#824584
11
04
#824588
12
#824593
01
#824594
02
#824759
05
#824763
1"
1!
1%
#824765
0!
0%
0$
0(
0"
0#
#824766
1'
1(
1#
#824774
13
#824859
15
#824863
1*
1-
1)
#824867
16
#824868
14
#824870
0(
0#
#824871
12
#824877
06
#824878
04
#824958
0-
1/
1.
#824963
02
#824964
03
#824966
1#
1$
#824967
0.
0*
0)
0/
#824970
13
11
#824972
14
#824976
03
#824979
01
#824981
04
#825072
1(
#825082
13
#825084
14
#825159
05
#825163
1&
1!
1"
#825165
0!
0"
0#
0$
0(
0&
#825170
0'
1#
1$
#825172
03
#825174
04
#825176
11
#825178
07
#825181
13
#825183
01
17
#825186
14
#825359
15
#825363
1.
1)
1/
1*
#825367
0.
0)
0/
0*
#825369
03
#825372
04
#825378
12
13
#825380
14
#825382
02
03
#825472
1(
#825484
11
04
#825488
12
#825493
01
#825494
02
#825659
05
#825663
1!
1'
1"
1&
#825665
0"
0&
0$
0(
0!
0#
#825666
1(
1#
#825671
13
#825759
15
#825763
1/
1.
1)
1*
#825767
16
#825768
14
#825770
0#
0(
#825771
03
#825773
04
#825774
12
#825777
06
#825782
13
11
#825784
14
02
#825858
0/
#825866
1#
1$
#825867
0*
0)
03
0.
#825879
01
#825881
04
#825972
1(
#825982
13
#825984
14
#826059
05
#826063
1"
1&
1!
#826065
0&
0!
0(
0#
0$
0"
0'
#826066
1'
#826070
1#
1$
0'
#826072
03
#826074
04
#826076
11
#826078
07
#826081
13
#826083
01
17
#826086
14
#826259
15
#826263
1.
1*
1)
#826267
0.
0*
0)
#826270
03
#826273
04
#826278
12
#826280
14
#826282
02
#826372
1(
#826384
11
04
#826388
12
#826393
01
#826394
02
#826559
05
#826563
1&
1!
1"
#826565
0!
0"
0$
0#
0(
0&
#826566
1'
1#
1(
#826574
13
#826659
15
#826663
1.
1)
1*
#826667
16
#826668
14
#826670
0#
0(
#826671
03
#826673
04
#826674
12
#826677
06
#826682
11
#826684
14
02
#826758
0.
1/
#826766
1#
1$
#826767
0*
0/
0)
13
#826770
01
#826772
04
#826776
03
#826872
1(
#826882
13
#826884
14
#826959
05
#826963
1!
1"
#826965
0$
0(
0!
0"
0#
#826970
0'
1$
1#
#826972
03
#826974
04
#826976
11
#826978
07
#826981
13
#826983
01
17
#826986
14
#827159
15
#827163
1)
1/
1*
#827167
0)
0/
0*
#827169
03
#827172
04
#827178
13
#827180
14
#827182
03
#827272
1(
#827284
04
11
#827288
12
#827293
01
#827294
02
#827459
05
#827463
1'
1"
1!
#827465
0$
0!
0#
0(
0"
#827466
1#
1(
#827471
13
#827559
15
#827563
1)
1*
1/
#827567
16
#827568
14
#827570
0(
0#
#827577
06
#827579
04
#827658
1+
0/
#827666
1#
1$
#827667
03
0+
0)
0*
#827772
1(
#827782
13
#827784
14
#827859
05
#827863
1"
1!
#827865
0(
0"
0!
0$
0'
#827866
1'
#827867
0#
#827870
1$
0'
1#
#827874
04
#827876
11
#827883
01
#827886
14
#828059
15
#828063
1)
1*
1+
#828067
0)
0*
0+
#828071
03
#828073
04
#828080
14
#828172
1(
#828184
04
11
#828188
12
#828193
01
#828194
02
#828359
05
#828363
1!
1"
#828365
0$
0(
0!
0"
#828366
1'
1(
#828371
13
#828459
15
#828463
1)
1+
1*
#828467
16
#828468
14
#828470
0(
0#
#828477
06
#828479
04
#828480
03
#828558
1.
0+
1-
1,
1/
#828563
12
#828566
1#
1$
#828567
0/
0)
0.
0-
0*
0,
#828568
11
#828572
02
#828576
01
#828672
1(
#828682
13
#828684
14
#828759
05
#828763
1"
1%
1&
1!
#828765
0&
0!
0%
0#
0$
0"
0(
#828770
1#
1$
0'
#828772
03
#828774
04
#828776
11
#828778
07
#828781
13
#828783
01
17
#828786
14
#828959
15
#828963
1*
1)
1/
1-
1,
1.
#828967
0,
0.
0*
0)
0/
0-
#828969
03
#828972
04
#828978
12
13
#828980
14
#828982
02
03
#829072
1(
#829084
11
04
#829088
12
#829093
01
#829094
02
#829259
05
#829263
1'
1"
1&
1%
1!
#829265
0%
0!
0(
0$
0"
0&
0#
#829266
1(
1#
#829271
13
#829359
15
#829363
1*
1-
1.
1/
1,
1)
#829367
16
#829368
14
#829370
0#
0(
#829371
03
#829373
04
#829377
06
#829379
12
#829381
11
#829458
0/
#829466
1$
1#
#829467
0,
0)
0*
0.
0-
#829472
02
#829476
01
#829572
1(
#829582
13
#829584
14
#829659
05
#829663
1&
1!
1%
1"
#829665
0%
0"
0(
0$
0'
0#
0!
0&
#829666
1'
#829670
1$
1#
0'
#829672
03
#829674
04
#829676
11
#829678
07
#829681
13
#829683
01
17
#829686
14
#829859
15
#829863
1-
1.
1*
1)
1,
#829867
0)
0,
0-
0.
0*
#829870
03
#829874
04
#829878
12
#829880
14
#829882
02
#829972
1(
#829984
11
04
#829988
12
#829993
01
#829994
02
#830159
05
#830163
1%
1!
1"
1&
#830165
0"
0&
0(
0$
0%
0!
0#
#830166
1'
1(
1#
#830174
13
#830259
15
#830263
1)
1-
1,
1*
1.
#830267
16
#830268
14
#830270
0#
0(
#830271
03
#830273
04
#830277
06
#830279
12
#830281
11
#830358
0.
1/
#830364
13
#830366
1#
1$
#830367
0)
0/
0,
0*
0-
#830368
01
#830372
02
#830374
03
#830472
1(
#830482
13
#830484
14
#830559
05
#830563
1!
1"
1%
#830565
0"
0%
0(
0#
0$
0!
#830570
0'
1#
1$
#830572
03
#830574
04
#830576
11
#830578
07
#830581
13
#830583
01
17
#830586
14
#830759
15
#830763
1*
1-
1,
1/
1)
#830767
0/
0)
0*
0-
0,
#830772
04
#830774
03
#830778
13
#830780
14
#830782
03
#830872
1(
#830884
11
04
#830888
12
#830893
01
#830894
02
#831059
05
#831063
1'
1%
1!
1"
#831065
0!
0"
0#
0$
0(
0%
#831066
1#
1(
#831071
13
#831159
15
#831163
1*
1)
1/
1,
1-
#831167
16
#831168
14
#831170
0#
0(
#831171
12
#831177
06
#831178
04
#831258
0/
#831266
1$
1#
#831267
0-
0,
0*
0)
#831272
02
#831274
03
#831372
1(
#831382
13
#831384
14
#831459
05
#831463
1!
1%
1"
#831465
0%
0"
0!
0(
0$
0#
0'
#831466
1'
#831470
1$
1#
0'
#831472
03
#831474
04
#831476
11
#831478
07
#831481
13
#831483
01
17
#831486
14
#831659
15
#831663
1)
1*
1,
1-
#831667
0)
0*
0,
0-
#831670
03
#831673
04
#831680
14
#831772
1(
#831784
11
04
#831788
12
#831793
01
#831794
02
#831959
05
#831963
1!
1"
1%
#831965
0"
0%
0#
0(
0!
0$
#831966
1'
1#
1(
#831974
13
#832059
15
#832063
1,
1*
1-
1)
#832067
16
#832068
14
#832070
0#
0(
#832071
12
#832077
06
#832078
04
