900000.fsdb.vcd
$date
	Wed Aug 29 17:06:44 2001

$end
$version
	VERILOG-XL 3.10.p001
$end
$timescale
	1ns
$end
$scope module system $end
$scope module i_cpu $end
$scope module i_ALUB $end
$scope module i_alu $end
$var wire 1 ! a [7] $end
$var wire 1 " a [6] $end
$var wire 1 # a [5] $end
$var wire 1 $ a [4] $end
$var wire 1 % a [3] $end
$var wire 1 & a [2] $end
$var wire 1 ' a [1] $end
$var wire 1 ( a [0] $end
$var wire 1 ) b [7] $end
$var wire 1 * b [6] $end
$var wire 1 + b [5] $end
$var wire 1 , b [4] $end
$var wire 1 - b [3] $end
$var wire 1 . b [2] $end
$var wire 1 / b [1] $end
$var wire 1 0 b [0] $end
$var wire 1 1 four [3] $end
$var wire 1 2 four [2] $end
$var wire 1 3 four [1] $end
$var wire 1 4 four [0] $end
$var wire 1 5 cin $end
$var wire 1 6 carry $end
$var wire 1 7 big $end
$upscope $end
$upscope $end
$upscope $end
$upscope $end
$enddefinitions $end
#900000
$dumpvars
0!
17
0"
1$
0(
00
01
0)
02
13
0%
0*
14
05
0+
06
1#
0&
0,
0-
0'
0.
0/
$end
#900059
15
#900063
1*
1)
1+
#900067
0*
0)
0+
#900071
03
#900073
04
#900080
14
#900172
1(
#900184
11
04
#900188
12
#900193
01
#900194
02
#900359
05
#900363
1!
1"
#900365
0$
0(
0!
0"
#900366
1(
1'
#900371
13
#900459
15
#900463
1*
1+
1)
#900467
16
#900468
14
#900470
0(
0#
#900477
06
#900479
04
#900480
03
#900558
1.
0+
1/
1-
1,
#900563
12
#900566
1#
1$
#900567
0-
0,
0)
0.
0/
0*
#900568
11
#900572
02
#900576
01
#900672
1(
#900682
13
#900684
14
#900759
05
#900763
1!
1%
1"
1&
#900765
0"
0&
0(
0#
0$
0%
0!
#900770
0'
1#
1$
#900772
03
#900774
04
#900776
11
#900778
07
#900781
13
#900783
01
17
#900786
14
#900959
15
#900963
1,
1-
1*
1.
1)
1/
#900967
0)
0/
0,
0-
0*
0.
#900969
03
#900972
04
#900978
12
13
#900980
14
#900982
02
03
#901072
1(
#901084
11
04
#901088
12
#901093
01
#901094
02
#901259
05
#901263
1&
1"
1'
1!
1%
#901265
0!
0%
0"
0#
0(
0&
0$
#901266
1#
1(
#901271
13
#901359
15
#901363
1)
1,
1/
1*
1.
1-
#901367
16
#901368
14
#901370
0(
0#
#901371
03
#901373
04
#901377
06
#901379
12
#901381
11
#901458
0/
#901466
1$
1#
#901467
0-
0.
0*
0)
0,
#901472
02
#901476
01
#901572
1(
#901582
13
#901584
14
#901659
05
#901663
1!
1&
1"
1%
#901665
0"
0%
0&
0(
0!
0$
0#
0'
#901666
1'
#901670
1$
1#
0'
#901672
03
#901674
04
#901676
11
#901678
07
#901681
13
#901683
01
17
#901686
14
#901859
15
#901863
1,
1)
1*
1.
1-
#901867
0.
0-
0,
0)
0*
#901870
03
#901874
04
#901878
12
#901880
14
#901882
02
#901972
1(
#901984
11
04
#901988
12
#901993
01
#901994
02
#902056
05
#902058
0#
0$
0(
#902069
11
#902071
07
#902076
01
#902079
14
#902084
04
#902259
15
#902274
14
#902372
1(
#902384
11
04
#902388
12
#902393
01
#902394
02
#902459
05
#902465
0(
#902474
14
#902476
11
#902483
01
#902491
04
#902559
15
#902565
1(
#902577
11
#902581
12
#902586
01
#902587
02
#902672
1'
0(
#902859
05
#902866
0'
#902867
1"
1&
1(
1$
#902880
17
#902881
11
13
#902958
1.
1,
10
1*
#902959
15
#902966
0"
1'
0$
0&
#902967
00
0.
0*
0,
#902969
14
12
#902971
07
#902974
17
#902976
01
#902977
02
#902983
07
#903072
1&
0'
0(
#903082
11
#903083
12
#903084
03
#903085
01
#903086
04
#903159
05
#903163
1"
1$
1(
#903170
0$
0(
1#
02
0"
0&
#903175
11
13
#903176
17
#903179
03
#903180
14
#903183
13
#903188
01
#903196
04
#903265
1&
1(
1"
1$
#903266
0#
#903272
03
#903279
11
13
#903359
15
#903364
1*
1,
10
1.
#903366
00
0.
0*
0"
0(
0$
0,
#903378
03
01
#903380
07
12
#903459
05
#903463
1$
1"
1(
#903470
02
#903475
13
11
#903476
17
#903559
15
#903563
0(
0"
0&
0$
#903564
1,
1.
10
1*
#903565
1&
1(
#903566
0*
0.
00
0,
#903580
07
#903672
1'
0(
#903681
03
#903687
14
#903759
05
#903763
1$
1(
1"
#903765
0'
#903768
13
#903770
12
#903774
04
02
#903776
17
#903859
15
#903864
1.
1*
1,
10
#903865
1'
#903866
00
0,
0(
0.
0*
0$
0"
#903874
03
#903875
01
#903878
11
#903880
07
14
#903972
1(
#903983
04
#903984
01
#904159
05
#904163
1"
1$
#904165
0'
0$
0&
0(
0"
#904166
1#
#904175
14
#904176
11
#904178
13
#904179
17
#904183
01
#904191
04
#904259
15
#904263
10
1,
1*
1.
#904266
0#
1%
#904267
0.
0*
00
0,
#904270
03
#904274
12
#904278
02
#904280
07
#904372
1(
#904383
12
#904463
1&
1$
1"
#904465
0%
#904470
02
#904474
13
11
#904476
17
#904559
0(
1'
#904563
0"
0$
0'
0&
#904564
1,
1/
1#
1.
1*
#904565
1%
1(
#904566
0*
0/
0.
0,
0#
#904568
03
#904570
12
#904574
01
#904580
07
#904672
1'
0(
#904679
13
#904759
05
#904761
0%
1#
0'
#904763
1"
1&
1'
1$
#904764
0#
1+
#904765
0'
0"
0&
0$
#904766
1#
02
#904768
03
#904770
1(
0#
#904772
13
#904774
17
#904779
03
07
#904782
17
#904783
14
#904786
11
12
#904791
13
#904794
04
#904861
0+
#904865
1&
1'
1$
1"
#904866
0(
#904871
03
02
01
#904874
07
#904878
13
11
17
#904959
15
#904964
1,
1*
1/
1.
#904965
1%
#904966
0.
0/
0"
0$
0,
0*
0&
#904968
03
#904970
14
12
#904972
13
#904974
01
#904976
04
#904980
07
#905059
05
#905063
1$
1&
1"
#905065
0%
#905069
03
#905070
02
#905075
11
13
#905076
17
#905159
15
#905163
0&
0"
0$
0'
#905164
1*
1.
1/
1,
#905165
1(
1'
1%
#905166
0,
0/
0*
0.
#905168
03
#905170
14
12
#905172
13
#905174
01
#905180
07
#905272
0'
0(
1&
#905278
03
#905459
05
#905463
1$
1'
1"
#905465
0'
0"
0&
0%
0$
#905466
1#
#905470
02
#905472
04
#905478
13
#905479
17
#905559
15
#905563
1*
1,
1.
1/
#905567
16
#905569
03
#905570
0#
1&
1(
1"
1$
#905575
11
#905577
14
#905580
06
#905581
04
#905582
13
01
#905589
07
#905658
10
0*
0/
0.
0,
#905666
1%
0$
0"
#905667
00
#905668
11
#905670
17
#905671
12
#905673
14
#905675
03
#905680
07
#905772
1'
0(
#905779
04
#905959
05
#905963
1(
#905965
0%
0&
0'
#905966
1#
#905970
02
#905974
01
#905975
14
#905979
17
#905984
13
#905987
04
#906070
1$
1"
1'
0(
1&
0#
#906076
03
#906083
11
13
#906159
15
#906163
1.
1,
1*
1/
#906166
0"
1%
0$
1(
#906167
0/
0*
0,
0.
#906168
03
#906170
14
#906171
12
#906172
13
#906175
01
03
#906177
04
02
#906185
07
#906272
0(
0&
1$
0%
0'
#906279
12
13
#906283
11
#906284
14
#906285
02
03
#906290
01
#906292
04
#906297
14
#906459
05
#906463
1&
1'
1"
#906465
0&
0'
0"
0$
#906466
1#
#906472
04
#906478
13
#906479
17
#906481
14
#906487
04
#906563
1.
1,
1*
1/
#906569
03
#906570
1&
0#
1$
1(
1"
#906575
11
#906579
13
#906582
01
03
#906658
0.
10
1+
1-
0*
0,
1)
#906659
15
#906666
0"
0&
#906667
0)
0/
00
0+
0-
#906674
11
#906677
14
#906679
01
#906682
13
#906684
07
#906688
03
#906690
04
#906772
0(
1'
#906859
05
#906863
1#
1%
1(
1!
#906865
0'
0%
0!
0$
#906866
1&
1"
1$
#906867
0#
#906870
0$
1#
0"
1'
0&
0(
#906876
13
17
#906877
11
#906879
12
03
14
#906881
01
#906883
02
04
#906965
1!
1(
1%
#906970
12
#906972
13
#906973
14
#907059
15
#907064
1/
1)
1+
1-
10
#907065
1$
#907066
00
0-
0/
0#
0%
0(
0+
0!
0)
#907073
03
#907074
02
04
#907085
07
#907159
05
#907163
1#
1!
1%
1(
#907165
0$
#907168
12
#907170
13
#907171
14
#907176
17
#907259
15
#907263
0(
0%
0!
#907264
1-
10
1)
1/
1+
#907265
1(
1$
0#
#907266
0/
00
0-
0)
0+
#907274
02
#907283
07
#907372
1&
0'
0(
#907382
11
#907383
12
#907384
03
#907385
01
#907386
04
#907459
05
#907463
1%
1#
1'
1!
1(
#907465
0$
0&
#907470
14
#907471
13
#907559
0!
0'
0#
15
0%
0(
#907564
1%
1(
1#
1'
1!
#907565
1$
1&
#907566
0'
0#
0(
0%
0!
#907567
02
04
#907570
03
#907580
12
#907672
1(
#907684
11
13
#907686
02
#907690
17
#907859
05
#907866
0$
0(
0&
#907867
1'
#907870
12
#907874
07
#907877
03
01
#907879
02
#907958
1/
#907959
15
#907966
1&
1$
#907967
0/
#907968
13
#907976
11
03
#907978
14
#907986
17
#908072
1(
#908083
04
#908084
01
#908159
05
#908165
0$
0&
0(
#908170
1#
1(
#908179
07
#908180
13
#908183
17
#908266
0#
0(
#908273
03
#908279
07
#908359
15
#908364
1/
#908365
1&
1(
1$
#908366
0/
#908385
17
#908459
05
#908465
0$
0(
0&
#908479
07
#908559
15
#908564
1/
#908565
0'
1%
1$
#908566
0/
#908570
12
#908574
02
#908582
17
#908672
1(
#908683
12
#908859
05
#908863
1'
#908865
0%
0$
0(
#908866
1%
#908870
13
#908879
07
#908959
15
#908963
1/
1-
#908966
1$
#908967
0/
0-
#908982
17
#909072
1(
#909080
14
#909159
05
#909165
0$
0(
#909170
0'
1#
1$
0%
#909173
04
02
#909177
03
11
#909179
07
#909181
13
#909183
01
17
#909186
14
#909359
15
#909363
1/
1-
#909367
0/
0-
#909372
04
#909374
03
#909378
13
#909380
14
#909382
03
#909472
1(
#909484
11
04
#909488
12
#909493
01
#909494
02
#909659
05
#909663
1'
1%
#909665
0$
0(
0%
0#
#909666
1(
1#
#909671
13
#909759
15
#909763
1/
1-
#909767
16
#909768
14
#909770
0(
0#
#909771
12
#909778
04
#909791
06
#909795
07
#909858
0/
#909866
1#
1$
#909867
0-
#909872
02
#909874
03
#909879
17
#909972
1(
#909982
13
#909984
14
#910059
05
#910063
1%
#910065
0$
0#
0(
0%
0'
#910066
1'
#910070
1$
1#
0'
#910072
03
#910074
04
#910076
11
#910078
07
#910081
13
#910083
01
17
#910086
14
#910259
15
#910263
1-
#910267
0-
#910270
03
#910273
04
#910280
14
#910372
1(
#910384
11
04
#910388
12
#910393
01
#910394
02
#910559
05
#910563
1%
#910565
0#
0$
0(
0%
#910566
1'
1#
1(
#910574
13
#910659
15
#910663
1-
#910667
16
#910668
14
#910670
0#
0(
#910671
12
#910678
04
#910691
06
#910695
07
#910758
0-
1/
1.
#910763
02
#910764
03
#910766
1$
1#
#910767
0/
0.
#910770
11
13
#910772
14
#910776
03
#910779
17
01
#910781
04
#910872
1(
#910882
13
#910884
14
#910959
05
#910963
1&
#910965
0#
0(
0&
0$
#910970
0'
1#
1$
#910972
03
#910974
04
#910976
11
#910978
07
#910981
13
#910983
01
17
#910986
14
#911159
15
#911163
1.
1/
#911167
0.
0/
#911169
03
#911172
04
#911178
13
12
#911180
14
#911182
03
02
#911272
1(
#911284
11
04
#911288
12
#911293
01
#911294
02
#911459
05
#911463
1&
1'
#911465
0$
0#
0(
0&
#911466
1#
1(
#911471
13
#911559
15
#911563
1/
1.
#911567
16
#911568
14
#911570
0(
0#
#911571
03
#911573
04
#911574
12
#911582
11
13
#911584
14
02
#911592
06
#911596
07
#911658
0/
#911666
1#
1$
#911667
0.
03
#911679
17
01
#911681
04
#911772
1(
#911782
13
#911784
14
#911859
05
#911863
1&
#911865
0#
0&
0$
0'
0(
#911866
1'
#911870
1#
1$
0'
#911872
03
#911874
04
#911876
11
#911878
07
#911881
13
#911883
01
17
#911886
14
#912059
15
#912063
1.
#912067
0.
#912070
03
#912073
04
#912078
12
#912080
14
#912082
02
#912172
1(
#912184
11
04
#912188
12
#912193
01
#912194
02
#912359
05
#912363
1&
#912365
0#
0(
0&
0$
#912366
1'
1#
1(
#912374
13
#912459
15
#912463
1.
#912467
16
#912468
14
#912470
0#
0(
#912471
03
#912473
04
#912474
12
#912482
11
#912484
14
02
#912492
06
#912496
07
#912558
0.
1/
#912566
1$
1#
#912567
13
0/
#912570
01
#912572
04
#912576
03
#912579
17
#912672
1(
#912682
13
#912684
14
#912759
05
#912765
0$
0#
0(
#912770
0'
1$
1#
#912772
03
#912774
04
#912776
11
#912778
07
#912781
13
#912783
01
17
#912786
14
#912959
15
#912963
1/
#912967
0/
#912969
03
#912972
04
#912978
13
#912980
14
#912982
03
#913072
1(
#913084
11
04
#913088
12
#913093
01
#913094
02
#913259
05
#913263
1'
#913265
0#
0(
0$
#913266
1#
1(
#913271
13
#913359
15
#913363
1/
#913367
16
#913368
14
#913370
0#
0(
#913379
04
#913407
06
#913412
07
#913458
1)
0/
1+
1*
#913466
1$
1#
#913467
0*
0+
0)
03
#913471
17
#913572
1(
#913582
13
#913584
14
#913659
05
#913663
1!
1"
#913665
0!
0"
0'
0$
0(
#913666
1'
#913667
0#
#913670
1$
0'
1#
#913674
04
#913676
11
#913683
01
#913686
14
#913859
15
#913863
1*
1)
1+
#913867
0*
0)
0+
#913871
03
#913873
04
#913880
14
#913972
1(
#913984
04
11
#913988
12
#913993
01
#913994
02
#914159
05
#914163
1!
1"
#914165
0$
0(
0!
0"
#914166
1'
1(
#914171
13
#914259
15
#914263
1*
1+
1)
#914267
16
#914268
14
#914270
0#
0(
#914277
06
#914279
04
#914280
03
#914358
0+
1.
1/
1-
1,
#914363
12
#914366
1$
1#
#914367
0-
0,
0.
0/
0)
0*
#914368
11
#914372
02
#914376
01
#914472
1(
#914482
13
#914484
14
#914559
05
#914563
1%
1&
1"
1!
#914565
0"
0!
0&
0(
0#
0$
0%
#914570
1#
1$
0'
#914572
03
#914574
04
#914576
11
#914578
07
#914581
13
#914583
01
17
#914586
14
#914759
15
#914763
1*
1-
1/
1,
1.
1)
#914767
0.
0)
0*
0-
0/
0,
#914769
03
#914772
04
#914778
13
12
#914780
14
#914782
03
02
#914872
1(
#914884
11
04
#914888
12
#914893
01
#914894
02
#915059
05
#915063
1%
1"
1'
1&
1!
#915065
0&
0!
0"
0(
0$
0%
0#
#915066
1(
1#
#915071
13
#915159
15
#915163
1*
1.
1)
1,
1/
1-
#915167
16
#915168
14
#915170
0#
0(
#915171
03
#915173
04
#915177
06
#915179
12
#915181
11
#915258
0/
#915266
1$
1#
#915267
0*
0-
0,
0)
0.
#915272
02
#915276
01
#915372
1(
#915382
13
#915384
14
#915459
05
#915463
1%
1&
1"
1!
#915465
0"
0!
0$
0(
0#
0%
0&
0'
#915466
1'
#915470
1$
1#
0'
#915472
03
#915474
04
#915476
11
#915478
07
#915481
13
#915483
01
17
#915486
14
#915659
15
#915663
1)
1.
1,
1-
1*
#915667
0-
0*
0)
0.
0,
#915670
03
#915674
04
#915678
12
#915680
14
#915682
02
#915772
1(
#915784
11
04
#915788
12
#915793
01
#915794
02
#915959
05
#915963
1"
1&
1!
1%
#915965
0!
0%
0(
0$
0#
0"
0&
#915966
1(
1#
1'
#915974
13
#916059
15
#916063
1-
1)
1*
1,
1.
#916067
16
#916068
14
#916070
0(
0#
#916071
03
#916073
04
#916077
06
#916079
12
#916081
11
#916158
0.
1/
#916164
13
#916166
1#
1$
#916167
0-
0/
0,
0*
0)
#916168
01
#916172
02
#916174
03
#916272
1(
#916282
13
#916284
14
#916359
05
#916363
1%
1!
1"
#916365
0!
0"
0%
0$
0#
0(
#916370
0'
1$
1#
#916372
03
#916374
04
#916376
11
#916378
07
#916381
13
#916383
01
17
#916386
14
#916559
15
#916563
1)
1*
1,
1-
1/
#916567
0-
0/
0)
0*
0,
#916572
04
#916574
03
#916578
13
#916580
14
#916582
03
#916672
1(
#916684
11
04
#916688
12
#916693
01
#916694
02
#916859
05
#916863
1%
1'
1"
1!
#916865
0"
0!
0(
0$
0#
0%
#916866
1(
1#
#916871
13
#916959
15
#916963
1)
1/
1-
1,
1*
#916967
16
#916968
14
#916970
0#
0(
#916971
12
#916977
06
#916978
04
#917058
0/
#917066
1$
1#
#917067
0*
0,
0-
0)
#917072
02
#917074
03
#917172
1(
#917182
13
#917184
14
#917259
05
#917263
1%
1"
1!
#917265
0"
0!
0%
0$
0(
0'
0#
#917266
1'
#917270
1$
1#
0'
#917272
03
#917274
04
#917276
11
#917278
07
#917281
13
#917283
01
17
#917286
14
#917459
15
#917463
1-
1)
1,
1*
#917467
0-
0)
0,
0*
#917470
03
#917473
04
#917480
14
#917572
1(
#917584
04
11
#917588
12
#917593
01
#917594
02
#917759
05
#917763
1%
1!
1"
#917765
0!
0"
0#
0(
0%
0$
#917766
1'
1#
1(
#917774
13
#917859
15
#917863
1)
1,
1*
1-
#917867
16
#917868
14
#917870
0#
0(
#917871
12
#917877
06
#917878
04
#917958
0-
1/
1.
#917963
02
#917964
03
#917966
1#
1$
#917967
0*
0.
0/
0,
0)
#917970
13
11
#917972
14
#917976
03
#917979
01
#917981
04
#918072
1(
#918082
13
#918084
14
#918159
05
#918163
1&
1!
1"
#918165
0!
0"
0&
0#
0$
0(
#918170
0'
1#
1$
#918172
03
#918174
04
#918176
11
#918178
07
#918181
13
#918183
01
17
#918186
14
#918359
15
#918363
1*
1/
1)
1.
1,
#918367
0.
0,
0*
0/
0)
#918369
03
#918372
04
#918378
12
13
#918380
14
#918382
02
03
#918472
1(
#918484
04
11
#918488
12
#918493
01
#918494
02
#918659
05
#918663
1"
1!
1'
1&
#918665
0(
0&
0$
0"
0!
0#
#918666
1(
1#
#918671
13
#918759
15
#918763
1*
1,
1.
1)
1/
#918767
16
#918768
14
#918770
0#
0(
#918771
03
#918773
04
#918774
12
#918777
06
#918782
13
11
#918784
14
02
#918858
0/
#918866
1$
1#
#918867
0*
0)
03
0.
0,
#918879
01
#918881
04
#918972
1(
#918982
13
#918984
14
#919059
05
#919063
1!
1&
1"
#919065
0&
0"
0$
0'
0(
0!
0#
#919066
1'
#919070
1$
1#
0'
#919072
03
#919074
04
#919076
11
#919078
07
#919081
13
#919083
01
17
#919086
14
#919259
15
#919263
1.
1*
1,
1)
#919267
0.
0*
0,
0)
#919270
03
#919273
04
#919278
12
#919280
14
#919282
02
#919372
1(
#919384
11
04
#919388
12
#919393
01
#919394
02
#919559
05
#919563
1&
1!
1"
#919565
0!
0"
0#
0$
0(
0&
#919566
1#
1(
1'
#919574
13
#919659
15
#919663
1.
1*
1,
1)
#919667
16
#919668
14
#919670
0(
0#
#919671
03
#919673
04
#919674
12
#919677
06
#919682
11
#919684
14
02
#919758
1/
0.
#919766
1#
1$
#919767
0)
13
0/
0*
0,
#919770
01
#919772
04
#919776
03
#919872
1(
#919882
13
#919884
14
#919959
05
#919963
1!
1"
#919965
0$
0(
0!
0"
0#
#919970
1$
1#
0'
#919972
03
#919974
04
#919976
11
#919978
07
#919981
13
#919983
01
17
#919986
14
#920159
15
#920163
1*
1)
1,
1/
#920167
0*
0)
0,
0/
#920169
03
#920172
04
#920178
13
#920180
14
#920182
03
#920272
1(
#920284
11
04
#920288
12
#920293
01
#920294
02
#920459
05
#920463
1"
1'
1!
#920465
0#
0(
0"
0!
0$
#920466
1#
1(
#920471
13
#920559
15
#920563
1*
1,
1/
1)
#920567
16
#920568
14
#920570
0#
0(
#920577
06
#920579
04
#920658
0/
#920666
1#
1$
#920667
0*
0,
03
0)
#920772
1(
#920782
13
#920784
14
#920859
05
#920863
1"
1!
#920865
0$
0!
0#
0(
0"
0'
#920866
1'
#920870
1$
1#
0'
#920872
03
#920874
04
#920876
11
#920878
07
#920881
13
#920883
01
17
#920886
14
#921059
15
#921063
1*
1)
1,
#921067
0*
0)
0,
#921071
03
#921073
04
#921080
14
#921172
1(
#921184
11
04
#921188
12
#921193
01
#921194
02
#921359
05
#921363
1"
1!
#921365
0$
0!
0#
0(
0"
#921366
1'
1#
1(
#921371
13
#921459
15
#921463
1*
1)
1,
#921467
16
#921468
14
#921470
0#
0(
#921477
06
#921479
04
#921480
03
#921558
0,
1.
1-
1/
#921563
12
#921566
1$
1#
#921567
0-
0)
0/
0.
0*
#921568
11
#921572
02
#921576
01
#921672
1(
#921682
13
#921684
14
#921759
05
#921763
1&
1!
1%
1"
#921765
0%
0"
0!
0(
0$
0#
0&
#921770
0'
1$
1#
#921772
03
#921774
04
#921776
11
#921778
07
#921781
13
#921783
01
17
#921786
14
#921959
15
#921963
1)
1*
1-
1.
1/
#921967
0.
0/
0)
0*
0-
#921969
03
#921972
04
#921978
13
12
#921980
14
#921982
03
02
#922072
1(
#922084
11
04
#922088
12
#922093
01
#922094
02
#922259
05
#922263
1"
1%
1'
1!
1&
#922265
0!
0&
0%
0(
0$
0#
0"
#922266
1(
1#
#922271
13
#922359
15
#922363
1)
1/
1.
1-
1*
#922367
16
#922368
14
#922370
0#
0(
#922371
03
#922373
04
#922377
06
#922379
12
#922381
11
#922458
0/
#922466
1$
1#
#922467
0*
0-
0)
0.
#922472
02
#922476
01
#922572
1(
#922582
13
#922584
14
#922659
05
#922663
1"
1!
1%
1&
#922665
0%
0&
0!
0$
0"
0#
0(
0'
#922666
1'
#922670
1$
1#
0'
#922672
03
#922674
04
#922676
11
#922678
07
#922681
13
#922683
01
17
#922686
14
#922859
15
#922863
1)
1.
1-
1*
#922867
0)
0.
0-
0*
#922870
03
#922874
04
#922878
12
#922880
14
#922882
02
#922972
1(
#922984
11
04
#922988
12
#922993
01
#922994
02
#923159
05
#923163
1%
1!
1&
1"
#923165
0&
0"
0#
0$
0(
0%
0!
#923166
1'
1#
1(
#923174
13
#923259
15
#923263
1)
1-
1.
1*
#923267
16
#923268
14
#923270
0#
0(
#923271
03
#923273
04
#923277
06
#923279
12
#923281
11
#923358
1/
0.
#923364
13
#923366
1#
1$
#923367
0*
0/
0)
0-
#923368
01
#923372
02
#923374
03
#923472
1(
#923482
13
#923484
14
#923559
05
#923563
1"
1%
1!
#923565
0%
0!
0"
0(
0$
0#
#923570
0'
1$
1#
#923572
03
#923574
04
#923576
11
#923578
07
#923581
13
#923583
01
17
#923586
14
#923759
15
#923763
1)
1/
1-
1*
#923767
0)
0/
0-
0*
#923772
04
#923774
03
#923778
13
#923780
14
#923782
03
#923872
1(
#923884
04
11
#923888
12
#923893
01
#923894
02
#924059
05
#924063
1"
1%
1'
1!
#924065
0(
0!
0$
0#
0"
0%
#924066
1(
1#
#924071
13
#924159
15
#924163
1-
1/
1)
1*
#924167
16
#924168
14
#924170
0#
0(
#924171
12
#924177
06
#924178
04
#924258
0/
#924266
1#
1$
#924267
0*
0)
0-
#924272
02
#924274
03
#924372
1(
#924382
13
#924384
14
#924459
05
#924463
1%
1"
1!
#924465
0"
0!
0%
0'
0(
0#
0$
#924466
1'
#924470
1#
1$
0'
#924472
03
#924474
04
#924476
11
#924478
07
#924481
13
#924483
01
17
#924486
14
#924659
15
#924663
1)
1-
1*
#924667
0)
0-
0*
#924670
03
#924673
04
#924680
14
#924772
1(
#924784
11
04
#924788
12
#924793
01
#924794
02
#924959
05
#924963
1"
1%
1!
#924965
0%
0!
0#
0$
0(
0"
#924966
1'
1#
1(
#924974
13
#925059
15
#925063
1-
1*
1)
#925067
16
#925068
14
#925070
0#
0(
#925071
12
#925077
06
#925078
04
#925158
1.
0-
1/
#925163
02
#925164
03
#925166
1#
1$
#925167
0)
0.
0/
0*
#925170
13
11
#925172
14
#925176
03
#925179
01
#925181
04
#925272
1(
#925282
13
#925284
14
#925359
05
#925363
1&
1!
1"
#925365
0!
0"
0&
0$
0(
0#
#925370
0'
1$
1#
#925372
03
#925374
04
#925376
11
#925378
07
#925381
13
#925383
01
17
#925386
14
#925559
15
#925563
1)
1*
1.
1/
#925567
0)
0*
0.
0/
#925569
03
#925572
04
#925578
12
13
#925580
14
#925582
02
03
#925672
1(
#925684
11
04
#925688
12
#925693
01
#925694
02
#925859
05
#925863
1&
1'
1"
1!
#925865
0(
0!
0#
0$
0&
0"
#925866
1(
1#
#925871
13
#925959
15
#925963
1.
1)
1*
1/
#925967
16
#925968
14
#925970
0#
0(
#925971
03
#925973
04
#925974
12
#925977
06
#925982
13
11
#925984
14
02
#926058
0/
#926066
1#
1$
#926067
0.
03
0*
0)
#926079
01
#926081
04
#926172
1(
#926182
13
#926184
14
#926259
05
#926263
1"
1!
1&
#926265
0!
0&
0"
0$
0(
0#
0'
#926266
1'
#926270
1$
1#
0'
#926272
03
#926274
04
#926276
11
#926278
07
#926281
13
#926283
01
17
#926286
14
#926459
15
#926463
1*
1)
1.
#926467
0*
0)
0.
#926470
03
#926473
04
#926478
12
#926480
14
#926482
02
#926572
1(
#926584
11
04
#926588
12
#926593
01
#926594
02
#926759
05
#926763
1"
1&
1!
#926765
0&
0!
0#
0(
0"
0$
#926766
1'
1#
1(
#926774
13
#926859
15
#926863
1.
1)
1*
#926867
16
#926868
14
#926870
0#
0(
#926871
03
#926873
04
#926874
12
#926877
06
#926882
11
#926884
14
02
#926958
1/
0.
#926966
1#
1$
#926967
0/
13
0)
0*
#926970
01
#926972
04
#926976
03
#927072
1(
#927082
13
#927084
14
#927159
05
#927163
1!
1"
#927165
0(
0!
0"
0#
0$
#927170
0'
1#
1$
#927172
03
#927174
04
#927176
11
#927178
07
#927181
13
#927183
01
17
#927186
14
#927359
15
#927363
1)
1*
1/
#927367
0)
0*
0/
#927369
03
#927372
04
#927378
13
#927380
14
#927382
03
#927472
1(
#927484
11
04
#927488
12
#927493
01
#927494
02
#927659
05
#927663
1'
1!
1"
#927665
0#
0"
0$
0(
0!
#927666
1#
1(
#927671
13
#927759
15
#927763
1/
1)
1*
#927767
16
#927768
14
#927770
0(
0#
#927777
06
#927779
04
#927858
0/
1+
#927866
1#
1$
#927867
0)
03
0+
0*
#927972
1(
#927982
13
#927984
14
#928059
05
#928063
1!
1"
#928065
0(
0!
0"
0$
0'
#928066
1'
#928067
0#
#928070
1$
0'
1#
#928074
04
#928076
11
#928083
01
#928086
14
#928259
15
#928263
1*
1)
1+
#928267
0*
0)
0+
#928271
03
#928273
04
#928280
14
#928372
1(
#928384
04
11
#928388
12
#928393
01
#928394
02
#928559
05
#928563
1"
1!
#928565
0$
0(
0"
0!
#928566
1'
1(
#928571
13
#928659
15
#928663
1*
1+
1)
#928667
16
#928668
14
#928670
0(
0#
#928677
06
#928679
04
#928680
03
#928758
1/
1-
0+
1.
1,
#928763
12
#928766
1#
1$
#928767
0,
0/
0-
0)
0*
0.
#928768
11
#928772
02
#928776
01
#928872
1(
#928882
13
#928884
14
#928959
05
#928963
1!
1&
1%
1"
#928965
0%
0"
0&
0(
0$
0#
0!
#928970
1$
1#
0'
#928972
03
#928974
04
#928976
11
#928978
07
#928981
13
#928983
01
17
#928986
14
#929159
15
#929163
1*
1,
1/
1)
1.
1-
#929167
0.
0-
0*
0,
0/
0)
#929169
03
#929172
04
#929178
12
13
#929180
14
#929182
02
03
#929272
1(
#929284
11
04
#929288
12
#929293
01
#929294
02
#929459
05
#929463
1!
1'
1%
1&
1"
#929465
0&
0"
0#
0!
0(
0%
0$
#929466
1#
1(
#929471
13
#929559
15
#929563
1*
1.
1-
1)
1/
1,
#929567
16
#929568
14
#929570
0(
0#
#929571
03
#929573
04
#929577
06
#929579
12
#929581
11
#929658
0/
#929666
1$
1#
#929667
0*
0,
0)
0-
0.
#929672
02
#929676
01
#929772
1(
#929782
13
#929784
14
#929859
05
#929863
1"
1%
1&
1!
#929865
0&
0!
0(
0'
0$
0#
0"
0%
#929866
1'
#929870
1$
1#
0'
#929872
03
#929874
04
#929876
11
#929878
07
#929881
13
#929883
01
17
#929886
14
#930059
15
#930063
1.
1-
1)
1,
1*
#930067
0,
0*
0.
0-
0)
#930070
03
#930074
04
#930078
12
#930080
14
#930082
02
#930172
1(
#930184
11
04
#930188
12
#930193
01
#930194
02
#930359
05
#930363
1!
1&
1"
1%
#930365
0"
0%
0&
0#
0(
0$
0!
#930366
1#
1(
1'
#930374
13
#930459
15
#930463
1,
1.
1*
1)
1-
#930467
16
#930468
14
#930470
0#
0(
#930471
03
#930473
04
#930477
06
#930479
12
#930481
11
#930558
1/
0.
#930564
13
#930566
1#
1$
#930567
0-
0/
0*
0)
0,
#930568
01
#930572
02
#930574
03
#930672
1(
#930682
13
#930684
14
#930759
05
#930763
1%
1"
1!
#930765
0"
0!
0%
0(
0$
0#
#930770
0'
1$
1#
#930772
03
#930774
04
#930776
11
#930778
07
#930781
13
#930783
01
17
#930786
14
#930959
15
#930963
1)
1,
1-
1*
1/
#930967
0*
0/
0)
0,
0-
#930972
04
#930974
03
#930978
13
#930980
14
#930982
03
#931072
1(
#931084
04
11
#931088
12
#931093
01
#931094
02
#931259
05
#931263
1%
1"
1!
1'
#931265
0!
0"
0$
0(
0#
0%
#931266
1(
1#
#931271
13
#931359
15
#931363
1)
1/
1-
1*
1,
#931367
16
#931368
14
#931370
0#
0(
#931371
12
#931377
06
#931378
04
#931458
0/
#931466
1#
1$
#931467
0,
0*
0-
0)
#931472
02
#931474
03
#931572
1(
#931582
13
#931584
14
#931659
05
#931663
1!
1"
1%
#931665
0"
0%
0(
0'
0#
0!
0$
#931666
1'
#931670
1#
1$
0'
#931672
03
#931674
04
#931676
11
#931678
07
#931681
13
#931683
01
17
#931686
14
#931859
15
#931863
1-
1)
1*
1,
#931867
0-
0)
0*
0,
#931870
03
#931873
04
#931880
14
#931972
1(
#931984
04
11
#931988
12
#931993
01
#931994
02
#932159
05
#932163
1"
1%
1!
#932165
0%
0!
0$
0#
0(
0"
